EESchema Schematic File Version 2
LIBS:power
LIBS:device
LIBS:switches
LIBS:relays
LIBS:motors
LIBS:transistors
LIBS:conn
LIBS:linear
LIBS:regul
LIBS:74xx
LIBS:cmos4000
LIBS:adc-dac
LIBS:memory
LIBS:xilinx
LIBS:microcontrollers
LIBS:dsp
LIBS:microchip
LIBS:analog_switches
LIBS:motorola
LIBS:texas
LIBS:intel
LIBS:audio
LIBS:interface
LIBS:digital-audio
LIBS:philips
LIBS:display
LIBS:cypress
LIBS:siliconi
LIBS:opto
LIBS:atmel
LIBS:contrib
LIBS:valves
LIBS:h_bridges
LIBS:linear_regulators
LIBS:power_drivers
LIBS:switch_regulators
LIBS:radios
LIBS:esd_protection
LIBS:stm32
LIBS:nrfUsb-cache
EELAYER 25 0
EELAYER END
$Descr A4 11693 8268
encoding utf-8
Sheet 1 1
Title ""
Date ""
Rev ""
Comp ""
Comment1 ""
Comment2 ""
Comment3 ""
Comment4 ""
$EndDescr
$Comp
L USB_A J1
U 1 1 5B3CB310
P 1000 1500
F 0 "J1" H 800 1950 50  0000 L CNN
F 1 "USB_A" H 800 1850 50  0000 L CNN
F 2 "footprint:USB_Type_A_Male" H 1150 1450 50  0001 C CNN
F 3 "" H 1150 1450 50  0001 C CNN
	1    1000 1500
	1    0    0    -1  
$EndComp
$Comp
L nRF24L01+ U3
U 1 1 5B3CB393
P 8200 5800
F 0 "U3" H 8200 5500 50  0000 C CNN
F 1 "nRF24L01+" H 8200 6100 50  0000 C CNN
F 2 "footprint:nRF24L01" H 8200 5900 50  0001 C CNN
F 3 "DOCUMENTATION" H 8200 5750 50  0001 C CNN
	1    8200 5800
	-1   0    0    1   
$EndComp
$Comp
L +5V #PWR01
U 1 1 5B3CB503
P 1400 1000
F 0 "#PWR01" H 1400 850 50  0001 C CNN
F 1 "+5V" H 1400 1140 50  0000 C CNN
F 2 "" H 1400 1000 50  0001 C CNN
F 3 "" H 1400 1000 50  0001 C CNN
	1    1400 1000
	1    0    0    -1  
$EndComp
$Comp
L GND #PWR02
U 1 1 5B3CC001
P 950 2100
F 0 "#PWR02" H 950 1850 50  0001 C CNN
F 1 "GND" H 950 1950 50  0000 C CNN
F 2 "" H 950 2100 50  0001 C CNN
F 3 "" H 950 2100 50  0001 C CNN
	1    950  2100
	1    0    0    -1  
$EndComp
Wire Wire Line
	950  2100 950  2000
Wire Wire Line
	900  2000 1000 2000
Wire Wire Line
	900  2000 900  1900
Wire Wire Line
	1000 2000 1000 1900
Connection ~ 950  2000
Wire Wire Line
	1400 1300 1300 1300
$Comp
L R R2
U 1 1 5B3CC110
P 1700 1500
F 0 "R2" V 1600 1350 50  0000 L CNN
F 1 "22R" V 1600 1550 50  0000 L CNN
F 2 "Resistors_SMD:R_0805_HandSoldering" V 1630 1500 50  0001 C CNN
F 3 "" H 1700 1500 50  0001 C CNN
	1    1700 1500
	0    1    1    0   
$EndComp
$Comp
L R R3
U 1 1 5B3CC257
P 1700 1600
F 0 "R3" V 1600 1450 50  0000 L CNN
F 1 "22R" V 1600 1650 50  0000 L CNN
F 2 "Resistors_SMD:R_0805_HandSoldering" V 1630 1600 50  0001 C CNN
F 3 "" H 1700 1600 50  0001 C CNN
	1    1700 1600
	0    1    -1   0   
$EndComp
Wire Wire Line
	1850 1500 2250 1500
Wire Wire Line
	2250 1600 1850 1600
$Comp
L R R1
U 1 1 5B3CC4EF
P 2050 1250
F 0 "R1" H 1850 1200 50  0000 L CNN
F 1 "1k5" H 1800 1300 50  0000 L CNN
F 2 "Resistors_SMD:R_0805_HandSoldering" V 1980 1250 50  0001 C CNN
F 3 "" H 2050 1250 50  0001 C CNN
	1    2050 1250
	-1   0    0    1   
$EndComp
Wire Wire Line
	7050 5550 7450 5550
Wire Wire Line
	7450 5700 7050 5700
Wire Wire Line
	7050 5850 7450 5850
Wire Wire Line
	7450 6000 7050 6000
Wire Wire Line
	7050 5400 9050 5400
Wire Wire Line
	9050 5400 9050 5550
Wire Wire Line
	9050 5550 8950 5550
Wire Wire Line
	7050 5250 9150 5250
Wire Wire Line
	9150 5250 9150 5700
Wire Wire Line
	9150 5700 8950 5700
$Comp
L +3V3 #PWR03
U 1 1 5B3D2E69
P 9300 5650
F 0 "#PWR03" H 9300 5500 50  0001 C CNN
F 1 "+3V3" H 9300 5790 50  0000 C CNN
F 2 "" H 9300 5650 50  0001 C CNN
F 3 "" H 9300 5650 50  0001 C CNN
	1    9300 5650
	1    0    0    -1  
$EndComp
Wire Wire Line
	9300 5850 8950 5850
Wire Wire Line
	9300 5650 9300 5850
Wire Wire Line
	8950 6000 9300 6000
Wire Wire Line
	9300 6000 9300 6150
$Comp
L GND #PWR04
U 1 1 5B3D345A
P 9300 6150
F 0 "#PWR04" H 9300 5900 50  0001 C CNN
F 1 "GND" H 9300 6000 50  0000 C CNN
F 2 "" H 9300 6150 50  0001 C CNN
F 3 "" H 9300 6150 50  0001 C CNN
	1    9300 6150
	1    0    0    -1  
$EndComp
$Comp
L AP1117-33 U1
U 1 1 5B3D3C95
P 3900 1250
F 0 "U1" H 3750 1375 50  0000 C CNN
F 1 "AP1117-33" H 3900 1375 50  0000 L CNN
F 2 "TO_SOT_Packages_SMD:SOT-223-3Lead_TabPin2" H 3900 1450 50  0001 C CNN
F 3 "" H 4000 1000 50  0001 C CNN
	1    3900 1250
	1    0    0    -1  
$EndComp
$Comp
L +5V #PWR05
U 1 1 5B3D3C9C
P 3500 1150
F 0 "#PWR05" H 3500 1000 50  0001 C CNN
F 1 "+5V" H 3500 1290 50  0000 C CNN
F 2 "" H 3500 1150 50  0001 C CNN
F 3 "" H 3500 1150 50  0001 C CNN
	1    3500 1150
	1    0    0    -1  
$EndComp
$Comp
L +3V3 #PWR06
U 1 1 5B3D3CA2
P 4500 1150
F 0 "#PWR06" H 4500 1000 50  0001 C CNN
F 1 "+3V3" H 4500 1290 50  0000 C CNN
F 2 "" H 4500 1150 50  0001 C CNN
F 3 "" H 4500 1150 50  0001 C CNN
	1    4500 1150
	1    0    0    -1  
$EndComp
Wire Wire Line
	4200 1250 5500 1250
Wire Wire Line
	4500 1150 4500 1350
Wire Wire Line
	3250 1250 3600 1250
Wire Wire Line
	3500 1250 3500 1150
$Comp
L GND #PWR07
U 1 1 5B3D3CAC
P 3900 1850
F 0 "#PWR07" H 3900 1600 50  0001 C CNN
F 1 "GND" H 3900 1700 50  0000 C CNN
F 2 "" H 3900 1850 50  0001 C CNN
F 3 "" H 3900 1850 50  0001 C CNN
	1    3900 1850
	1    0    0    -1  
$EndComp
Wire Wire Line
	3900 1550 3900 1850
$Comp
L C C2
U 1 1 5B3D3CB3
P 4500 1500
F 0 "C2" H 4650 1550 50  0000 L CNN
F 1 "100nF" H 4650 1450 50  0000 L CNN
F 2 "Capacitors_SMD:C_0805_HandSoldering" H 4538 1350 50  0001 C CNN
F 3 "" H 4500 1500 50  0001 C CNN
	1    4500 1500
	1    0    0    -1  
$EndComp
Wire Wire Line
	4500 1750 4500 1650
Wire Wire Line
	3250 1750 5500 1750
Connection ~ 3900 1750
Connection ~ 4500 1250
$Comp
L C C3
U 1 1 5B3D3CBE
P 5050 1500
F 0 "C3" H 5200 1550 50  0000 L CNN
F 1 "1uF" H 5200 1450 50  0000 L CNN
F 2 "Capacitors_SMD:C_0805_HandSoldering" H 5088 1350 50  0001 C CNN
F 3 "" H 5050 1500 50  0001 C CNN
	1    5050 1500
	1    0    0    -1  
$EndComp
$Comp
L C C4
U 1 1 5B3D3CC5
P 5500 1500
F 0 "C4" H 5650 1550 50  0000 L CNN
F 1 "1uF" H 5650 1450 50  0000 L CNN
F 2 "Capacitors_SMD:C_0805_HandSoldering" H 5538 1350 50  0001 C CNN
F 3 "" H 5500 1500 50  0001 C CNN
	1    5500 1500
	1    0    0    -1  
$EndComp
Wire Wire Line
	5050 1250 5050 1350
Wire Wire Line
	5500 1250 5500 1350
Connection ~ 5050 1250
Wire Wire Line
	5050 1750 5050 1650
Connection ~ 4500 1750
Wire Wire Line
	5500 1750 5500 1650
Connection ~ 5050 1750
$Comp
L C C1
U 1 1 5B3D3CD3
P 3250 1500
F 0 "C1" H 3400 1550 50  0000 L CNN
F 1 "100nF" H 3400 1450 50  0000 L CNN
F 2 "Capacitors_SMD:C_0805_HandSoldering" H 3288 1350 50  0001 C CNN
F 3 "" H 3250 1500 50  0001 C CNN
	1    3250 1500
	1    0    0    -1  
$EndComp
Wire Wire Line
	3250 1650 3250 1750
Wire Wire Line
	3250 1250 3250 1350
Connection ~ 3500 1250
Wire Wire Line
	1400 1000 1400 1300
Wire Wire Line
	2050 1400 2050 1500
Connection ~ 2050 1500
$Comp
L +5V #PWR08
U 1 1 5B3D831F
P 2050 1000
F 0 "#PWR08" H 2050 850 50  0001 C CNN
F 1 "+5V" H 2050 1140 50  0000 C CNN
F 2 "" H 2050 1000 50  0001 C CNN
F 3 "" H 2050 1000 50  0001 C CNN
	1    2050 1000
	1    0    0    -1  
$EndComp
Wire Wire Line
	2050 1000 2050 1100
Wire Wire Line
	1550 1500 1300 1500
Wire Wire Line
	1300 1600 1550 1600
Wire Wire Line
	10200 2450 10500 2450
Wire Wire Line
	10500 2600 10200 2600
Text Label 7100 3500 0    60   ~ 0
TX_LED
Text Label 7100 3650 0    60   ~ 0
RX_LED
Text Label 10500 2300 0    60   ~ 0
SWDIO
Text Label 9700 1250 1    60   ~ 0
SWCLK
Wire Wire Line
	9700 1250 9700 1500
Wire Wire Line
	10200 2300 10500 2300
$Comp
L +3V3 #PWR09
U 1 1 5B3D906A
P 10300 1900
F 0 "#PWR09" H 10300 1750 50  0001 C CNN
F 1 "+3V3" H 10300 2040 50  0000 C CNN
F 2 "" H 10300 1900 50  0001 C CNN
F 3 "" H 10300 1900 50  0001 C CNN
	1    10300 1900
	1    0    0    -1  
$EndComp
$Comp
L GND #PWR010
U 1 1 5B3D9070
P 10550 1900
F 0 "#PWR010" H 10550 1650 50  0001 C CNN
F 1 "GND" H 10550 1750 50  0000 C CNN
F 2 "" H 10550 1900 50  0001 C CNN
F 3 "" H 10550 1900 50  0001 C CNN
	1    10550 1900
	-1   0    0    1   
$EndComp
Wire Wire Line
	10200 2000 10300 2000
Wire Wire Line
	10300 2000 10300 1900
Wire Wire Line
	10200 2150 10550 2150
Wire Wire Line
	10550 2150 10550 1900
$Comp
L +3V3 #PWR011
U 1 1 5B3D907A
P 8050 1300
F 0 "#PWR011" H 8050 1150 50  0001 C CNN
F 1 "+3V3" H 8050 1440 50  0000 C CNN
F 2 "" H 8050 1300 50  0001 C CNN
F 3 "" H 8050 1300 50  0001 C CNN
	1    8050 1300
	1    0    0    -1  
$EndComp
$Comp
L GND #PWR012
U 1 1 5B3D9080
P 8200 1400
F 0 "#PWR012" H 8200 1150 50  0001 C CNN
F 1 "GND" H 8200 1250 50  0000 C CNN
F 2 "" H 8200 1400 50  0001 C CNN
F 3 "" H 8200 1400 50  0001 C CNN
	1    8200 1400
	-1   0    0    1   
$EndComp
Wire Wire Line
	8050 1300 8050 1500
Wire Wire Line
	8200 1400 8200 1500
$Comp
L +3V3 #PWR013
U 1 1 5B3D9090
P 9700 4400
F 0 "#PWR013" H 9700 4250 50  0001 C CNN
F 1 "+3V3" H 9700 4540 50  0000 C CNN
F 2 "" H 9700 4400 50  0001 C CNN
F 3 "" H 9700 4400 50  0001 C CNN
	1    9700 4400
	-1   0    0    1   
$EndComp
$Comp
L GND #PWR014
U 1 1 5B3D9096
P 9550 4300
F 0 "#PWR014" H 9550 4050 50  0001 C CNN
F 1 "GND" H 9550 4150 50  0000 C CNN
F 2 "" H 9550 4300 50  0001 C CNN
F 3 "" H 9550 4300 50  0001 C CNN
	1    9550 4300
	1    0    0    -1  
$EndComp
Wire Wire Line
	9700 4400 9700 4150
Wire Wire Line
	9550 4150 9550 4300
$Comp
L STM32F103C8T6 U?
U 1 1 5B3D909E
P 8900 2850
AR Path="/5B3CBF4A/5B3D909E" Ref="U?"  Part="1" 
AR Path="/5B3D909E" Ref="U2"  Part="1" 
F 0 "U2" H 10150 4100 60  0000 R CNN
F 1 "STM32F103C8T6" H 9250 2850 60  0000 R CNN
F 2 "Housings_QFP:LQFP-48_7x7mm_Pitch0.5mm" H 7550 3700 60  0001 C CNN
F 3 "" H 7550 3700 60  0001 C CNN
	1    8900 2850
	1    0    0    -1  
$EndComp
Wire Wire Line
	8950 4150 8950 4650
Wire Wire Line
	8800 4150 8800 4650
Wire Wire Line
	8650 4150 8650 4650
Wire Wire Line
	8500 4150 8500 4650
Wire Wire Line
	8350 4150 8350 4650
Text Label 7100 2900 0    60   ~ 0
RESET
Wire Wire Line
	7100 2900 7550 2900
$Comp
L GND #PWR015
U 1 1 5B3D90B1
P 8650 1400
F 0 "#PWR015" H 8650 1150 50  0001 C CNN
F 1 "GND" H 8650 1250 50  0000 C CNN
F 2 "" H 8650 1400 50  0001 C CNN
F 3 "" H 8650 1400 50  0001 C CNN
	1    8650 1400
	-1   0    0    1   
$EndComp
Wire Wire Line
	8650 1400 8650 1500
Wire Notes Line
	6850 800  6850 4850
Wire Notes Line
	6850 4850 10950 4850
Wire Notes Line
	10950 4850 10950 800 
Wire Notes Line
	10950 800  6850 800 
Text Notes 8700 750  0    60   ~ 0
Microcontroller
Wire Notes Line
	3100 2100 5850 2100
Wire Notes Line
	5850 2100 5850 900 
Wire Notes Line
	5850 900  3100 900 
Wire Notes Line
	3100 900  3100 2100
Text Notes 4050 850  0    60   ~ 0
3V3 power supply
Text Label 10500 2450 0    60   ~ 0
USB+
Text Label 10500 2600 0    60   ~ 0
USB-
Text Label 2250 1500 0    60   ~ 0
USB+
Text Label 2250 1600 0    60   ~ 0
USB-
Wire Notes Line
	650  750  650  2350
Wire Notes Line
	650  2350 2700 2350
Wire Notes Line
	2700 2350 2700 750 
Wire Notes Line
	2700 750  650  750 
Text Notes 1300 700  0    60   ~ 0
USB receptacle
Text Label 8350 4650 1    60   ~ 0
nrfSCK
Text Label 8500 4650 1    60   ~ 0
nrfMISO
Text Label 8650 4650 1    60   ~ 0
nrfMOSI
Text Label 8800 4650 1    60   ~ 0
nrfCE
Text Label 8950 4650 1    60   ~ 0
nrfCSN
Text Label 7050 6000 0    60   ~ 0
nrfSCK
Text Label 7050 5700 0    60   ~ 0
nrfMISO
Text Label 7050 5850 0    60   ~ 0
nrfMOSI
Text Label 7050 5250 0    60   ~ 0
nrfCE
Text Label 7050 5400 0    60   ~ 0
nrfCSN
Text Label 8200 4650 1    60   ~ 0
nrfIRQ
Wire Wire Line
	8200 4650 8200 4150
Text Label 7050 5550 0    60   ~ 0
nrfIRQ
$Comp
L +3V3 #PWR016
U 1 1 5B3DCBC5
P 7450 3200
F 0 "#PWR016" H 7450 3050 50  0001 C CNN
F 1 "+3V3" H 7450 3340 50  0000 C CNN
F 2 "" H 7450 3200 50  0001 C CNN
F 3 "" H 7450 3200 50  0001 C CNN
	1    7450 3200
	0    -1   -1   0   
$EndComp
$Comp
L GND #PWR017
U 1 1 5B3DCC64
P 7300 3050
F 0 "#PWR017" H 7300 2800 50  0001 C CNN
F 1 "GND" H 7300 2900 50  0000 C CNN
F 2 "" H 7300 3050 50  0001 C CNN
F 3 "" H 7300 3050 50  0001 C CNN
	1    7300 3050
	0    1    1    0   
$EndComp
Wire Wire Line
	7300 3050 7550 3050
Wire Wire Line
	7550 3200 7450 3200
Text Label 7100 2750 0    60   ~ 0
OSC_OUT
Text Label 7100 2600 0    60   ~ 0
OSC_IN
Wire Wire Line
	7100 2600 7550 2600
Wire Wire Line
	7550 2750 7100 2750
$Comp
L CP C7
U 1 1 5B3DD83E
P 9550 5900
F 0 "C7" H 9700 5950 50  0000 L CNN
F 1 "10uF" H 9700 5850 50  0000 L CNN
F 2 "Capacitors_Tantalum_SMD:CP_Tantalum_Case-A_EIA-3216-18_Reflow" H 9588 5750 50  0001 C CNN
F 3 "" H 9550 5900 50  0001 C CNN
	1    9550 5900
	1    0    0    -1  
$EndComp
Wire Wire Line
	9550 5700 9550 5750
Wire Wire Line
	9550 6100 9550 6050
Text Label 2300 2950 0    60   ~ 0
OSC_IN
Text Label 2300 3450 0    60   ~ 0
OSC_OUT
$Comp
L Crystal Y1
U 1 1 5B4239A6
P 1600 3200
F 0 "Y1" V 1550 3400 50  0000 L CNN
F 1 "8MHz" V 1650 3400 50  0000 L CNN
F 2 "Crystals:Crystal_SMD_5032-2pin_5.0x3.2mm_HandSoldering" H 1600 3200 50  0001 C CNN
F 3 "" H 1600 3200 50  0001 C CNN
	1    1600 3200
	0    1    1    0   
$EndComp
$Comp
L C C5
U 1 1 5B423F04
P 1050 2950
F 0 "C5" V 900 2800 50  0000 L CNN
F 1 "22pF" V 900 3000 50  0000 L CNN
F 2 "Capacitors_SMD:C_0805_HandSoldering" H 1088 2800 50  0001 C CNN
F 3 "" H 1050 2950 50  0001 C CNN
	1    1050 2950
	0    1    1    0   
$EndComp
$Comp
L C C6
U 1 1 5B424235
P 1050 3450
F 0 "C6" V 900 3300 50  0000 L CNN
F 1 "22pF" V 900 3500 50  0000 L CNN
F 2 "Capacitors_SMD:C_0805_HandSoldering" H 1088 3300 50  0001 C CNN
F 3 "" H 1050 3450 50  0001 C CNN
	1    1050 3450
	0    1    1    0   
$EndComp
Wire Wire Line
	1200 2950 2300 2950
Wire Wire Line
	1200 3450 2300 3450
Wire Wire Line
	1600 3050 1600 2950
Connection ~ 1600 2950
Wire Wire Line
	1600 3350 1600 3450
Connection ~ 1600 3450
Wire Wire Line
	900  2950 800  2950
Wire Wire Line
	800  3450 900  3450
$Comp
L GND #PWR018
U 1 1 5B424567
P 650 3550
F 0 "#PWR018" H 650 3300 50  0001 C CNN
F 1 "GND" H 650 3400 50  0000 C CNN
F 2 "" H 650 3550 50  0001 C CNN
F 3 "" H 650 3550 50  0001 C CNN
	1    650  3550
	1    0    0    -1  
$EndComp
Wire Wire Line
	800  2950 800  3450
Wire Wire Line
	650  3550 650  3200
Wire Wire Line
	650  3200 800  3200
Connection ~ 800  3200
Text Label 4050 2950 0    60   ~ 0
RESET
Text Label 4050 3150 0    60   ~ 0
SWDIO
Text Label 4050 3050 0    60   ~ 0
SWCLK
Wire Wire Line
	3900 3150 4050 3150
Wire Wire Line
	4050 3050 3900 3050
Wire Notes Line
	6850 6400 10950 6400
Wire Notes Line
	10950 6400 10950 5100
Wire Notes Line
	10950 5100 6850 5100
Wire Notes Line
	6850 5100 6850 6400
Text Notes 8800 5050 0    60   ~ 0
nRF24L01
NoConn ~ 10200 3050
NoConn ~ 10200 3200
NoConn ~ 10200 3350
NoConn ~ 10200 3500
NoConn ~ 10200 3650
NoConn ~ 9400 4150
NoConn ~ 9250 4150
NoConn ~ 9100 4150
NoConn ~ 8050 4150
NoConn ~ 7550 3350
NoConn ~ 7550 2450
NoConn ~ 7550 2300
NoConn ~ 7550 2150
NoConn ~ 7550 2000
NoConn ~ 8350 1500
NoConn ~ 8500 1500
NoConn ~ 8800 1500
NoConn ~ 8950 1500
NoConn ~ 9550 1500
NoConn ~ 9400 1500
NoConn ~ 9250 1500
NoConn ~ 9100 1500
Wire Wire Line
	4050 2950 3900 2950
Text Notes 1900 6250 0    60   ~ 0
Status LEDs
Wire Notes Line
	1450 6300 1450 7650
Wire Notes Line
	3600 6300 1450 6300
Wire Notes Line
	3600 7650 3600 6300
Wire Notes Line
	1450 7650 3600 7650
$Comp
L +3V3 #PWR019
U 1 1 5B3DB090
P 1650 6550
F 0 "#PWR019" H 1650 6400 50  0001 C CNN
F 1 "+3V3" H 1650 6690 50  0000 C CNN
F 2 "" H 1650 6550 50  0001 C CNN
F 3 "" H 1650 6550 50  0001 C CNN
	1    1650 6550
	1    0    0    -1  
$EndComp
Wire Wire Line
	1650 7000 1650 6900
$Comp
L R R4
U 1 1 5B3DACFE
P 1650 6750
F 0 "R4" H 1750 6800 50  0000 L CNN
F 1 "220R" H 1750 6700 50  0000 L CNN
F 2 "Resistors_SMD:R_0805_HandSoldering" V 1580 6750 50  0001 C CNN
F 3 "" H 1650 6750 50  0001 C CNN
	1    1650 6750
	1    0    0    -1  
$EndComp
Wire Wire Line
	1650 7300 1650 7400
$Comp
L GND #PWR020
U 1 1 5B3DACF7
P 1650 7400
F 0 "#PWR020" H 1650 7150 50  0001 C CNN
F 1 "GND" H 1650 7250 50  0000 C CNN
F 2 "" H 1650 7400 50  0001 C CNN
F 3 "" H 1650 7400 50  0001 C CNN
	1    1650 7400
	1    0    0    -1  
$EndComp
Wire Wire Line
	1650 6550 1650 6600
$Comp
L LED D1
U 1 1 5B3DACEE
P 1650 7150
F 0 "D1" V 1700 6900 50  0000 L CNN
F 1 "GREEN" V 1600 6750 50  0000 L CNN
F 2 "LEDs:LED_0603_HandSoldering" H 1650 7150 50  0001 C CNN
F 3 "" H 1650 7150 50  0001 C CNN
	1    1650 7150
	0    -1   -1   0   
$EndComp
Wire Wire Line
	3050 6900 3050 7000
Wire Wire Line
	2350 7000 2350 6900
$Comp
L R R6
U 1 1 5B3D9059
P 3050 6750
F 0 "R6" H 3150 6800 50  0000 L CNN
F 1 "220R" H 3150 6700 50  0000 L CNN
F 2 "Resistors_SMD:R_0805_HandSoldering" V 2980 6750 50  0001 C CNN
F 3 "" H 3050 6750 50  0001 C CNN
	1    3050 6750
	1    0    0    -1  
$EndComp
$Comp
L R R5
U 1 1 5B3D9052
P 2350 6750
F 0 "R5" H 2450 6800 50  0000 L CNN
F 1 "220R" H 2450 6700 50  0000 L CNN
F 2 "Resistors_SMD:R_0805_HandSoldering" V 2280 6750 50  0001 C CNN
F 3 "" H 2350 6750 50  0001 C CNN
	1    2350 6750
	1    0    0    -1  
$EndComp
Wire Wire Line
	3050 7300 3050 7400
Wire Wire Line
	2350 7300 2350 7400
$Comp
L GND #PWR021
U 1 1 5B3D904A
P 3050 7400
F 0 "#PWR021" H 3050 7150 50  0001 C CNN
F 1 "GND" H 3050 7250 50  0000 C CNN
F 2 "" H 3050 7400 50  0001 C CNN
F 3 "" H 3050 7400 50  0001 C CNN
	1    3050 7400
	1    0    0    -1  
$EndComp
$Comp
L GND #PWR022
U 1 1 5B3D9044
P 2350 7400
F 0 "#PWR022" H 2350 7150 50  0001 C CNN
F 1 "GND" H 2350 7250 50  0000 C CNN
F 2 "" H 2350 7400 50  0001 C CNN
F 3 "" H 2350 7400 50  0001 C CNN
	1    2350 7400
	1    0    0    -1  
$EndComp
Wire Wire Line
	3050 6500 3050 6600
Wire Wire Line
	2350 6500 2350 6600
Text Label 3050 6500 0    60   ~ 0
RX_LED
Text Label 2350 6500 0    60   ~ 0
TX_LED
$Comp
L LED D3
U 1 1 5B3D9039
P 3050 7150
F 0 "D3" V 3100 6900 50  0000 L CNN
F 1 "YELLOW" V 3000 6700 50  0000 L CNN
F 2 "LEDs:LED_0603_HandSoldering" H 3050 7150 50  0001 C CNN
F 3 "" H 3050 7150 50  0001 C CNN
	1    3050 7150
	0    -1   -1   0   
$EndComp
$Comp
L LED D2
U 1 1 5B3D9032
P 2350 7150
F 0 "D2" V 2400 6900 50  0000 L CNN
F 1 "YELLOW" V 2300 6700 50  0000 L CNN
F 2 "LEDs:LED_0603_HandSoldering" H 2350 7150 50  0001 C CNN
F 3 "" H 2350 7150 50  0001 C CNN
	1    2350 7150
	0    -1   -1   0   
$EndComp
$Comp
L Conn_01x03 J2
U 1 1 5B5673F5
P 3700 3050
F 0 "J2" H 3700 3250 50  0000 C CNN
F 1 "SWD" H 3700 2850 50  0000 C CNN
F 2 "Pin_Headers:Pin_Header_Straight_1x03_Pitch2.54mm" H 3700 3050 50  0001 C CNN
F 3 "" H 3700 3050 50  0001 C CNN
	1    3700 3050
	-1   0    0    -1  
$EndComp
Wire Wire Line
	9550 5700 9300 5700
Connection ~ 9300 5700
Wire Wire Line
	9300 6100 9550 6100
Connection ~ 9300 6100
Wire Wire Line
	7550 3500 7100 3500
Wire Wire Line
	7100 3650 7550 3650
NoConn ~ 10200 2750
NoConn ~ 10200 2900
$EndSCHEMATC
