(module PADS_COMPRIDOS_VQFN-16-1EP_3x3mm_P0.5mm_EP1.8x1.8mm (layer F.Cu) (tedit 5EDD15FF)
  (descr "VQFN, 16 Pin (https://www.st.com/resource/en/datasheet/stspin220.pdf), generated with kicad-footprint-generator ipc_dfn_qfn_generator.py")
  (tags "VQFN DFN_QFN")
  (attr smd)
  (fp_text reference U6 (at -3.34 0 -90) (layer F.SilkS)
    (effects (font (size 1 1) (thickness 0.15)))
  )
  (fp_text value STSPIN240 (at 0.02 3.51 -180) (layer F.Fab)
    (effects (font (size 1 1) (thickness 0.15)))
  )
  (fp_line (start 1.135 -1.61) (end 1.61 -1.61) (layer F.SilkS) (width 0.12))
  (fp_line (start 1.61 -1.61) (end 1.61 -1.135) (layer F.SilkS) (width 0.12))
  (fp_line (start -1.135 1.61) (end -1.61 1.61) (layer F.SilkS) (width 0.12))
  (fp_line (start -1.61 1.61) (end -1.61 1.135) (layer F.SilkS) (width 0.12))
  (fp_line (start 1.135 1.61) (end 1.61 1.61) (layer F.SilkS) (width 0.12))
  (fp_line (start 1.61 1.61) (end 1.61 1.135) (layer F.SilkS) (width 0.12))
  (fp_line (start -0.75 -1.5) (end 1.5 -1.5) (layer F.Fab) (width 0.1))
  (fp_line (start 1.5 -1.5) (end 1.5 1.5) (layer F.Fab) (width 0.1))
  (fp_line (start 1.5 1.5) (end -1.5 1.5) (layer F.Fab) (width 0.1))
  (fp_line (start -1.5 1.5) (end -1.5 -0.75) (layer F.Fab) (width 0.1))
  (fp_line (start -1.5 -0.75) (end -0.75 -1.5) (layer F.Fab) (width 0.1))
  (fp_line (start -2.58 -2.5) (end -2.58 2.52) (layer F.CrtYd) (width 0.05))
  (fp_line (start -2.58 2.52) (end 2.58 2.52) (layer F.CrtYd) (width 0.05))
  (fp_line (start 2.58 2.52) (end 2.58 -2.5) (layer F.CrtYd) (width 0.05))
  (fp_line (start 2.58 -2.5) (end -2.58 -2.5) (layer F.CrtYd) (width 0.05))
  (fp_text user %R (at 0 0 -180) (layer F.Fab)
    (effects (font (size 0.75 0.75) (thickness 0.11)))
  )
  (fp_circle (center -1.8 -1.7) (end -1.723842 -1.7) (layer F.SilkS) (width 0.2))
  (pad 17 smd roundrect (at 0 0) (size 1.8 1.8) (layers F.Cu F.Mask) (roundrect_rratio 0.138889))
  (pad "" smd roundrect (at -0.45 -0.45) (size 0.73 0.73) (layers F.Paste) (roundrect_rratio 0.25))
  (pad "" smd roundrect (at -0.45 0.45) (size 0.73 0.73) (layers F.Paste) (roundrect_rratio 0.25))
  (pad "" smd roundrect (at 0.45 -0.45) (size 0.73 0.73) (layers F.Paste) (roundrect_rratio 0.25))
  (pad "" smd roundrect (at 0.45 0.45) (size 0.73 0.73) (layers F.Paste) (roundrect_rratio 0.25))
  (pad 5 smd roundrect (at -0.75 1.72) (size 0.25 1.25) (layers F.Cu F.Paste F.Mask) (roundrect_rratio 0.25))
  (pad 6 smd roundrect (at -0.25 1.7175) (size 0.25 1.25) (layers F.Cu F.Paste F.Mask) (roundrect_rratio 0.25))
  (pad 7 smd roundrect (at 0.25 1.7175) (size 0.25 1.25) (layers F.Cu F.Paste F.Mask) (roundrect_rratio 0.25))
  (pad 8 smd roundrect (at 0.75 1.7175) (size 0.25 1.25) (layers F.Cu F.Paste F.Mask) (roundrect_rratio 0.25))
  (pad 13 smd roundrect (at 0.75 -1.7175) (size 0.25 1.25) (layers F.Cu F.Paste F.Mask) (roundrect_rratio 0.25))
  (pad 14 smd roundrect (at 0.25 -1.7175) (size 0.25 1.25) (layers F.Cu F.Paste F.Mask) (roundrect_rratio 0.25))
  (pad 15 smd roundrect (at -0.25 -1.72) (size 0.25 1.25) (layers F.Cu F.Paste F.Mask) (roundrect_rratio 0.25))
  (pad 16 smd roundrect (at -0.75 -1.72) (size 0.25 1.25) (layers F.Cu F.Paste F.Mask) (roundrect_rratio 0.25))
  (pad 1 smd roundrect (at -1.73 -0.75) (size 1.25 0.25) (layers F.Cu F.Paste F.Mask) (roundrect_rratio 0.25))
  (pad 2 smd roundrect (at -1.73 -0.25) (size 1.25 0.25) (layers F.Cu F.Paste F.Mask) (roundrect_rratio 0.25))
  (pad 3 smd roundrect (at -1.73 0.25) (size 1.25 0.25) (layers F.Cu F.Paste F.Mask) (roundrect_rratio 0.25))
  (pad 4 smd roundrect (at -1.73 0.75) (size 1.25 0.25) (layers F.Cu F.Paste F.Mask) (roundrect_rratio 0.25))
  (pad 9 smd roundrect (at 1.72 0.75) (size 1.25 0.25) (layers F.Cu F.Paste F.Mask) (roundrect_rratio 0.25))
  (pad 10 smd roundrect (at 1.72 0.25) (size 1.25 0.25) (layers F.Cu F.Paste F.Mask) (roundrect_rratio 0.25))
  (pad 11 smd roundrect (at 1.73 -0.25) (size 1.25 0.25) (layers F.Cu F.Paste F.Mask) (roundrect_rratio 0.25))
  (pad 12 smd roundrect (at 1.73 -0.75) (size 1.25 0.25) (layers F.Cu F.Paste F.Mask) (roundrect_rratio 0.25))
  (model ${KIPRJMOD}/lib/3D/QFN-16_3x3.step
    (offset (xyz 0.03 0 0))
    (scale (xyz 1 1 1))
    (rotate (xyz 0 0 0))
  )
)
