EESchema Schematic File Version 2
LIBS:vss-rescue
LIBS:Regulators
LIBS:power
LIBS:device
LIBS:transistors
LIBS:conn
LIBS:linear
LIBS:regul
LIBS:74xx
LIBS:cmos4000
LIBS:adc-dac
LIBS:memory
LIBS:xilinx
LIBS:microcontrollers
LIBS:dsp
LIBS:microchip
LIBS:analog_switches
LIBS:motorola
LIBS:texas
LIBS:intel
LIBS:audio
LIBS:interface
LIBS:digital-audio
LIBS:philips
LIBS:display
LIBS:cypress
LIBS:siliconi
LIBS:opto
LIBS:atmel
LIBS:contrib
LIBS:valves
LIBS:RF_OEM
LIBS:boosterpack
LIBS:DRV8872
LIBS:nRF24L01
LIBS:stm32f303k8
LIBS:H-Bridge
LIBS:MC34063
LIBS:switches
LIBS:atmega328p-dip
LIBS:vss-cache
EELAYER 25 0
EELAYER END
$Descr A4 11693 8268
encoding utf-8
Sheet 2 6
Title ""
Date "2016-11-27"
Rev "José Roberto"
Comp ""
Comment1 ""
Comment2 ""
Comment3 ""
Comment4 ""
$EndDescr
$Comp
L LED-RESCUE-vss D1
U 1 1 58441C7E
P 8950 1250
F 0 "D1" V 9000 1100 50  0000 C CNN
F 1 "GREEN" V 8900 900 50  0000 L CNN
F 2 "LEDs:LED_1206" H 8950 1250 50  0001 C CNN
F 3 "" H 8950 1250 50  0000 C CNN
	1    8950 1250
	0    -1   -1   0   
$EndComp
$Comp
L GND #PWR3
U 1 1 58441D65
P 8950 2000
F 0 "#PWR3" H 8950 1750 50  0001 C CNN
F 1 "GND" H 8950 1850 50  0000 C CNN
F 2 "" H 8950 2000 50  0000 C CNN
F 3 "" H 8950 2000 50  0000 C CNN
	1    8950 2000
	1    0    0    -1  
$EndComp
$Comp
L GND #PWR4
U 1 1 584DD0F7
P 9900 2000
F 0 "#PWR4" H 9900 1750 50  0001 C CNN
F 1 "GND" H 9900 1850 50  0000 C CNN
F 2 "" H 9900 2000 50  0000 C CNN
F 3 "" H 9900 2000 50  0000 C CNN
	1    9900 2000
	1    0    0    -1  
$EndComp
Text Label 9900 900  0    60   ~ 0
LED_LOW_BAT
$Comp
L R R2
U 1 1 5885415B
P 9900 1750
F 0 "R2" V 9900 1750 50  0000 C CNN
F 1 "680R" V 10000 1750 50  0000 C CNN
F 2 "Resistors_SMD:R_1206_HandSoldering" V 9830 1750 50  0001 C CNN
F 3 "" H 9900 1750 50  0000 C CNN
	1    9900 1750
	1    0    0    -1  
$EndComp
$Comp
L R R1
U 1 1 588541CC
P 8950 1750
F 0 "R1" V 8950 1750 50  0000 C CNN
F 1 "2k2" V 9050 1750 50  0000 C CNN
F 2 "Resistors_SMD:R_1206_HandSoldering" V 8880 1750 50  0001 C CNN
F 3 "" H 8950 1750 50  0000 C CNN
	1    8950 1750
	1    0    0    -1  
$EndComp
$Comp
L LED-RESCUE-vss D2
U 1 1 592628B0
P 9900 1250
F 0 "D2" V 9950 1100 50  0000 C CNN
F 1 "RED" V 9850 1000 50  0000 L CNN
F 2 "LEDs:LED_1206" H 9900 1250 50  0001 C CNN
F 3 "" H 9900 1250 50  0000 C CNN
	1    9900 1250
	0    -1   -1   0   
$EndComp
$Comp
L CONN_02X02 J6
U 1 1 592F368B
P 9850 5050
F 0 "J6" H 9850 5200 50  0000 C CNN
F 1 "ROBOT ID" H 9850 4900 50  0000 C CNN
F 2 "Pin_Headers:Pin_Header_Straight_2x02_Pitch2.54mm" H 9850 3850 50  0001 C CNN
F 3 "" H 9850 3850 50  0001 C CNN
	1    9850 5050
	1    0    0    -1  
$EndComp
$Comp
L GND #PWR11
U 1 1 592F379B
P 9500 5200
F 0 "#PWR11" H 9500 4950 50  0001 C CNN
F 1 "GND" H 9500 5050 50  0000 C CNN
F 2 "" H 9500 5200 50  0001 C CNN
F 3 "" H 9500 5200 50  0001 C CNN
	1    9500 5200
	1    0    0    -1  
$EndComp
Text Label 10200 5000 0    60   ~ 0
ID_0
Text Label 10200 5100 0    60   ~ 0
ID_1
$Comp
L +5V #PWR1
U 1 1 5932B7A4
P 8950 900
F 0 "#PWR1" H 8950 750 50  0001 C CNN
F 1 "+5V" H 8950 1040 50  0000 C CNN
F 2 "" H 8950 900 50  0001 C CNN
F 3 "" H 8950 900 50  0001 C CNN
	1    8950 900 
	1    0    0    -1  
$EndComp
$Comp
L GND #PWR12
U 1 1 5932CF85
P 8100 5250
F 0 "#PWR12" H 8100 5000 50  0001 C CNN
F 1 "GND" H 8100 5100 50  0000 C CNN
F 2 "" H 8100 5250 50  0001 C CNN
F 3 "" H 8100 5250 50  0001 C CNN
	1    8100 5250
	1    0    0    -1  
$EndComp
Text Label 8100 4950 2    60   ~ 0
RX
Text Label 8100 5050 2    60   ~ 0
TX
$Comp
L ATMEGA328-AU U1
U 1 1 5996E1E2
P 3400 2750
F 0 "U1" H 2650 4000 50  0000 L BNN
F 1 "ATMEGA328-AU" H 3800 1350 50  0000 L BNN
F 2 "Housings_QFP:TQFP-32_7x7mm_Pitch0.8mm" H 3400 2750 50  0001 C CIN
F 3 "" H 3400 2750 50  0001 C CNN
	1    3400 2750
	1    0    0    -1  
$EndComp
Text HLabel 4550 3550 2    60   Input ~ 0
ENCODER_L1
Text HLabel 4550 1750 2    60   Output ~ 0
PWM_R1
Text HLabel 4550 1850 2    60   Output ~ 0
PWM_R2
Text HLabel 4550 1950 2    60   Output ~ 0
SPI_MOSI
Text HLabel 4550 2050 2    60   Input ~ 0
SPI_MISO
Text HLabel 4550 2150 2    60   Output ~ 0
SPI_SCK
Text HLabel 4550 1650 2    60   Input ~ 0
ENCODER_R2
Text HLabel 4550 3950 2    60   Input ~ 0
ENCODER_R1
Text HLabel 4550 3000 2    60   Input ~ 0
BATTERY_VOLTAGE
Text HLabel 4550 2600 2    60   Output ~ 0
RADIO_CE
Text Label 5450 2800 0    60   ~ 0
ID_0
Text Label 5450 2700 0    60   ~ 0
ID_1
Text Label 5450 3250 0    60   ~ 0
RX
Text Label 5450 3350 0    60   ~ 0
TX
Text HLabel 4550 3450 2    60   Input ~ 0
RADIO_IRQ
Text HLabel 4550 2500 2    60   Output ~ 0
SPI_CS
Text Label 5450 3650 0    60   ~ 0
LED_LOW_BAT
Text HLabel 4550 3750 2    60   Output ~ 0
PWM_L2
Text HLabel 4550 3850 2    60   Output ~ 0
PWM_L1
Text HLabel 4550 2900 2    60   Input ~ 0
ENCODER_L2
$Comp
L GND #PWR9
U 1 1 5996FAD8
P 2400 4050
F 0 "#PWR9" H 2400 3800 50  0001 C CNN
F 1 "GND" H 2400 3900 50  0000 C CNN
F 2 "" H 2400 4050 50  0000 C CNN
F 3 "" H 2400 4050 50  0000 C CNN
	1    2400 4050
	1    0    0    -1  
$EndComp
$Comp
L C C3
U 1 1 5997024A
P 2250 2450
F 0 "C3" H 2275 2550 50  0000 L CNN
F 1 "1uF" H 2275 2350 50  0000 L CNN
F 2 "Capacitors_SMD:C_0805_HandSoldering" H 2288 2300 50  0001 C CNN
F 3 "" H 2250 2450 50  0001 C CNN
	1    2250 2450
	1    0    0    -1  
$EndComp
$Comp
L GND #PWR8
U 1 1 59970256
P 1950 2700
F 0 "#PWR8" H 1950 2450 50  0001 C CNN
F 1 "GND" H 1950 2550 50  0000 C CNN
F 2 "" H 1950 2700 50  0000 C CNN
F 3 "" H 1950 2700 50  0000 C CNN
	1    1950 2700
	1    0    0    -1  
$EndComp
$Comp
L +5V #PWR2
U 1 1 59970268
P 2400 1500
F 0 "#PWR2" H 2400 1350 50  0001 C CNN
F 1 "+5V" H 2400 1640 50  0000 C CNN
F 2 "" H 2400 1500 50  0001 C CNN
F 3 "" H 2400 1500 50  0001 C CNN
	1    2400 1500
	1    0    0    -1  
$EndComp
$Comp
L C C4
U 1 1 59971145
P 6300 2100
F 0 "C4" V 6350 1900 50  0000 L CNN
F 1 "22pF" V 6350 2200 50  0000 L CNN
F 2 "Capacitors_SMD:C_1206_HandSoldering" H 6338 1950 50  0001 C CNN
F 3 "" H 6300 2100 50  0001 C CNN
	1    6300 2100
	0    1    1    0   
$EndComp
$Comp
L C C5
U 1 1 5997114B
P 6300 2500
F 0 "C5" V 6350 2300 50  0000 L CNN
F 1 "22pF" V 6350 2600 50  0000 L CNN
F 2 "Capacitors_SMD:C_1206_HandSoldering" H 6338 2350 50  0001 C CNN
F 3 "" H 6300 2500 50  0001 C CNN
	1    6300 2500
	0    1    1    0   
$EndComp
$Comp
L GND #PWR6
U 1 1 59971151
P 6850 2300
F 0 "#PWR6" H 6850 2050 50  0001 C CNN
F 1 "GND" H 6850 2150 50  0000 C CNN
F 2 "" H 6850 2300 50  0000 C CNN
F 3 "" H 6850 2300 50  0000 C CNN
	1    6850 2300
	0    -1   -1   0   
$EndComp
Wire Wire Line
	8950 1900 8950 2000
Wire Wire Line
	8950 1600 8950 1450
Wire Wire Line
	8950 1050 8950 900 
Wire Wire Line
	9900 1450 9900 1600
Wire Wire Line
	9900 1900 9900 2000
Wire Wire Line
	9900 900  9900 1050
Wire Wire Line
	9600 5000 9500 5000
Wire Wire Line
	9500 5000 9500 5200
Wire Wire Line
	9500 5100 9600 5100
Connection ~ 9500 5100
Wire Wire Line
	10200 5000 10100 5000
Wire Wire Line
	10100 5100 10200 5100
Wire Wire Line
	8100 5050 8200 5050
Wire Wire Line
	8200 4950 8100 4950
Wire Wire Line
	8100 5250 8100 5150
Wire Wire Line
	8100 5150 8200 5150
Wire Wire Line
	4550 1650 4400 1650
Wire Wire Line
	4400 1750 4550 1750
Wire Wire Line
	4550 1850 4400 1850
Wire Wire Line
	4400 1950 4550 1950
Wire Wire Line
	4550 2050 4400 2050
Wire Wire Line
	4400 2150 4550 2150
Wire Wire Line
	4550 2500 4400 2500
Wire Wire Line
	4400 2600 4550 2600
Wire Wire Line
	4400 2700 5450 2700
Wire Wire Line
	4400 2800 5450 2800
Wire Wire Line
	4400 2900 4550 2900
Wire Wire Line
	4400 3000 4550 3000
Wire Wire Line
	5450 3250 4400 3250
Wire Wire Line
	4400 3350 5450 3350
Wire Wire Line
	4550 3450 4400 3450
Wire Wire Line
	4400 3550 4550 3550
Wire Wire Line
	5450 3650 4400 3650
Wire Wire Line
	2400 3950 2500 3950
Wire Wire Line
	2400 3750 2400 4050
Wire Wire Line
	2400 3850 2500 3850
Connection ~ 2400 3950
Wire Wire Line
	2500 3750 2400 3750
Connection ~ 2400 3850
Wire Wire Line
	2400 1500 2400 1750
Wire Wire Line
	2250 2300 2250 2250
Wire Wire Line
	2250 2250 2500 2250
Connection ~ 2400 1650
Wire Wire Line
	4400 3750 4550 3750
Wire Wire Line
	4550 3850 4400 3850
Wire Wire Line
	4400 3950 4550 3950
Wire Wire Line
	5800 2100 5800 2150
Wire Wire Line
	5800 2450 5800 2500
Wire Wire Line
	6650 2500 6450 2500
Wire Wire Line
	6650 2100 6650 2500
Wire Wire Line
	6650 2100 6450 2100
Wire Wire Line
	6850 2300 6650 2300
Connection ~ 6650 2300
Wire Wire Line
	4400 2250 5550 2250
Wire Wire Line
	5550 2250 5550 2100
Wire Wire Line
	5550 2100 6150 2100
Connection ~ 5800 2100
Wire Wire Line
	5550 2350 5550 2500
Wire Wire Line
	5550 2350 4400 2350
Wire Wire Line
	2300 1750 2500 1750
Wire Wire Line
	1650 1650 2500 1650
$Comp
L CONN_01X04 J7
U 1 1 59997AC1
P 8400 5000
F 0 "J7" H 8400 5250 50  0000 C CNN
F 1 "UART" H 8400 4750 50  0000 C CNN
F 2 "Pin_Headers:Pin_Header_Straight_1x04_Pitch2.54mm" H 8400 5000 50  0001 C CNN
F 3 "" H 8400 5000 50  0001 C CNN
	1    8400 5000
	1    0    0    -1  
$EndComp
Text Label 8100 4850 2    60   ~ 0
DTR
Wire Wire Line
	7700 4850 8200 4850
Text Label 5450 3100 0    60   ~ 0
RESET
Wire Wire Line
	5450 3100 4400 3100
$Comp
L Crystal Y1
U 1 1 5997113F
P 5800 2300
F 0 "Y1" V 5850 2100 50  0000 C CNN
F 1 "16MHz" V 5750 1900 50  0000 L CNN
F 2 "Crystals:Crystal_HC49-4H_Vertical" H 5800 2300 50  0001 C CNN
F 3 "" H 5800 2300 50  0001 C CNN
	1    5800 2300
	0    -1   -1   0   
$EndComp
Wire Wire Line
	5550 2500 6150 2500
Connection ~ 5800 2500
$Comp
L C C2
U 1 1 5999A234
P 1950 2450
F 0 "C2" H 1975 2550 50  0000 L CNN
F 1 "1uF" H 1975 2350 50  0000 L CNN
F 2 "Capacitors_SMD:C_0805_HandSoldering" H 1988 2300 50  0001 C CNN
F 3 "" H 1950 2450 50  0001 C CNN
	1    1950 2450
	1    0    0    -1  
$EndComp
Wire Wire Line
	1950 1750 1950 2300
$Comp
L L L1
U 1 1 59A17D24
P 2150 1750
F 0 "L1" V 2100 1850 50  0000 C CNN
F 1 "100uH" V 2100 1650 50  0000 C CNN
F 2 "Inductors_SMD:L_0603_HandSoldering" H 2150 1750 50  0001 C CNN
F 3 "" H 2150 1750 50  0001 C CNN
	1    2150 1750
	0    -1   -1   0   
$EndComp
Connection ~ 2400 1750
Wire Wire Line
	1950 1950 2500 1950
Wire Wire Line
	2000 1750 1950 1750
Connection ~ 1950 1950
$Comp
L C C13
U 1 1 59A1842D
P 1650 2450
F 0 "C13" H 1675 2550 50  0000 L CNN
F 1 "1uF" H 1675 2350 50  0000 L CNN
F 2 "Capacitors_SMD:C_0805_HandSoldering" H 1688 2300 50  0001 C CNN
F 3 "" H 1650 2450 50  0001 C CNN
	1    1650 2450
	1    0    0    -1  
$EndComp
Wire Wire Line
	1650 1650 1650 2300
$Comp
L C C14
U 1 1 5B390DBE
P 7550 4850
F 0 "C14" V 7400 4650 50  0000 L CNN
F 1 "100nF" V 7400 4900 50  0000 L CNN
F 2 "Capacitors_SMD:C_1206_HandSoldering" H 7588 4700 50  0001 C CNN
F 3 "" H 7550 4850 50  0000 C CNN
	1    7550 4850
	0    1    1    0   
$EndComp
Text Label 6400 4850 0    60   ~ 0
RESET
Wire Wire Line
	6400 4850 7400 4850
$Comp
L R R3
U 1 1 5B391890
P 6900 4600
F 0 "R3" H 7000 4650 50  0000 L CNN
F 1 "10k" H 7000 4550 50  0000 L CNN
F 2 "Resistors_SMD:R_1206_HandSoldering" V 6830 4600 50  0001 C CNN
F 3 "" H 6900 4600 50  0000 C CNN
	1    6900 4600
	1    0    0    -1  
$EndComp
Wire Wire Line
	6900 4750 6900 4850
Connection ~ 6900 4850
$Comp
L +5V #PWR10
U 1 1 5B391CF9
P 6900 4350
F 0 "#PWR10" H 6900 4200 50  0001 C CNN
F 1 "+5V" H 6900 4490 50  0000 C CNN
F 2 "" H 6900 4350 50  0001 C CNN
F 3 "" H 6900 4350 50  0001 C CNN
	1    6900 4350
	1    0    0    -1  
$EndComp
Wire Wire Line
	6900 4350 6900 4450
Wire Wire Line
	1650 2600 1650 2650
Wire Wire Line
	1650 2650 2250 2650
Wire Wire Line
	2250 2650 2250 2600
Wire Wire Line
	1950 2600 1950 2700
Connection ~ 1950 2650
$EndSCHEMATC
