EESchema Schematic File Version 2
LIBS:vss-rescue
LIBS:Regulators
LIBS:power
LIBS:device
LIBS:transistors
LIBS:conn
LIBS:linear
LIBS:regul
LIBS:74xx
LIBS:cmos4000
LIBS:adc-dac
LIBS:memory
LIBS:xilinx
LIBS:microcontrollers
LIBS:dsp
LIBS:microchip
LIBS:analog_switches
LIBS:motorola
LIBS:texas
LIBS:intel
LIBS:audio
LIBS:interface
LIBS:digital-audio
LIBS:philips
LIBS:display
LIBS:cypress
LIBS:siliconi
LIBS:opto
LIBS:atmel
LIBS:contrib
LIBS:valves
LIBS:RF_OEM
LIBS:boosterpack
LIBS:DRV8872
LIBS:nRF24L01
LIBS:stm32f303k8
LIBS:H-Bridge
LIBS:MC34063
LIBS:switches
LIBS:atmega328p-dip
LIBS:vss-cache
EELAYER 25 0
EELAYER END
$Descr A4 11693 8268
encoding utf-8
Sheet 6 6
Title ""
Date "2016-11-27"
Rev "José Roberto"
Comp ""
Comment1 ""
Comment2 ""
Comment3 ""
Comment4 ""
$EndDescr
$Comp
L CONN_01X06 P2
U 1 1 5961529A
P 7300 3250
F 0 "P2" H 7300 3600 50  0000 C CNN
F 1 "MOTOR_R" V 7400 3250 50  0000 C CNN
F 2 "Pin_Headers:Pin_Header_Angled_1x06_Pitch2.54mm" H 7300 3250 50  0001 C CNN
F 3 "" H 7300 3250 50  0000 C CNN
	1    7300 3250
	1    0    0    1   
$EndComp
Text Notes 6750 3300 0    60   ~ 0
VCC
Text Notes 6750 3400 0    60   ~ 0
M1
Text Notes 6750 3500 0    60   ~ 0
M2
Text Notes 6750 3200 0    60   ~ 0
OUT A
Text Notes 6750 3100 0    60   ~ 0
OUT B
Text Notes 6750 3000 0    60   ~ 0
GND
$Comp
L GND #PWR44
U 1 1 596152A7
P 6700 3000
F 0 "#PWR44" H 6700 2750 50  0001 C CNN
F 1 "GND" H 6700 2850 50  0000 C CNN
F 2 "" H 6700 3000 50  0000 C CNN
F 3 "" H 6700 3000 50  0000 C CNN
	1    6700 3000
	0    1    1    0   
$EndComp
Text Notes 6600 3750 0    60   ~ 0
  POLOLU\nCONVENTION
Text HLabel 6650 2500 2    60   Output ~ 0
ENCODER_1
Text HLabel 6650 2650 2    60   Output ~ 0
ENCODER_2
$Comp
L GND #PWR49
U 1 1 596152B0
P 4200 4350
F 0 "#PWR49" H 4200 4100 50  0001 C CNN
F 1 "GND" H 4200 4200 50  0000 C CNN
F 2 "" H 4200 4350 50  0000 C CNN
F 3 "" H 4200 4350 50  0000 C CNN
	1    4200 4350
	1    0    0    -1  
$EndComp
$Comp
L +5V #PWR45
U 1 1 596152B6
P 6100 3200
F 0 "#PWR45" H 6100 3050 50  0001 C CNN
F 1 "+5V" H 6100 3340 50  0000 C CNN
F 2 "" H 6100 3200 50  0001 C CNN
F 3 "" H 6100 3200 50  0001 C CNN
	1    6100 3200
	1    0    0    -1  
$EndComp
Wire Wire Line
	6100 3300 7100 3300
Wire Wire Line
	6250 3200 7100 3200
Wire Wire Line
	6400 3100 7100 3100
Wire Wire Line
	7100 3000 6700 3000
Wire Wire Line
	6250 2500 6250 3200
Wire Wire Line
	6400 2650 6400 3100
Wire Notes Line
	6700 2900 6700 3550
Wire Notes Line
	6700 3550 7050 3550
Wire Notes Line
	7050 3550 7050 2900
Wire Notes Line
	7050 2900 6700 2900
Wire Wire Line
	6400 2650 6650 2650
Wire Wire Line
	6650 2500 6250 2500
Wire Wire Line
	6100 3300 6100 3200
Wire Wire Line
	7100 3400 5950 3400
Wire Wire Line
	5950 3500 7100 3500
Wire Wire Line
	3950 4300 4450 4300
Wire Wire Line
	4450 4300 4450 4250
Wire Wire Line
	4300 4250 4300 4300
Connection ~ 4300 4300
Wire Wire Line
	4100 4250 4100 4300
Wire Wire Line
	4200 4300 4200 4350
Connection ~ 4200 4300
Wire Wire Line
	3950 4300 3950 4250
Connection ~ 4100 4300
Wire Wire Line
	5950 3600 5950 3500
Wire Wire Line
	5950 3400 5950 3300
Wire Wire Line
	5950 3300 4900 3300
Wire Wire Line
	4900 3600 5950 3600
$Comp
L +BATT #PWR43
U 1 1 596152DD
P 3350 2900
F 0 "#PWR43" H 3350 2750 50  0001 C CNN
F 1 "+BATT" H 3350 3040 50  0000 C CNN
F 2 "" H 3350 2900 50  0001 C CNN
F 3 "" H 3350 2900 50  0001 C CNN
	1    3350 2900
	1    0    0    -1  
$EndComp
$Comp
L +5V #PWR42
U 1 1 596152E3
P 3050 2900
F 0 "#PWR42" H 3050 2750 50  0001 C CNN
F 1 "+5V" H 3050 3040 50  0000 C CNN
F 2 "" H 3050 2900 50  0001 C CNN
F 3 "" H 3050 2900 50  0001 C CNN
	1    3050 2900
	1    0    0    -1  
$EndComp
Text HLabel 3350 3300 0    60   Input ~ 0
PWM_1
Text HLabel 3350 3600 0    60   Input ~ 0
PWM_2
Wire Wire Line
	3550 3000 3350 3000
Wire Wire Line
	3350 3000 3350 2900
Wire Wire Line
	3050 3150 3550 3150
Wire Wire Line
	3050 3150 3050 2900
Wire Wire Line
	3350 3300 3550 3300
Wire Wire Line
	3550 3600 3350 3600
Wire Wire Line
	3550 3450 3450 3450
Wire Wire Line
	3450 3450 3450 3150
Connection ~ 3450 3150
$Comp
L GND #PWR48
U 1 1 596152F5
P 3450 4350
F 0 "#PWR48" H 3450 4100 50  0001 C CNN
F 1 "GND" H 3450 4200 50  0000 C CNN
F 2 "" H 3450 4350 50  0000 C CNN
F 3 "" H 3450 4350 50  0000 C CNN
	1    3450 4350
	1    0    0    -1  
$EndComp
Wire Wire Line
	3450 3750 3450 4350
$Comp
L D_Schottky_ALT D8
U 1 1 596152FE
P 5050 3000
F 0 "D8" H 5150 2900 50  0000 C CNN
F 1 "SS34" H 4900 2900 50  0000 C CNN
F 2 "Diodes_SMD:D_SMB_Handsoldering" H 5050 3000 50  0001 C CNN
F 3 "" H 5050 3000 50  0001 C CNN
	1    5050 3000
	0    1    1    0   
$EndComp
$Comp
L D_Schottky_ALT D9
U 1 1 59615305
P 5050 3900
F 0 "D9" H 5150 3800 50  0000 C CNN
F 1 "SS34" H 4900 3800 50  0000 C CNN
F 2 "Diodes_SMD:D_SMB_Handsoldering" H 5050 3900 50  0001 C CNN
F 3 "" H 5050 3900 50  0001 C CNN
	1    5050 3900
	0    1    1    0   
$EndComp
$Comp
L +BATT #PWR40
U 1 1 5961530C
P 5050 2750
F 0 "#PWR40" H 5050 2600 50  0001 C CNN
F 1 "+BATT" H 5050 2890 50  0000 C CNN
F 2 "" H 5050 2750 50  0001 C CNN
F 3 "" H 5050 2750 50  0001 C CNN
	1    5050 2750
	1    0    0    -1  
$EndComp
Wire Wire Line
	5050 3150 5050 3750
Wire Wire Line
	5050 2750 5050 2850
Connection ~ 5050 3300
$Comp
L D_Schottky_ALT D11
U 1 1 59615316
P 5450 3900
F 0 "D11" H 5550 3800 50  0000 C CNN
F 1 "SS34" H 5300 3800 50  0000 C CNN
F 2 "Diodes_SMD:D_SMB_Handsoldering" H 5450 3900 50  0001 C CNN
F 3 "" H 5450 3900 50  0001 C CNN
	1    5450 3900
	0    1    1    0   
$EndComp
$Comp
L D_Schottky_ALT D10
U 1 1 5961531D
P 5450 3000
F 0 "D10" H 5550 2900 50  0000 C CNN
F 1 "SS34" H 5300 2900 50  0000 C CNN
F 2 "Diodes_SMD:D_SMB_Handsoldering" H 5450 3000 50  0001 C CNN
F 3 "" H 5450 3000 50  0001 C CNN
	1    5450 3000
	0    1    1    0   
$EndComp
Wire Wire Line
	5450 2750 5450 2850
Wire Wire Line
	5450 3150 5450 3750
Connection ~ 5450 3600
$Comp
L GND #PWR47
U 1 1 59615328
P 5450 4300
F 0 "#PWR47" H 5450 4050 50  0001 C CNN
F 1 "GND" H 5450 4150 50  0000 C CNN
F 2 "" H 5450 4300 50  0000 C CNN
F 3 "" H 5450 4300 50  0000 C CNN
	1    5450 4300
	1    0    0    -1  
$EndComp
$Comp
L GND #PWR46
U 1 1 5961532E
P 5050 4300
F 0 "#PWR46" H 5050 4050 50  0001 C CNN
F 1 "GND" H 5050 4150 50  0000 C CNN
F 2 "" H 5050 4300 50  0000 C CNN
F 3 "" H 5050 4300 50  0000 C CNN
	1    5050 4300
	1    0    0    -1  
$EndComp
Wire Wire Line
	5050 4050 5050 4300
Wire Wire Line
	5450 4050 5450 4300
$Comp
L +BATT #PWR41
U 1 1 59615336
P 5450 2750
F 0 "#PWR41" H 5450 2600 50  0001 C CNN
F 1 "+BATT" H 5450 2890 50  0000 C CNN
F 2 "" H 5450 2750 50  0001 C CNN
F 3 "" H 5450 2750 50  0001 C CNN
	1    5450 2750
	1    0    0    -1  
$EndComp
$Comp
L L298 U2
U 2 1 5961533C
P 4200 3500
F 0 "U2" H 3850 4200 60  0000 C CNN
F 1 "L298" H 4550 4200 60  0000 C CNN
F 2 "lib:powerso-20" H 4550 2950 60  0001 C CNN
F 3 "" H 4550 2950 60  0001 C CNN
	2    4200 3500
	1    0    0    -1  
$EndComp
Wire Wire Line
	3450 3750 3550 3750
$EndSCHEMATC
