EESchema Schematic File Version 4
EELAYER 30 0
EELAYER END
$Descr A4 11693 8268
encoding utf-8
Sheet 5 6
Title "VSS"
Date "2020-03-29"
Rev "REV1"
Comp "IFSP - Campus São José dos Campos"
Comment1 "Instituto Federal de Educação, Ciência e Tecnologia do Estado de São Paulo"
Comment2 "Prof. Colombo - colombo.junior@ifsp.edu.br"
Comment3 ""
Comment4 ""
$EndDescr
$Comp
L vss-rescue:D_Schottky_ALT D?
U 1 1 5CB4666C
P 2800 2350
AR Path="/5884E5A9/5CB4666C" Ref="D?"  Part="1" 
AR Path="/5CB4666C" Ref="D?"  Part="1" 
AR Path="/5CB45FAB/5CB4666C" Ref="D6"  Part="1" 
F 0 "D6" H 2800 2250 50  0000 C CNN
F 1 "STPS5H100AF" H 2800 2500 50  0000 C CNN
F 2 "lib:SOD128" H 2800 2350 50  0001 C CNN
F 3 "" H 2800 2350 50  0001 C CNN
	1    2800 2350
	-1   0    0    1   
$EndComp
$Comp
L vss-rescue:C C?
U 1 1 5CB46679
P 9350 4650
AR Path="/5884E5A9/5CB46679" Ref="C?"  Part="1" 
AR Path="/5CB46679" Ref="C?"  Part="1" 
AR Path="/5CB45FAB/5CB46679" Ref="C17"  Part="1" 
F 0 "C17" H 9375 4750 50  0000 L CNN
F 1 "1uF" H 9375 4550 50  0000 L CNN
F 2 "Capacitor_SMD:C_0805_2012Metric" H 9388 4500 50  0001 C CNN
F 3 "" H 9350 4650 50  0000 C CNN
	1    9350 4650
	1    0    0    -1  
$EndComp
$Comp
L vss-rescue:+3.3V #PWR?
U 1 1 5CB46680
P 9650 4300
AR Path="/5884E5A9/5CB46680" Ref="#PWR?"  Part="1" 
AR Path="/5CB46680" Ref="#PWR?"  Part="1" 
AR Path="/5CB45FAB/5CB46680" Ref="#PWR056"  Part="1" 
F 0 "#PWR056" H 9650 4150 50  0001 C CNN
F 1 "+3.3V" H 9650 4440 50  0000 C CNN
F 2 "" H 9650 4300 50  0001 C CNN
F 3 "" H 9650 4300 50  0001 C CNN
	1    9650 4300
	1    0    0    -1  
$EndComp
$Comp
L vss-rescue:GND #PWR?
U 1 1 5CB46686
P 8850 5050
AR Path="/5884E5A9/5CB46686" Ref="#PWR?"  Part="1" 
AR Path="/5CB46686" Ref="#PWR?"  Part="1" 
AR Path="/5CB45FAB/5CB46686" Ref="#PWR058"  Part="1" 
F 0 "#PWR058" H 8850 4800 50  0001 C CNN
F 1 "GND" H 8850 4900 50  0000 C CNN
F 2 "" H 8850 5050 50  0000 C CNN
F 3 "" H 8850 5050 50  0000 C CNN
	1    8850 5050
	1    0    0    -1  
$EndComp
$Comp
L switches:SW_SPDT SW?
U 1 1 5CB4668D
P 3700 3350
AR Path="/5884E5A9/5CB4668D" Ref="SW?"  Part="1" 
AR Path="/5CB4668D" Ref="SW?"  Part="1" 
AR Path="/5CB45FAB/5CB4668D" Ref="SW2"  Part="1" 
F 0 "SW2" V 3650 3000 50  0000 L CNN
F 1 "SS-12D07" V 3750 2750 50  0000 L CNN
F 2 "lib:SS-12D07" H 3700 3350 50  0001 C CNN
F 3 "https://media.digikey.com/pdf/Data%20Sheets/C&K/SS-12D07-VG_GA_PA.pdf" H 3700 3350 50  0001 C CNN
F 4 "https://www.soldafria.com.br/componentes-eletronicos/chave/chave-hh/chave-ss-12d07-180-graus-3-terminais-2-fixacao-p-3393.html" H 3700 3350 60  0001 C CNN "Supplier link"
	1    3700 3350
	0    -1   1    0   
$EndComp
Wire Wire Line
	9150 4400 9350 4400
Wire Wire Line
	9350 4400 9350 4500
Wire Wire Line
	8850 4700 8850 4950
Wire Wire Line
	8850 4950 9350 4950
Wire Wire Line
	9350 4950 9350 4800
Wire Wire Line
	8550 4400 8300 4400
Connection ~ 8850 4950
Wire Wire Line
	9650 4400 9650 4300
Connection ~ 9350 4400
Wire Wire Line
	9650 4400 9650 4500
Connection ~ 9650 4400
Wire Wire Line
	9650 4950 9650 4800
Connection ~ 9350 4950
Wire Wire Line
	8850 4950 8850 5050
Wire Wire Line
	9350 4400 9650 4400
Wire Wire Line
	9350 4950 9650 4950
$Comp
L vss-rescue:CP C?
U 1 1 5CB466A6
P 9650 4650
AR Path="/5884E5A9/5CB466A6" Ref="C?"  Part="1" 
AR Path="/5CB466A6" Ref="C?"  Part="1" 
AR Path="/5CB45FAB/5CB466A6" Ref="C18"  Part="1" 
F 0 "C18" H 9675 4750 50  0000 L CNN
F 1 "10uF" H 9675 4550 50  0000 L CNN
F 2 "Capacitor_Tantalum_SMD:CP_EIA-3216-18_Kemet-A_Pad1.58x1.35mm_HandSolder" H 9688 4500 50  0001 C CNN
F 3 "" H 9650 4650 50  0000 C CNN
	1    9650 4650
	1    0    0    -1  
$EndComp
$Comp
L vss-rescue:C C?
U 1 1 5CB466B1
P 8300 4650
AR Path="/5884E5A9/5CB466B1" Ref="C?"  Part="1" 
AR Path="/5CB466B1" Ref="C?"  Part="1" 
AR Path="/5CB45FAB/5CB466B1" Ref="C16"  Part="1" 
F 0 "C16" H 8325 4750 50  0000 L CNN
F 1 "100nF" H 8325 4550 50  0000 L CNN
F 2 "Capacitor_SMD:C_0805_2012Metric" H 8338 4500 50  0001 C CNN
F 3 "" H 8300 4650 50  0000 C CNN
	1    8300 4650
	1    0    0    -1  
$EndComp
Wire Wire Line
	8300 4500 8300 4400
Wire Wire Line
	8850 4950 8300 4950
Wire Wire Line
	8300 4950 8300 4800
$Comp
L Regulator_Linear:LD1117S33TR_SOT223 U?
U 1 1 5CB466C2
P 8850 4400
AR Path="/5CB466C2" Ref="U?"  Part="1" 
AR Path="/5CB45FAB/5CB466C2" Ref="U7"  Part="1" 
F 0 "U7" H 8850 4645 50  0000 C CNN
F 1 "LD1117S33TR_SOT223" H 8850 4552 50  0000 C CNN
F 2 "Package_TO_SOT_SMD:SOT-223-3_TabPin2" H 8850 4600 50  0001 C CNN
F 3 "http://www.st.com/st-web-ui/static/active/en/resource/technical/document/datasheet/CD00000544.pdf" H 8950 4150 50  0001 C CNN
	1    8850 4400
	1    0    0    -1  
$EndComp
$Comp
L power:VCC #PWR?
U 1 1 5CB466D0
P 8100 4300
AR Path="/5CB466D0" Ref="#PWR?"  Part="1" 
AR Path="/5CB45FAB/5CB466D0" Ref="#PWR055"  Part="1" 
F 0 "#PWR055" H 8100 4150 50  0001 C CNN
F 1 "VCC" H 8117 4477 50  0000 C CNN
F 2 "" H 8100 4300 50  0001 C CNN
F 3 "" H 8100 4300 50  0001 C CNN
	1    8100 4300
	1    0    0    -1  
$EndComp
Wire Wire Line
	8100 4400 8100 4300
Wire Wire Line
	8300 4400 8100 4400
Connection ~ 8300 4400
Text HLabel 1550 2350 0    50   Input ~ 0
BATERIA
$Comp
L power:VCC #PWR?
U 1 1 5D20E491
P 4950 2250
AR Path="/5D20E491" Ref="#PWR?"  Part="1" 
AR Path="/5CB45FAB/5D20E491" Ref="#PWR057"  Part="1" 
F 0 "#PWR057" H 4950 2100 50  0001 C CNN
F 1 "VCC" H 4967 2427 50  0000 C CNN
F 2 "" H 4950 2250 50  0001 C CNN
F 3 "" H 4950 2250 50  0001 C CNN
	1    4950 2250
	1    0    0    -1  
$EndComp
$Comp
L amp_ops_st:CS30BL U9
U 1 1 5E11ADBC
P 5650 1450
F 0 "U9" H 5900 1700 50  0000 L CNN
F 1 "CS30BL" H 5900 1600 50  0000 L CNN
F 2 "Package_TO_SOT_SMD:SOT-23-5_HandSoldering" H 5800 1400 50  0001 C CNN
F 3 "" H 5800 1400 50  0001 C CNN
	1    5650 1450
	1    0    0    -1  
$EndComp
$Comp
L Device:R R12
U 1 1 5E11BEFC
P 4600 2350
F 0 "R12" V 4450 2250 50  0000 C CNN
F 1 "0R1" V 4450 2500 50  0000 C CNN
F 2 "Resistor_SMD:R_2512_6332Metric" V 4530 2350 50  0001 C CNN
F 3 "~" H 4600 2350 50  0001 C CNN
F 4 "1W" V 4600 2350 50  0000 C CNN "Potência"
	1    4600 2350
	0    1    1    0   
$EndComp
Wire Wire Line
	4950 2350 4750 2350
Wire Wire Line
	4950 2250 4950 2350
Wire Wire Line
	5550 1000 5550 1150
$Comp
L vss-rescue:GND #PWR?
U 1 1 5E121A36
P 5550 1850
AR Path="/5884E5A9/5E121A36" Ref="#PWR?"  Part="1" 
AR Path="/5E121A36" Ref="#PWR?"  Part="1" 
AR Path="/5CB45FAB/5E121A36" Ref="#PWR040"  Part="1" 
F 0 "#PWR040" H 5550 1600 50  0001 C CNN
F 1 "GND" H 5550 1700 50  0000 C CNN
F 2 "" H 5550 1850 50  0000 C CNN
F 3 "" H 5550 1850 50  0000 C CNN
	1    5550 1850
	1    0    0    -1  
$EndComp
Wire Wire Line
	5550 1850 5550 1750
Text HLabel 9100 1550 2    50   Output ~ 0
CORRENTE_TOTAL
$Comp
L Amplifier_Operational:LM324 U?
U 3 1 5E136176
P 8600 1550
AR Path="/583B7CD9/5E136176" Ref="U?"  Part="1" 
AR Path="/5CB45FAB/5E136176" Ref="U8"  Part="3" 
F 0 "U8" H 8750 1800 50  0000 C CNN
F 1 "LM324" H 8800 1700 50  0000 C CNN
F 2 "Package_SO:TSSOP-14_4.4x5mm_P0.65mm" H 8550 1650 50  0001 C CNN
F 3 "http://www.ti.com/lit/ds/symlink/lm2902-n.pdf" H 8650 1750 50  0001 C CNN
	3    8600 1550
	1    0    0    -1  
$EndComp
Wire Wire Line
	8900 1550 9000 1550
Wire Wire Line
	8200 1650 8300 1650
$Comp
L Amplifier_Operational:LM324 U?
U 5 1 5E13617E
P 8600 1550
AR Path="/583B7CD9/5E13617E" Ref="U?"  Part="5" 
AR Path="/5CB45FAB/5E13617E" Ref="U8"  Part="5" 
F 0 "U8" H 8750 1800 50  0001 C CNN
F 1 "LM324" H 8800 1700 50  0001 C CNN
F 2 "Package_SO:TSSOP-14_4.4x5mm_P0.65mm" H 8550 1650 50  0001 C CNN
F 3 "http://www.ti.com/lit/ds/symlink/lm2902-n.pdf" H 8650 1750 50  0001 C CNN
	5    8600 1550
	1    0    0    -1  
$EndComp
Wire Wire Line
	8200 1950 9000 1950
Wire Wire Line
	9000 1550 9000 1950
Wire Wire Line
	8200 1650 8200 1950
Wire Wire Line
	8500 1850 8500 2050
$Comp
L power:GND #PWR?
U 1 1 5E136188
P 8500 2050
AR Path="/583B7CD9/5E136188" Ref="#PWR?"  Part="1" 
AR Path="/5CB45FAB/5E136188" Ref="#PWR064"  Part="1" 
F 0 "#PWR064" H 8500 1800 50  0001 C CNN
F 1 "GND" H 8505 1873 50  0000 C CNN
F 2 "" H 8500 2050 50  0001 C CNN
F 3 "" H 8500 2050 50  0001 C CNN
	1    8500 2050
	1    0    0    -1  
$EndComp
$Comp
L Device:R R?
U 1 1 5E13618E
P 6950 1450
AR Path="/583B7CD9/5E13618E" Ref="R?"  Part="1" 
AR Path="/5CB45FAB/5E13618E" Ref="R21"  Part="1" 
F 0 "R21" V 6850 1350 50  0000 C CNN
F 1 "2k2" V 6850 1600 50  0000 C CNN
F 2 "Resistor_SMD:R_0805_2012Metric" V 6880 1450 50  0001 C CNN
F 3 "~" H 6950 1450 50  0001 C CNN
	1    6950 1450
	0    1    1    0   
$EndComp
$Comp
L vss-rescue:C C?
U 1 1 5E136194
P 7750 1800
AR Path="/583B7CD9/5E136194" Ref="C?"  Part="1" 
AR Path="/5CB45FAB/5E136194" Ref="C23"  Part="1" 
F 0 "C23" H 7900 1850 50  0000 L CNN
F 1 "100nF" H 7900 1750 50  0000 L CNN
F 2 "Capacitor_SMD:C_0805_2012Metric" H 7788 1650 50  0001 C CNN
F 3 "" H 7750 1800 50  0000 C CNN
	1    7750 1800
	1    0    0    -1  
$EndComp
Wire Wire Line
	7750 1650 7750 1450
Wire Wire Line
	7750 1450 8300 1450
$Comp
L power:GND #PWR?
U 1 1 5E13619C
P 7750 2050
AR Path="/583B7CD9/5E13619C" Ref="#PWR?"  Part="1" 
AR Path="/5CB45FAB/5E13619C" Ref="#PWR062"  Part="1" 
F 0 "#PWR062" H 7750 1800 50  0001 C CNN
F 1 "GND" H 7755 1873 50  0000 C CNN
F 2 "" H 7750 2050 50  0001 C CNN
F 3 "" H 7750 2050 50  0001 C CNN
	1    7750 2050
	1    0    0    -1  
$EndComp
Wire Wire Line
	7750 2050 7750 1950
Wire Wire Line
	7750 1450 7300 1450
Connection ~ 7750 1450
$Comp
L power:VCC #PWR?
U 1 1 5E1361A5
P 8500 1150
AR Path="/583B7CD9/5E1361A5" Ref="#PWR?"  Part="1" 
AR Path="/5CB45FAB/5E1361A5" Ref="#PWR063"  Part="1" 
F 0 "#PWR063" H 8500 1000 50  0001 C CNN
F 1 "VCC" H 8517 1327 50  0000 C CNN
F 2 "" H 8500 1150 50  0001 C CNN
F 3 "" H 8500 1150 50  0001 C CNN
	1    8500 1150
	1    0    0    -1  
$EndComp
Wire Wire Line
	8500 1150 8500 1250
$Comp
L Device:R R?
U 1 1 5E1361AD
P 7300 1800
AR Path="/583B7CD9/5E1361AD" Ref="R?"  Part="1" 
AR Path="/5CB45FAB/5E1361AD" Ref="R22"  Part="1" 
F 0 "R22" H 7230 1753 50  0000 R CNN
F 1 "1k" H 7230 1846 50  0000 R CNN
F 2 "Resistor_SMD:R_0805_2012Metric" V 7230 1800 50  0001 C CNN
F 3 "~" H 7300 1800 50  0001 C CNN
F 4 "" H 7300 1800 50  0001 C CNN "Mount"
	1    7300 1800
	-1   0    0    1   
$EndComp
Wire Wire Line
	7300 1650 7300 1450
Connection ~ 7300 1450
Wire Wire Line
	7300 1450 7100 1450
$Comp
L power:GND #PWR?
U 1 1 5E1361B6
P 7300 2050
AR Path="/583B7CD9/5E1361B6" Ref="#PWR?"  Part="1" 
AR Path="/5CB45FAB/5E1361B6" Ref="#PWR061"  Part="1" 
F 0 "#PWR061" H 7300 1800 50  0001 C CNN
F 1 "GND" H 7305 1873 50  0000 C CNN
F 2 "" H 7300 2050 50  0001 C CNN
F 3 "" H 7300 2050 50  0001 C CNN
	1    7300 2050
	1    0    0    -1  
$EndComp
Wire Wire Line
	7300 2050 7300 1950
Wire Wire Line
	9100 1550 9000 1550
Connection ~ 9000 1550
Wire Wire Line
	6200 1450 6800 1450
$Comp
L vss-rescue:R R?
U 1 1 5E153E9E
P 1750 5200
AR Path="/5884E5A9/5E153E9E" Ref="R?"  Part="1" 
AR Path="/5C371720/5E153E9E" Ref="R?"  Part="1" 
AR Path="/5CB45FAB/5E153E9E" Ref="R13"  Part="1" 
F 0 "R13" H 1850 5250 50  0000 L CNN
F 1 "2k2" H 1850 5150 50  0000 L CNN
F 2 "Resistor_SMD:R_0805_2012Metric" V 1680 5200 50  0001 C CNN
F 3 "" H 1750 5200 50  0000 C CNN
	1    1750 5200
	1    0    0    -1  
$EndComp
$Comp
L vss-rescue:GND #PWR?
U 1 1 5E153EA4
P 1750 6050
AR Path="/5884E5A9/5E153EA4" Ref="#PWR?"  Part="1" 
AR Path="/5C371720/5E153EA4" Ref="#PWR?"  Part="1" 
AR Path="/5CB45FAB/5E153EA4" Ref="#PWR060"  Part="1" 
F 0 "#PWR060" H 1750 5800 50  0001 C CNN
F 1 "GND" H 1750 5900 50  0000 C CNN
F 2 "" H 1750 6050 50  0000 C CNN
F 3 "" H 1750 6050 50  0000 C CNN
	1    1750 6050
	1    0    0    -1  
$EndComp
$Comp
L vss-rescue:R R?
U 1 1 5E153EAB
P 1750 5700
AR Path="/5884E5A9/5E153EAB" Ref="R?"  Part="1" 
AR Path="/5C371720/5E153EAB" Ref="R?"  Part="1" 
AR Path="/5CB45FAB/5E153EAB" Ref="R20"  Part="1" 
F 0 "R20" H 1850 5750 50  0000 L CNN
F 1 "1k" H 1850 5650 50  0000 L CNN
F 2 "Resistor_SMD:R_0805_2012Metric" V 1680 5700 50  0001 C CNN
F 3 "" H 1750 5700 50  0000 C CNN
	1    1750 5700
	1    0    0    -1  
$EndComp
Text HLabel 3100 5550 2    50   Output ~ 0
SENSOR_BATERIA
Wire Wire Line
	1750 5850 1750 6050
Wire Wire Line
	1750 5350 1750 5450
Connection ~ 1750 5450
Wire Wire Line
	1750 5450 1750 5550
$Comp
L Device:Q_PMOS_GDS Q2
U 1 1 5E2AAB90
P 3700 2450
F 0 "Q2" V 3950 2250 50  0000 C CNN
F 1 "STD10P10F6" V 3950 2750 50  0000 C CNN
F 2 "Package_TO_SOT_SMD:TO-252-2" H 3900 2550 50  0001 C CNN
F 3 "~" H 3700 2450 50  0001 C CNN
	1    3700 2450
	0    1    -1   0   
$EndComp
Wire Wire Line
	3700 3150 3700 2950
Wire Wire Line
	3200 3650 3600 3650
Wire Wire Line
	3600 3650 3600 3550
Wire Wire Line
	4450 2350 4300 2350
Wire Wire Line
	5550 1000 5150 1000
Wire Wire Line
	5150 1000 5150 1350
Wire Wire Line
	5150 1350 5300 1350
Wire Wire Line
	4300 2350 4300 1350
Wire Wire Line
	4300 1350 5150 1350
Connection ~ 4300 2350
Wire Wire Line
	4300 2350 4050 2350
Connection ~ 5150 1350
Wire Wire Line
	5300 1550 5150 1550
Wire Wire Line
	5150 1550 5150 2350
Wire Wire Line
	5150 2350 4950 2350
Connection ~ 4950 2350
$Comp
L vss-rescue:GND #PWR?
U 1 1 5E2BCD65
P 3800 3750
AR Path="/5884E5A9/5E2BCD65" Ref="#PWR?"  Part="1" 
AR Path="/5E2BCD65" Ref="#PWR?"  Part="1" 
AR Path="/5CB45FAB/5E2BCD65" Ref="#PWR038"  Part="1" 
F 0 "#PWR038" H 3800 3500 50  0001 C CNN
F 1 "GND" H 3800 3600 50  0000 C CNN
F 2 "" H 3800 3750 50  0000 C CNN
F 3 "" H 3800 3750 50  0000 C CNN
	1    3800 3750
	1    0    0    -1  
$EndComp
Wire Wire Line
	3800 3550 3800 3750
$Comp
L Amplifier_Operational:LM324 U?
U 4 1 5E1685BD
P 2600 5550
AR Path="/583B7CD9/5E1685BD" Ref="U?"  Part="1" 
AR Path="/5CB45FAB/5E1685BD" Ref="U8"  Part="4" 
F 0 "U8" H 2750 5800 50  0000 C CNN
F 1 "LM324" H 2800 5700 50  0000 C CNN
F 2 "Package_SO:TSSOP-14_4.4x5mm_P0.65mm" H 2550 5650 50  0001 C CNN
F 3 "http://www.ti.com/lit/ds/symlink/lm2902-n.pdf" H 2650 5750 50  0001 C CNN
	4    2600 5550
	1    0    0    -1  
$EndComp
Wire Wire Line
	1750 5450 2300 5450
Wire Wire Line
	2300 5650 2200 5650
Wire Wire Line
	2200 5650 2200 5850
Wire Wire Line
	2200 5850 3000 5850
$Comp
L vss-rescue:C C?
U 1 1 5E1C0321
P 1250 5700
AR Path="/583B7CD9/5E1C0321" Ref="C?"  Part="1" 
AR Path="/5CB45FAB/5E1C0321" Ref="C24"  Part="1" 
F 0 "C24" H 1400 5750 50  0000 L CNN
F 1 "100nF" H 1400 5650 50  0000 L CNN
F 2 "Capacitor_SMD:C_0805_2012Metric" H 1288 5550 50  0001 C CNN
F 3 "" H 1250 5700 50  0000 C CNN
	1    1250 5700
	1    0    0    -1  
$EndComp
Wire Wire Line
	1250 5450 1250 5550
Wire Wire Line
	1250 5450 1750 5450
$Comp
L vss-rescue:GND #PWR?
U 1 1 5E1C76EA
P 1250 6050
AR Path="/5884E5A9/5E1C76EA" Ref="#PWR?"  Part="1" 
AR Path="/5C371720/5E1C76EA" Ref="#PWR?"  Part="1" 
AR Path="/5CB45FAB/5E1C76EA" Ref="#PWR012"  Part="1" 
F 0 "#PWR012" H 1250 5800 50  0001 C CNN
F 1 "GND" H 1250 5900 50  0000 C CNN
F 2 "" H 1250 6050 50  0000 C CNN
F 3 "" H 1250 6050 50  0000 C CNN
	1    1250 6050
	1    0    0    -1  
$EndComp
Wire Wire Line
	1250 6050 1250 5850
Wire Wire Line
	3100 5550 3000 5550
Wire Wire Line
	3000 5850 3000 5550
Connection ~ 3000 5550
Wire Wire Line
	3000 5550 2900 5550
Text Label 2150 2050 2    50   ~ 0
V_BAT
Wire Wire Line
	2150 2050 1850 2050
Text Label 1950 4900 2    50   ~ 0
V_BAT
Wire Wire Line
	1950 4900 1750 4900
Wire Wire Line
	1750 4900 1750 5050
$Comp
L Device:Polyfuse F?
U 1 1 5EDA9CEB
P 2250 2350
F 0 "F?" V 2100 2300 50  0000 L CNN
F 1 "TSMD-075" V 2400 2150 50  0000 L CNN
F 2 "Fuse:Fuse_0805_2012Metric_Pad1.15x1.40mm_HandSolder" H 2300 2150 50  0001 L CNN
F 3 "~" H 2250 2350 50  0001 C CNN
	1    2250 2350
	0    1    1    0   
$EndComp
Wire Wire Line
	1550 2350 1850 2350
Wire Wire Line
	2950 2350 3200 2350
Wire Wire Line
	3200 2550 3200 2350
Connection ~ 3200 2350
Wire Wire Line
	3200 2350 3500 2350
Wire Wire Line
	3200 2850 3200 3650
$Comp
L Device:R R?
U 1 1 5EDE1E12
P 3200 2700
AR Path="/583B7CD9/5EDE1E12" Ref="R?"  Part="1" 
AR Path="/5CB45FAB/5EDE1E12" Ref="R?"  Part="1" 
F 0 "R?" H 3130 2653 50  0000 R CNN
F 1 "1k" H 3130 2746 50  0000 R CNN
F 2 "Resistor_SMD:R_0805_2012Metric" V 3130 2700 50  0001 C CNN
F 3 "~" H 3200 2700 50  0001 C CNN
F 4 "" H 3200 2700 50  0001 C CNN "Mount"
	1    3200 2700
	-1   0    0    1   
$EndComp
$Comp
L vss-rescue:C C?
U 1 1 5EDE2328
P 4050 2650
AR Path="/583B7CD9/5EDE2328" Ref="C?"  Part="1" 
AR Path="/5CB45FAB/5EDE2328" Ref="C?"  Part="1" 
F 0 "C?" H 4200 2700 50  0000 L CNN
F 1 "100nF" H 4200 2600 50  0000 L CNN
F 2 "Capacitor_SMD:C_0805_2012Metric" H 4088 2500 50  0001 C CNN
F 3 "" H 4050 2650 50  0000 C CNN
	1    4050 2650
	1    0    0    -1  
$EndComp
Wire Wire Line
	4050 2500 4050 2350
Connection ~ 4050 2350
Wire Wire Line
	4050 2350 3900 2350
Wire Wire Line
	4050 2800 4050 2950
Wire Wire Line
	4050 2950 3700 2950
Connection ~ 3700 2950
Wire Wire Line
	3700 2950 3700 2650
Wire Wire Line
	2400 2350 2650 2350
Wire Wire Line
	1850 2050 1850 2350
Connection ~ 1850 2350
Wire Wire Line
	1850 2350 2100 2350
Wire Notes Line
	3900 6550 1100 6550
Wire Notes Line
	1100 6350 3900 6350
Text Notes 2050 6500 0    60   ~ 0
SENSOR DE BATERIA
Wire Notes Line
	1100 4650 1100 6550
Wire Notes Line
	3900 4650 3900 6550
Wire Notes Line
	3900 4650 1100 4650
Wire Notes Line
	9950 5500 9950 4000
Wire Notes Line
	9950 4000 7950 4000
Wire Notes Line
	7950 4000 7950 5500
Wire Notes Line
	7950 5500 9950 5500
Wire Notes Line
	7950 5300 9950 5300
Text Notes 8600 5450 0    50   ~ 0
REGULADOR 3,3V
$EndSCHEMATC
