EESchema Schematic File Version 4
EELAYER 30 0
EELAYER END
$Descr A4 11693 8268
encoding utf-8
Sheet 6 6
Title "VSS"
Date "2020-03-29"
Rev "REV1"
Comp "IFSP - Campus São José dos Campos"
Comment1 "Instituto Federal de Educação, Ciência e Tecnologia do Estado de São Paulo"
Comment2 "Prof. Colombo - colombo.junior@ifsp.edu.br"
Comment3 ""
Comment4 ""
$EndDescr
$Comp
L vss-rescue:C C7
U 1 1 59971145
P 1400 900
F 0 "C7" V 1450 700 50  0000 L CNN
F 1 "22pF" V 1450 1000 50  0000 L CNN
F 2 "Capacitor_SMD:C_1206_3216Metric" H 1438 750 50  0001 C CNN
F 3 "" H 1400 900 50  0001 C CNN
	1    1400 900 
	0    1    -1   0   
$EndComp
$Comp
L vss-rescue:C C8
U 1 1 5997114B
P 1400 1300
F 0 "C8" V 1450 1100 50  0000 L CNN
F 1 "22pF" V 1450 1400 50  0000 L CNN
F 2 "Capacitor_SMD:C_1206_3216Metric" H 1438 1150 50  0001 C CNN
F 3 "" H 1400 1300 50  0001 C CNN
	1    1400 1300
	0    1    -1   0   
$EndComp
$Comp
L vss-rescue:GND #PWR018
U 1 1 59971151
P 850 1100
F 0 "#PWR018" H 850 850 50  0001 C CNN
F 1 "GND" H 850 950 50  0000 C CNN
F 2 "" H 850 1100 50  0000 C CNN
F 3 "" H 850 1100 50  0000 C CNN
	1    850  1100
	0    1    1    0   
$EndComp
Wire Wire Line
	1900 1300 1900 1250
Wire Wire Line
	1900 950  1900 900 
Wire Wire Line
	1050 900  1250 900 
Wire Wire Line
	1050 1300 1050 1100
Wire Wire Line
	1050 1300 1250 1300
Wire Wire Line
	850  1100 1050 1100
Connection ~ 1050 1100
Wire Wire Line
	2300 1300 1900 1300
Connection ~ 1900 1300
$Comp
L vss-rescue:Crystal Y1
U 1 1 5997113F
P 1900 1100
F 0 "Y1" V 1850 1300 50  0000 C CNN
F 1 "8MHz" V 1950 1250 50  0000 L CNN
F 2 "Crystal:Crystal_SMD_5032-2Pin_5.0x3.2mm" H 1900 1100 50  0001 C CNN
F 3 "" H 1900 1100 50  0001 C CNN
	1    1900 1100
	0    1    1    0   
$EndComp
Wire Wire Line
	2300 900  1900 900 
Connection ~ 1900 900 
$Comp
L vss-rescue:L L1
U 1 1 59A17D24
P 2150 2150
F 0 "L1" V 2250 2150 50  0000 C CNN
F 1 "100uH" V 2050 2150 50  0000 C CNN
F 2 "Inductor_SMD:L_0603_1608Metric" H 2150 2150 50  0001 C CNN
F 3 "" H 2150 2150 50  0001 C CNN
	1    2150 2150
	0    -1   -1   0   
$EndComp
Wire Wire Line
	1050 1100 1050 900 
Wire Wire Line
	1900 1300 1550 1300
Wire Wire Line
	1900 900  1550 900 
$Comp
L power:+3V3 #PWR021
U 1 1 5BAC21C1
P 1900 2050
F 0 "#PWR021" H 1900 1900 50  0001 C CNN
F 1 "+3V3" H 1915 2227 50  0000 C CNN
F 2 "" H 1900 2050 50  0001 C CNN
F 3 "" H 1900 2050 50  0001 C CNN
	1    1900 2050
	1    0    0    -1  
$EndComp
Wire Wire Line
	2400 2150 2300 2150
Wire Wire Line
	1900 2050 1900 2150
Wire Wire Line
	1900 2150 2000 2150
Wire Wire Line
	2400 2250 2400 2150
$Comp
L vss-rescue:GND #PWR023
U 1 1 5BAD42CF
P 2400 2700
F 0 "#PWR023" H 2400 2450 50  0001 C CNN
F 1 "GND" H 2400 2550 50  0000 C CNN
F 2 "" H 2400 2700 50  0000 C CNN
F 3 "" H 2400 2700 50  0000 C CNN
	1    2400 2700
	1    0    0    -1  
$EndComp
Wire Wire Line
	2400 2550 2400 2700
Connection ~ 2400 2150
Text Label 2300 900  0    50   ~ 0
XTAL1
Text Label 2300 1300 0    50   ~ 0
XTAL2
Text Label 4850 2550 0    50   ~ 0
XTAL1
Text Label 4850 2650 0    50   ~ 0
XTAL2
Wire Wire Line
	4850 2550 5300 2550
Wire Wire Line
	5300 2650 4850 2650
$Comp
L power:+3V3 #PWR025
U 1 1 5BB18223
P 9300 5900
F 0 "#PWR025" H 9300 5750 50  0001 C CNN
F 1 "+3V3" V 9300 6150 50  0000 C CNN
F 2 "" H 9300 5900 50  0001 C CNN
F 3 "" H 9300 5900 50  0001 C CNN
	1    9300 5900
	0    -1   -1   0   
$EndComp
$Comp
L vss-rescue:GND #PWR024
U 1 1 5BB18252
P 10650 5700
F 0 "#PWR024" H 10650 5450 50  0001 C CNN
F 1 "GND" V 10650 5500 50  0000 C CNN
F 2 "" H 10650 5700 50  0000 C CNN
F 3 "" H 10650 5700 50  0000 C CNN
	1    10650 5700
	0    -1   1    0   
$EndComp
Wire Wire Line
	9750 5600 9400 5600
Wire Wire Line
	9750 5900 9300 5900
Text Label 10600 5600 2    50   ~ 0
SWDIO
Text Label 10600 5800 2    50   ~ 0
SWCLK
Wire Wire Line
	10250 5800 10600 5800
$Comp
L MCU_ST_STM32F3:STM32F302R8Tx U5
U 1 1 5C334F59
P 6000 2950
F 0 "U5" H 6450 4850 50  0000 L CNN
F 1 "STM32F302R8Tx" H 6450 4750 50  0000 L CNN
F 2 "Package_QFP:LQFP-64_10x10mm_P0.5mm" H 5400 1250 50  0001 R CNN
F 3 "http://www.st.com/st-web-ui/static/active/en/resource/technical/document/datasheet/DM00093333.pdf" H 6000 2950 50  0001 C CNN
	1    6000 2950
	1    0    0    -1  
$EndComp
Wire Wire Line
	6200 1150 6200 1000
Wire Wire Line
	6200 1000 6100 1000
Wire Wire Line
	5900 1000 5900 1150
Wire Wire Line
	6000 1150 6000 1000
Connection ~ 6000 1000
Wire Wire Line
	6000 1000 5900 1000
Wire Wire Line
	6100 1150 6100 1000
Connection ~ 6100 1000
Wire Wire Line
	6000 1000 6100 1000
Text Label 6150 750  2    50   ~ 0
MCU_VDDA
Wire Wire Line
	6150 750  6300 750 
Wire Wire Line
	6300 750  6300 1150
Wire Wire Line
	6200 900  6200 1000
Connection ~ 6200 1000
Wire Wire Line
	5900 1000 5800 1000
Wire Wire Line
	5800 1000 5800 1150
Connection ~ 5900 1000
Text Label 9400 5600 0    50   ~ 0
RESET
$Comp
L vss-rescue:C C10
U 1 1 5C433265
P 1350 2400
F 0 "C10" H 1500 2450 50  0000 L CNN
F 1 "100nF" H 1500 2350 50  0000 L CNN
F 2 "Capacitor_SMD:C_0805_2012Metric" H 1388 2250 50  0001 C CNN
F 3 "" H 1350 2400 50  0001 C CNN
	1    1350 2400
	1    0    0    -1  
$EndComp
$Comp
L vss-rescue:C C9
U 1 1 5C4336D4
P 850 2400
F 0 "C9" H 1000 2450 50  0000 L CNN
F 1 "1uF" H 1000 2350 50  0000 L CNN
F 2 "Capacitor_SMD:C_0805_2012Metric" H 888 2250 50  0001 C CNN
F 3 "" H 850 2400 50  0001 C CNN
	1    850  2400
	1    0    0    -1  
$EndComp
Wire Wire Line
	1350 2150 1350 2250
Wire Wire Line
	850  2550 850  2600
Wire Wire Line
	1350 2600 1350 2550
Text Label 2850 2150 2    50   ~ 0
MCU_VDDA
Wire Wire Line
	2400 2150 2850 2150
$Comp
L power:+3V3 #PWR020
U 1 1 5C43EB4E
P 1100 2050
F 0 "#PWR020" H 1100 1900 50  0001 C CNN
F 1 "+3V3" H 1115 2227 50  0000 C CNN
F 2 "" H 1100 2050 50  0001 C CNN
F 3 "" H 1100 2050 50  0001 C CNN
	1    1100 2050
	1    0    0    -1  
$EndComp
$Comp
L vss-rescue:C C11
U 1 1 5C440863
P 2400 2400
F 0 "C11" H 2550 2450 50  0000 L CNN
F 1 "1uF" H 2550 2350 50  0000 L CNN
F 2 "Capacitor_SMD:C_0805_2012Metric" H 2438 2250 50  0001 C CNN
F 3 "" H 2400 2400 50  0001 C CNN
	1    2400 2400
	1    0    0    -1  
$EndComp
$Comp
L vss-rescue:GND #PWR022
U 1 1 5C442858
P 1100 2700
F 0 "#PWR022" H 1100 2450 50  0001 C CNN
F 1 "GND" H 1100 2550 50  0000 C CNN
F 2 "" H 1100 2700 50  0000 C CNN
F 3 "" H 1100 2700 50  0000 C CNN
	1    1100 2700
	1    0    0    -1  
$EndComp
Wire Wire Line
	4850 1550 5300 1550
$Comp
L vss-rescue:GND #PWR030
U 1 1 5C490AEE
P 6000 4950
F 0 "#PWR030" H 6000 4700 50  0001 C CNN
F 1 "GND" H 6000 4800 50  0000 C CNN
F 2 "" H 6000 4950 50  0000 C CNN
F 3 "" H 6000 4950 50  0000 C CNN
	1    6000 4950
	1    0    0    -1  
$EndComp
Wire Wire Line
	6000 4950 6000 4850
Wire Wire Line
	6000 4850 6100 4850
Wire Wire Line
	6200 4850 6200 4750
Wire Wire Line
	6000 4850 5900 4850
Wire Wire Line
	5800 4850 5800 4750
Connection ~ 6000 4850
Wire Wire Line
	5900 4750 5900 4850
Connection ~ 5900 4850
Wire Wire Line
	5900 4850 5800 4850
Wire Wire Line
	6100 4750 6100 4850
Connection ~ 6100 4850
Wire Wire Line
	6100 4850 6200 4850
Wire Wire Line
	6000 4750 6000 4850
Wire Wire Line
	6150 900  6200 900 
Wire Wire Line
	1100 2700 1100 2600
Wire Wire Line
	1100 2600 1350 2600
Wire Wire Line
	1100 2600 850  2600
Connection ~ 1100 2600
Wire Wire Line
	1350 2150 1100 2150
Wire Wire Line
	850  2150 850  2250
Text Label 4850 1350 0    50   ~ 0
RESET
Wire Wire Line
	4850 1350 5300 1350
Text Label 2600 6750 2    50   ~ 0
RESET
$Comp
L Device:R R8
U 1 1 5C4F6B98
P 2050 6500
F 0 "R8" H 2120 6547 50  0000 L CNN
F 1 "10k" H 2120 6454 50  0000 L CNN
F 2 "Resistor_SMD:R_0805_2012Metric" V 1980 6500 50  0001 C CNN
F 3 "~" H 2050 6500 50  0001 C CNN
	1    2050 6500
	1    0    0    -1  
$EndComp
$Comp
L vss-rescue:C C12
U 1 1 5C4F6C74
P 2050 7000
F 0 "C12" H 2200 7050 50  0000 L CNN
F 1 "100nF" H 2200 6950 50  0000 L CNN
F 2 "Capacitor_SMD:C_0805_2012Metric" H 2088 6850 50  0001 C CNN
F 3 "" H 2050 7000 50  0001 C CNN
	1    2050 7000
	1    0    0    -1  
$EndComp
Wire Wire Line
	2050 6750 2050 6650
Wire Wire Line
	2050 6750 2050 6850
Connection ~ 2050 6750
$Comp
L vss-rescue:GND #PWR041
U 1 1 5C5097E9
P 2050 7300
F 0 "#PWR041" H 2050 7050 50  0001 C CNN
F 1 "GND" H 2050 7150 50  0000 C CNN
F 2 "" H 2050 7300 50  0000 C CNN
F 3 "" H 2050 7300 50  0000 C CNN
	1    2050 7300
	1    0    0    -1  
$EndComp
Wire Wire Line
	2050 7300 2050 7150
$Comp
L power:+3V3 #PWR035
U 1 1 5C50CBDC
P 2050 6250
F 0 "#PWR035" H 2050 6100 50  0001 C CNN
F 1 "+3V3" H 2065 6427 50  0000 C CNN
F 2 "" H 2050 6250 50  0001 C CNN
F 3 "" H 2050 6250 50  0001 C CNN
	1    2050 6250
	1    0    0    -1  
$EndComp
Wire Wire Line
	2050 6250 2050 6350
Text Label 7750 2750 2    50   ~ 0
SWCLK
Text Label 7750 2650 2    50   ~ 0
SWDIO
Wire Wire Line
	7750 2650 6700 2650
Wire Wire Line
	6700 2750 7750 2750
Wire Wire Line
	1100 2050 1100 2150
Connection ~ 1100 2150
Wire Wire Line
	1100 2150 850  2150
$Comp
L power:+3V3 #PWR016
U 1 1 5C536656
P 6150 900
F 0 "#PWR016" H 6150 750 50  0001 C CNN
F 1 "+3V3" V 6165 1031 50  0000 L CNN
F 2 "" H 6150 900 50  0001 C CNN
F 3 "" H 6150 900 50  0001 C CNN
	1    6150 900 
	0    -1   -1   0   
$EndComp
Text HLabel 5150 4150 0    50   Output ~ 0
UC_NRF_CE
Text HLabel 5150 2850 0    50   Input ~ 0
UC_NRF_IRQ
Text HLabel 6850 3450 2    50   Input ~ 0
UC_SPI_MISO
Text HLabel 5150 4250 0    50   Output ~ 0
UC_SPI_MOSI
Text HLabel 6850 3350 2    50   Output ~ 0
UC_SPI_SCK
Text HLabel 5150 4050 0    50   Output ~ 0
UC_NRF_CS
Text HLabel 6850 4450 2    50   Output ~ 0
UC_MOTOR_R_PWM
Text HLabel 6850 4550 2    50   Output ~ 0
UC_MOTOR_L_PWM
Text HLabel 6850 4250 2    50   Output ~ 0
UC_MOTOR_R_PH
Text HLabel 6850 4350 2    50   Output ~ 0
UC_MOTOR_L_PH
Text HLabel 5150 3750 0    50   Output ~ 0
UC_MOTOR_EN
Text HLabel 5150 3650 0    50   Output ~ 0
UC_MOTOR_STBY
Text HLabel 5150 3050 0    50   Input ~ 0
UC_ENC_R_CHA
Text HLabel 5150 3150 0    50   Input ~ 0
UC_ENC_R_CHB
Text HLabel 6850 1350 2    50   Input ~ 0
UC_ENC_L_CHA
Text HLabel 6850 1450 2    50   Input ~ 0
UC_ENC_L_CHB
Wire Wire Line
	6850 1650 6700 1650
Wire Wire Line
	6700 1550 6850 1550
Wire Wire Line
	6850 1450 6700 1450
Wire Wire Line
	6700 1350 6850 1350
Wire Wire Line
	5150 3250 5300 3250
Wire Wire Line
	5300 3350 5150 3350
Wire Wire Line
	5150 3150 5300 3150
Wire Wire Line
	5300 3050 5150 3050
Text HLabel 6850 3650 2    50   Output ~ 0
UC_I2C_SCL
Text HLabel 6850 3750 2    50   BiDi ~ 0
UC_I2C_SDA
Text HLabel 6850 1650 2    50   Input ~ 0
UC_SENSOR_BATERIA
Wire Wire Line
	6850 3650 6700 3650
Wire Wire Line
	6700 3750 6850 3750
Text Label 7750 2850 2    50   ~ 0
LED
Wire Wire Line
	6700 2850 7750 2850
Wire Wire Line
	6700 2150 7750 2150
Wire Wire Line
	7750 2250 6700 2250
Wire Wire Line
	6700 2350 7750 2350
Wire Wire Line
	2050 6750 2600 6750
Text Label 10700 1250 2    50   ~ 0
EEPROM_SDA
Text Label 10700 1350 2    50   ~ 0
EEPROM_SCL
Text Label 10700 1450 2    50   ~ 0
EEPROM_RW
Wire Wire Line
	10700 1450 9950 1450
Wire Wire Line
	9950 1350 10700 1350
Wire Wire Line
	10700 1250 9950 1250
$Comp
L vss-rescue:GND #PWR019
U 1 1 5C7297E9
P 9550 1850
F 0 "#PWR019" H 9550 1600 50  0001 C CNN
F 1 "GND" H 9550 1700 50  0000 C CNN
F 2 "" H 9550 1850 50  0000 C CNN
F 3 "" H 9550 1850 50  0000 C CNN
	1    9550 1850
	1    0    0    -1  
$EndComp
Wire Wire Line
	9550 1650 9550 1750
Wire Wire Line
	9050 1450 9150 1450
Wire Wire Line
	9050 1450 9050 1350
Wire Wire Line
	9050 1350 9150 1350
Connection ~ 9050 1450
Wire Wire Line
	9150 1250 9050 1250
Wire Wire Line
	9050 1250 9050 1350
Connection ~ 9050 1350
Wire Wire Line
	9550 1750 9050 1750
Connection ~ 9550 1750
Wire Wire Line
	9550 1750 9550 1850
Wire Notes Line
	8650 650  11000 650 
Wire Notes Line
	11000 2100 8650 2100
Wire Wire Line
	10650 5700 10250 5700
Text Label 7750 2150 2    50   ~ 0
EEPROM_RW
Text Label 7750 3950 2    50   ~ 0
BUZZER
Wire Wire Line
	7750 3950 6700 3950
$Comp
L power:+3V3 #PWR017
U 1 1 5CAE2F1A
P 9550 950
F 0 "#PWR017" H 9550 800 50  0001 C CNN
F 1 "+3V3" H 9565 1127 50  0000 C CNN
F 2 "" H 9550 950 50  0001 C CNN
F 3 "" H 9550 950 50  0001 C CNN
	1    9550 950 
	1    0    0    -1  
$EndComp
Wire Wire Line
	9550 950  9550 1050
Wire Wire Line
	9050 1450 9050 1750
Wire Wire Line
	5150 4050 5300 4050
Wire Wire Line
	5300 4150 5150 4150
Wire Wire Line
	5150 4250 5300 4250
Wire Wire Line
	5150 2850 5300 2850
Wire Wire Line
	6850 3450 6700 3450
Wire Wire Line
	6700 3350 6850 3350
$Comp
L Device:R R9
U 1 1 5CB2A393
P 1400 7000
F 0 "R9" H 1470 7047 50  0000 L CNN
F 1 "2k2" H 1470 6954 50  0000 L CNN
F 2 "Resistor_SMD:R_0805_2012Metric" V 1330 7000 50  0001 C CNN
F 3 "~" H 1400 7000 50  0001 C CNN
	1    1400 7000
	1    0    0    -1  
$EndComp
Wire Wire Line
	1400 6300 1400 6250
Wire Wire Line
	1400 6850 1400 6700
Wire Wire Line
	1400 7150 1400 7300
$Comp
L vss-rescue:GND #PWR036
U 1 1 5CB2A38A
P 1400 7300
F 0 "#PWR036" H 1400 7050 50  0001 C CNN
F 1 "GND" H 1400 7150 50  0000 C CNN
F 2 "" H 1400 7300 50  0000 C CNN
F 3 "" H 1400 7300 50  0000 C CNN
	1    1400 7300
	1    0    0    -1  
$EndComp
$Comp
L vss-rescue:LED-RESCUE-vss D1
U 1 1 5CB2A384
P 1400 6500
F 0 "D1" V 1450 6350 50  0000 C CNN
F 1 "GREEN" V 1350 6150 50  0000 L CNN
F 2 "LED_SMD:LED_0603_1608Metric" H 1400 6500 50  0001 C CNN
F 3 "" H 1400 6500 50  0000 C CNN
	1    1400 6500
	0    -1   -1   0   
$EndComp
$Comp
L power:+3V3 #PWR034
U 1 1 5CB23D1F
P 1400 6250
F 0 "#PWR034" H 1400 6100 50  0001 C CNN
F 1 "+3V3" H 1415 6427 50  0000 C CNN
F 2 "" H 1400 6250 50  0001 C CNN
F 3 "" H 1400 6250 50  0001 C CNN
	1    1400 6250
	1    0    0    -1  
$EndComp
Text HLabel 5150 3350 0    50   Input ~ 0
UC_CORRENTE_MOTOR_R
Text HLabel 5150 3250 0    50   Input ~ 0
UC_CORRENTE_MOTOR_L
$Comp
L Connector_Generic:Conn_01x03 J5
U 1 1 5E1A5949
P 750 4050
F 0 "J5" H 668 4367 50  0000 C CNN
F 1 "Conn_01x03" H 668 4276 50  0000 C CNN
F 2 "Connector_PinHeader_2.54mm:PinHeader_1x03_P2.54mm_Vertical" H 750 4050 50  0001 C CNN
F 3 "~" H 750 4050 50  0001 C CNN
	1    750  4050
	-1   0    0    -1  
$EndComp
$Comp
L power:+3V3 #PWR066
U 1 1 5E1A6916
P 1300 3800
F 0 "#PWR066" H 1300 3650 50  0001 C CNN
F 1 "+3V3" H 1315 3977 50  0000 C CNN
F 2 "" H 1300 3800 50  0001 C CNN
F 3 "" H 1300 3800 50  0001 C CNN
	1    1300 3800
	1    0    0    -1  
$EndComp
$Comp
L vss-rescue:GND #PWR067
U 1 1 5E1A6D59
P 1300 4300
F 0 "#PWR067" H 1300 4050 50  0001 C CNN
F 1 "GND" H 1300 4150 50  0000 C CNN
F 2 "" H 1300 4300 50  0000 C CNN
F 3 "" H 1300 4300 50  0000 C CNN
	1    1300 4300
	1    0    0    -1  
$EndComp
Wire Wire Line
	950  3950 1300 3950
Wire Wire Line
	1300 3950 1300 3800
Wire Wire Line
	950  4150 1300 4150
Wire Wire Line
	1300 4150 1300 4300
Text Label 1300 4050 2    50   ~ 0
BOOT0
Wire Wire Line
	1300 4050 950  4050
Text Label 4850 1550 0    50   ~ 0
BOOT0
Text HLabel 6850 1550 2    50   Input ~ 0
UC_CORRENTE_TOTAL
Wire Wire Line
	6850 4550 6700 4550
Wire Wire Line
	6700 4450 6850 4450
Wire Wire Line
	5150 3650 5300 3650
Wire Wire Line
	6850 4350 6700 4350
Wire Wire Line
	6850 4250 6700 4250
Wire Wire Line
	5150 3750 5300 3750
Text Label 7750 2250 2    50   ~ 0
EEPROM_SCL
Text Label 7750 2350 2    50   ~ 0
EEPROM_SDA
$Comp
L Device:Buzzer BZ1
U 1 1 5E14B02E
P 4450 6450
F 0 "BZ1" H 4602 6479 50  0000 L CNN
F 1 "Buzzer" H 4602 6388 50  0000 L CNN
F 2 "Buzzer_Beeper:Buzzer_12x9.5RM7.6" V 4425 6550 50  0001 C CNN
F 3 "~" V 4425 6550 50  0001 C CNN
	1    4450 6450
	1    0    0    -1  
$EndComp
Wire Wire Line
	4250 6650 4250 6550
Wire Wire Line
	4250 6550 4350 6550
$Comp
L vss-rescue:GND #PWR069
U 1 1 5E1514DE
P 4250 7300
F 0 "#PWR069" H 4250 7050 50  0001 C CNN
F 1 "GND" H 4250 7150 50  0000 C CNN
F 2 "" H 4250 7300 50  0000 C CNN
F 3 "" H 4250 7300 50  0000 C CNN
	1    4250 7300
	1    0    0    -1  
$EndComp
Wire Wire Line
	4250 7300 4250 7050
$Comp
L power:+3V3 #PWR068
U 1 1 5E15736A
P 4250 6250
F 0 "#PWR068" H 4250 6100 50  0001 C CNN
F 1 "+3V3" H 4265 6427 50  0000 C CNN
F 2 "" H 4250 6250 50  0001 C CNN
F 3 "" H 4250 6250 50  0001 C CNN
	1    4250 6250
	1    0    0    -1  
$EndComp
Wire Wire Line
	4350 6350 4250 6350
Text Label 3150 6850 0    50   ~ 0
BUZZER
$Comp
L Device:R R24
U 1 1 5E16A8A6
P 3700 6850
F 0 "R24" V 3550 6750 50  0000 C CNN
F 1 "220R" V 3550 7000 50  0000 C CNN
F 2 "Resistor_SMD:R_0805_2012Metric" V 3630 6850 50  0001 C CNN
F 3 "~" H 3700 6850 50  0001 C CNN
	1    3700 6850
	0    1    1    0   
$EndComp
Wire Wire Line
	3550 6850 3150 6850
Wire Wire Line
	3950 6850 3850 6850
$Comp
L Device:R R23
U 1 1 5E1774C0
P 900 7000
F 0 "R23" H 970 7047 50  0000 L CNN
F 1 "2k2" H 970 6954 50  0000 L CNN
F 2 "Resistor_SMD:R_0805_2012Metric" V 830 7000 50  0001 C CNN
F 3 "~" H 900 7000 50  0001 C CNN
	1    900  7000
	1    0    0    -1  
$EndComp
Wire Wire Line
	900  6850 900  6700
Wire Wire Line
	900  7150 900  7300
$Comp
L vss-rescue:GND #PWR065
U 1 1 5E1774CD
P 900 7300
F 0 "#PWR065" H 900 7050 50  0001 C CNN
F 1 "GND" H 900 7150 50  0000 C CNN
F 2 "" H 900 7300 50  0000 C CNN
F 3 "" H 900 7300 50  0000 C CNN
	1    900  7300
	1    0    0    -1  
$EndComp
$Comp
L vss-rescue:LED-RESCUE-vss D3
U 1 1 5E1774D7
P 900 6500
F 0 "D3" V 950 6350 50  0000 C CNN
F 1 "RED" V 850 6250 50  0000 L CNN
F 2 "LED_SMD:LED_0603_1608Metric" H 900 6500 50  0001 C CNN
F 3 "" H 900 6500 50  0000 C CNN
	1    900  6500
	0    -1   -1   0   
$EndComp
Text Label 1050 6100 2    50   ~ 0
LED
Wire Wire Line
	1050 6100 900  6100
Wire Wire Line
	900  6100 900  6300
$Comp
L Connector_Generic:Conn_02x05_Odd_Even J3
U 1 1 5E20EFD8
P 9950 5800
F 0 "J3" H 9850 6150 50  0000 C CNN
F 1 "SWD" H 10150 6150 50  0000 C CNN
F 2 "Connector_IDC:IDC-Header_2x05_P2.54mm_Vertical" H 9950 5800 50  0001 C CNN
F 3 "~" H 9950 5800 50  0001 C CNN
	1    9950 5800
	1    0    0    -1  
$EndComp
Wire Wire Line
	10600 5600 10250 5600
$Comp
L power:+3V3 #PWR0101
U 1 1 5E21D1D4
P 10650 5900
F 0 "#PWR0101" H 10650 5750 50  0001 C CNN
F 1 "+3V3" V 10650 6150 50  0000 C CNN
F 2 "" H 10650 5900 50  0001 C CNN
F 3 "" H 10650 5900 50  0001 C CNN
	1    10650 5900
	0    1    -1   0   
$EndComp
Wire Wire Line
	10250 5900 10650 5900
$Comp
L power:+5V #PWR0102
U 1 1 5E224134
P 10650 6000
F 0 "#PWR0102" H 10650 5850 50  0001 C CNN
F 1 "+5V" V 10665 6128 50  0000 L CNN
F 2 "" H 10650 6000 50  0001 C CNN
F 3 "" H 10650 6000 50  0001 C CNN
	1    10650 6000
	0    1    1    0   
$EndComp
Wire Wire Line
	10650 6000 10250 6000
$Comp
L power:+5V #PWR0103
U 1 1 5E22AD75
P 9300 6000
F 0 "#PWR0103" H 9300 5850 50  0001 C CNN
F 1 "+5V" V 9315 6128 50  0000 L CNN
F 2 "" H 9300 6000 50  0001 C CNN
F 3 "" H 9300 6000 50  0001 C CNN
	1    9300 6000
	0    -1   1    0   
$EndComp
Wire Wire Line
	9300 6000 9750 6000
Text Label 9400 5800 0    50   ~ 0
SWIM
Wire Wire Line
	9400 5800 9750 5800
$Comp
L vss-rescue:GND #PWR0104
U 1 1 5E257CE0
P 9300 5700
F 0 "#PWR0104" H 9300 5450 50  0001 C CNN
F 1 "GND" V 9300 5500 50  0000 C CNN
F 2 "" H 9300 5700 50  0000 C CNN
F 3 "" H 9300 5700 50  0000 C CNN
	1    9300 5700
	0    1    -1   0   
$EndComp
Wire Wire Line
	9300 5700 9750 5700
$Comp
L Device:Q_NPN_BEC Q1
U 1 1 5E2A79E4
P 4150 6850
F 0 "Q1" H 4341 6896 50  0000 L CNN
F 1 "MMBT3904" H 4341 6805 50  0000 L CNN
F 2 "Package_TO_SOT_SMD:SOT-23" H 4350 6950 50  0001 C CNN
F 3 "~" H 4150 6850 50  0001 C CNN
	1    4150 6850
	1    0    0    -1  
$EndComp
$Comp
L Connector_Generic:Conn_01x05 J2
U 1 1 5E2E19C0
P 9200 3100
AR Path="/583B6F17/5E2E19C0" Ref="J2"  Part="1" 
AR Path="/5C371720/5E2E19C0" Ref="J?"  Part="1" 
F 0 "J2" H 9280 3142 50  0000 L CNN
F 1 "SSD1306" H 9280 3049 50  0000 L CNN
F 2 "Connector_JST:JST_SH_BM05B-SRSS-TB_1x05-1MP_P1.00mm_Vertical" H 9200 3100 50  0001 C CNN
F 3 "~" H 9200 3100 50  0001 C CNN
	1    9200 3100
	-1   0    0    -1  
$EndComp
$Comp
L power:GND #PWR?
U 1 1 5E2E19C9
P 9500 3450
AR Path="/5C371720/5E2E19C9" Ref="#PWR?"  Part="1" 
AR Path="/583B6F17/5E2E19C9" Ref="#PWR03"  Part="1" 
F 0 "#PWR03" H 9500 3200 50  0001 C CNN
F 1 "GND" H 9505 3273 50  0000 C CNN
F 2 "" H 9500 3450 50  0001 C CNN
F 3 "" H 9500 3450 50  0001 C CNN
	1    9500 3450
	-1   0    0    -1  
$EndComp
$Comp
L vss-rescue:C C20
U 1 1 5E2E19CF
P 10600 3100
AR Path="/583B6F17/5E2E19CF" Ref="C20"  Part="1" 
AR Path="/5C41CF0A/5E2E19CF" Ref="C?"  Part="1" 
AR Path="/5C371720/5E2E19CF" Ref="C?"  Part="1" 
F 0 "C20" H 10750 3150 50  0000 L CNN
F 1 "1uF" H 10750 3050 50  0000 L CNN
F 2 "Capacitor_SMD:C_0805_2012Metric" H 10638 2950 50  0001 C CNN
F 3 "" H 10600 3100 50  0001 C CNN
	1    10600 3100
	1    0    0    -1  
$EndComp
$Comp
L power:+3V3 #PWR?
U 1 1 5E2E19D5
P 10600 2850
AR Path="/5C371720/5E2E19D5" Ref="#PWR?"  Part="1" 
AR Path="/583B6F17/5E2E19D5" Ref="#PWR06"  Part="1" 
F 0 "#PWR06" H 10600 2700 50  0001 C CNN
F 1 "+3V3" H 10615 3027 50  0000 C CNN
F 2 "" H 10600 2850 50  0001 C CNN
F 3 "" H 10600 2850 50  0001 C CNN
	1    10600 2850
	1    0    0    -1  
$EndComp
$Comp
L power:+3V3 #PWR?
U 1 1 5E2E19DD
P 9500 2750
AR Path="/5C371720/5E2E19DD" Ref="#PWR?"  Part="1" 
AR Path="/583B6F17/5E2E19DD" Ref="#PWR02"  Part="1" 
F 0 "#PWR02" H 9500 2600 50  0001 C CNN
F 1 "+3V3" H 9515 2927 50  0000 C CNN
F 2 "" H 9500 2750 50  0001 C CNN
F 3 "" H 9500 2750 50  0001 C CNN
	1    9500 2750
	-1   0    0    -1  
$EndComp
Wire Wire Line
	9500 3450 9500 3300
Wire Wire Line
	9500 3200 9400 3200
Wire Wire Line
	9500 3300 9400 3300
Connection ~ 9500 3300
Wire Wire Line
	9500 3300 9500 3200
$Comp
L power:GND #PWR?
U 1 1 5E2E19E9
P 10600 3350
AR Path="/5C371720/5E2E19E9" Ref="#PWR?"  Part="1" 
AR Path="/583B6F17/5E2E19E9" Ref="#PWR011"  Part="1" 
F 0 "#PWR011" H 10600 3100 50  0001 C CNN
F 1 "GND" H 10605 3173 50  0000 C CNN
F 2 "" H 10600 3350 50  0001 C CNN
F 3 "" H 10600 3350 50  0001 C CNN
	1    10600 3350
	1    0    0    -1  
$EndComp
Wire Wire Line
	10600 3350 10600 3250
Wire Wire Line
	10600 2950 10600 2850
Text Notes 9650 2250 0    50   ~ 0
EEPROM
Wire Notes Line
	8650 2300 11000 2300
Wire Notes Line
	11000 650  11000 2300
Wire Notes Line
	8650 650  8650 2300
Text Label 10050 2900 2    50   ~ 0
EEPROM_SDA
Text Label 10050 3000 2    50   ~ 0
EEPROM_SCL
Wire Notes Line
	11000 2400 8650 2400
Wire Notes Line
	8650 3750 11000 3750
Wire Notes Line
	8650 3950 11000 3950
Wire Notes Line
	11000 2400 11000 3950
Wire Notes Line
	8650 2400 8650 3950
Text Notes 9500 3900 0    50   ~ 0
DISPLAY SSD1306
Text Label 9100 4950 0    50   ~ 0
EEPROM_SCL
Text Label 9100 5050 0    50   ~ 0
EEPROM_SDA
$Comp
L Device:R R1
U 1 1 5E17DFBB
P 9850 4650
F 0 "R1" H 9920 4697 50  0000 L CNN
F 1 "1k" H 9920 4604 50  0000 L CNN
F 2 "Resistor_SMD:R_0805_2012Metric" V 9780 4650 50  0001 C CNN
F 3 "~" H 9850 4650 50  0001 C CNN
	1    9850 4650
	1    0    0    -1  
$EndComp
$Comp
L Device:R R2
U 1 1 5E17EABA
P 10250 4650
F 0 "R2" H 10320 4697 50  0000 L CNN
F 1 "1k" H 10320 4604 50  0000 L CNN
F 2 "Resistor_SMD:R_0805_2012Metric" V 10180 4650 50  0001 C CNN
F 3 "~" H 10250 4650 50  0001 C CNN
	1    10250 4650
	1    0    0    -1  
$EndComp
Wire Wire Line
	9100 4950 9850 4950
Wire Wire Line
	9850 4950 9850 4800
Wire Wire Line
	9100 5050 10250 5050
Wire Wire Line
	10250 5050 10250 4800
$Comp
L power:+3V3 #PWR?
U 1 1 5E194A04
P 9850 4400
AR Path="/5C371720/5E194A04" Ref="#PWR?"  Part="1" 
AR Path="/583B6F17/5E194A04" Ref="#PWR0105"  Part="1" 
F 0 "#PWR0105" H 9850 4250 50  0001 C CNN
F 1 "+3V3" H 9865 4577 50  0000 C CNN
F 2 "" H 9850 4400 50  0001 C CNN
F 3 "" H 9850 4400 50  0001 C CNN
	1    9850 4400
	-1   0    0    -1  
$EndComp
$Comp
L power:+3V3 #PWR?
U 1 1 5E194E18
P 10250 4400
AR Path="/5C371720/5E194E18" Ref="#PWR?"  Part="1" 
AR Path="/583B6F17/5E194E18" Ref="#PWR0106"  Part="1" 
F 0 "#PWR0106" H 10250 4250 50  0001 C CNN
F 1 "+3V3" H 10265 4577 50  0000 C CNN
F 2 "" H 10250 4400 50  0001 C CNN
F 3 "" H 10250 4400 50  0001 C CNN
	1    10250 4400
	-1   0    0    -1  
$EndComp
Wire Wire Line
	10250 4400 10250 4500
Wire Wire Line
	9850 4500 9850 4400
Wire Wire Line
	9500 3100 9400 3100
Wire Wire Line
	9500 2750 9500 3100
Wire Wire Line
	10050 2900 9400 2900
Wire Wire Line
	9400 3000 10050 3000
NoConn ~ 6700 3050
NoConn ~ 6700 2050
NoConn ~ 6700 2450
NoConn ~ 6700 2550
NoConn ~ 5300 3450
NoConn ~ 5300 3550
NoConn ~ 5300 3850
NoConn ~ 5300 3950
NoConn ~ 5300 4350
NoConn ~ 5300 4450
NoConn ~ 5300 4550
NoConn ~ 6700 3850
NoConn ~ 6700 3550
NoConn ~ 6700 3150
NoConn ~ 6700 1950
NoConn ~ 6700 1850
Text HLabel 6850 1750 2    50   Input ~ 0
UC_TEMP_ALERT
$Comp
L Memory_EEPROM:M24C02-RDW U4
U 1 1 5EE1857E
P 9550 1350
F 0 "U4" H 9300 1650 50  0000 C CNN
F 1 "M24C02-RDW" H 9900 1650 50  0000 C CNN
F 2 "Package_SO:TSSOP-8_4.4x3mm_P0.65mm" H 9550 1700 50  0001 C CNN
F 3 "http://www.st.com/content/ccc/resource/technical/document/datasheet/b0/d8/50/40/5a/85/49/6f/DM00071904.pdf/files/DM00071904.pdf/jcr:content/translations/en.DM00071904.pdf" H 9600 850 50  0001 C CNN
	1    9550 1350
	1    0    0    -1  
$EndComp
Wire Wire Line
	6700 1750 6850 1750
NoConn ~ 6700 3250
NoConn ~ 6700 4150
NoConn ~ 6700 4050
Wire Wire Line
	4250 6250 4250 6350
$EndSCHEMATC
