EESchema Schematic File Version 4
EELAYER 30 0
EELAYER END
$Descr A4 11693 8268
encoding utf-8
Sheet 4 6
Title "VSS"
Date "2020-03-29"
Rev "REV1"
Comp "IFSP - Campus São José dos Campos"
Comment1 "Instituto Federal de Educação, Ciência e Tecnologia do Estado de São Paulo"
Comment2 "Prof. Colombo - colombo.junior@ifsp.edu.br"
Comment3 ""
Comment4 ""
$EndDescr
$Comp
L vss-rescue:GND #PWR043
U 1 1 5925AF73
P 1600 1950
F 0 "#PWR043" H 1600 1700 50  0001 C CNN
F 1 "GND" H 1600 1800 50  0000 C CNN
F 2 "" H 1600 1950 50  0000 C CNN
F 3 "" H 1600 1950 50  0000 C CNN
	1    1600 1950
	1    0    0    -1  
$EndComp
Wire Wire Line
	1350 1350 1350 1450
$Comp
L vss-rescue:C C14
U 1 1 5963D0B1
P 1850 1600
F 0 "C14" H 1875 1700 50  0000 L CNN
F 1 "1uF" H 1875 1500 50  0000 L CNN
F 2 "Capacitor_SMD:C_0805_2012Metric" H 1888 1450 50  0001 C CNN
F 3 "" H 1850 1600 50  0000 C CNN
	1    1850 1600
	1    0    0    -1  
$EndComp
Wire Wire Line
	1350 1350 1600 1350
Wire Wire Line
	1600 1350 1600 1250
Wire Wire Line
	1850 1350 1850 1450
Connection ~ 1600 1350
Wire Wire Line
	1600 1950 1600 1850
Wire Wire Line
	1350 1850 1600 1850
Wire Wire Line
	1850 1850 1850 1750
Wire Wire Line
	1350 1850 1350 1750
Connection ~ 1600 1850
Wire Notes Line
	950  2350 2250 2350
Wire Notes Line
	2250 2350 2250 1000
Wire Notes Line
	2250 1000 950  1000
Wire Notes Line
	950  1000 950  2350
$Comp
L vss-rescue:CP C13
U 1 1 59641919
P 1350 1600
F 0 "C13" H 1375 1700 50  0000 L CNN
F 1 "100uF" H 1375 1500 50  0000 L CNN
F 2 "Capacitor_SMD:CP_Elec_6.3x5.4" H 1388 1450 50  0001 C CNN
F 3 "" H 1350 1600 50  0000 C CNN
	1    1350 1600
	1    0    0    -1  
$EndComp
Wire Wire Line
	1600 1350 1850 1350
Wire Wire Line
	1600 1850 1850 1850
$Comp
L Driver_Motor:STSPIN240 U6
U 1 1 5C428429
P 3150 5000
F 0 "U6" H 2750 5700 50  0000 L CNN
F 1 "STSPIN240" H 3300 5700 50  0000 L CNN
F 2 "lib:PADS_COMPRIDOS_VQFN-16-1EP_3x3mm_P0.5mm_EP1.8x1.8mm" H 3350 5750 50  0001 L CNN
F 3 "www.st.com/resource/en/datasheet/stspin240.pdf" H 3300 5250 50  0001 C CNN
	1    3150 5000
	1    0    0    -1  
$EndComp
Text Label 4300 4600 2    50   ~ 0
MOTOR_R_1
Text Label 4300 4500 2    50   ~ 0
MOTOR_R_2
Text Label 4300 5100 2    50   ~ 0
MOTOR_L_1
Text Label 4300 5000 2    50   ~ 0
MOTOR_L_2
Wire Wire Line
	3750 4500 4300 4500
Wire Wire Line
	4300 4600 3750 4600
Wire Wire Line
	3750 5000 4300 5000
Wire Wire Line
	4300 5100 3750 5100
Text Label 9150 4300 0    50   ~ 0
MOTOR_R_1
Text Label 9150 4200 0    50   ~ 0
MOTOR_R_2
$Comp
L power:+3V3 #PWR045
U 1 1 5C3AA970
P 9550 4400
F 0 "#PWR045" H 9550 4250 50  0001 C CNN
F 1 "+3V3" V 9550 4650 50  0000 C CNN
F 2 "" H 9550 4400 50  0001 C CNN
F 3 "" H 9550 4400 50  0001 C CNN
	1    9550 4400
	0    -1   -1   0   
$EndComp
Text HLabel 9550 4500 0    50   Output ~ 0
ENC_R_1
Text HLabel 9550 4600 0    50   Output ~ 0
ENC_R_2
$Comp
L power:GND #PWR047
U 1 1 5C3DCB46
P 9550 4700
F 0 "#PWR047" H 9550 4450 50  0001 C CNN
F 1 "GND" V 9555 4569 50  0000 R CNN
F 2 "" H 9550 4700 50  0001 C CNN
F 3 "" H 9550 4700 50  0001 C CNN
	1    9550 4700
	0    1    1    0   
$EndComp
$Comp
L power:GND #PWR050
U 1 1 5C3E1374
P 3200 5900
F 0 "#PWR050" H 3200 5650 50  0001 C CNN
F 1 "GND" H 3205 5723 50  0000 C CNN
F 2 "" H 3200 5900 50  0001 C CNN
F 3 "" H 3200 5900 50  0001 C CNN
	1    3200 5900
	1    0    0    -1  
$EndComp
Wire Wire Line
	3150 5700 3150 5800
Wire Wire Line
	3150 5800 3200 5800
Wire Wire Line
	3250 5800 3250 5700
Wire Wire Line
	3200 5800 3200 5900
Connection ~ 3200 5800
Wire Wire Line
	3200 5800 3250 5800
$Comp
L Device:R R15
U 1 1 5C38C10C
P 4550 5550
F 0 "R15" H 4480 5503 50  0000 R CNN
F 1 "1R" H 4480 5596 50  0000 R CNN
F 2 "Resistor_SMD:R_0805_2012Metric" V 4480 5550 50  0001 C CNN
F 3 "~" H 4550 5550 50  0001 C CNN
	1    4550 5550
	-1   0    0    1   
$EndComp
$Comp
L Device:R R16
U 1 1 5C38C1A2
P 5000 5550
F 0 "R16" H 4930 5503 50  0000 R CNN
F 1 "1R" H 4930 5596 50  0000 R CNN
F 2 "Resistor_SMD:R_0805_2012Metric" V 4930 5550 50  0001 C CNN
F 3 "~" H 5000 5550 50  0001 C CNN
	1    5000 5550
	-1   0    0    1   
$EndComp
$Comp
L power:GND #PWR051
U 1 1 5C38C1DC
P 4550 5900
F 0 "#PWR051" H 4550 5650 50  0001 C CNN
F 1 "GND" H 4555 5723 50  0000 C CNN
F 2 "" H 4550 5900 50  0001 C CNN
F 3 "" H 4550 5900 50  0001 C CNN
	1    4550 5900
	1    0    0    -1  
$EndComp
$Comp
L power:GND #PWR052
U 1 1 5C38C203
P 5000 5900
F 0 "#PWR052" H 5000 5650 50  0001 C CNN
F 1 "GND" H 5005 5723 50  0000 C CNN
F 2 "" H 5000 5900 50  0001 C CNN
F 3 "" H 5000 5900 50  0001 C CNN
	1    5000 5900
	1    0    0    -1  
$EndComp
Wire Wire Line
	4550 5400 4550 5200
Wire Wire Line
	4550 5200 3750 5200
Wire Wire Line
	3750 4700 5000 4700
Wire Wire Line
	5000 4700 5000 5400
Wire Wire Line
	4550 5700 4550 5900
Wire Wire Line
	5000 5700 5000 5900
Wire Wire Line
	3150 4200 3150 4300
Text HLabel 2000 4600 0    50   Input ~ 0
MOTOR_R_PWM
Text HLabel 2000 4900 0    50   Input ~ 0
MOTOR_L_PWM
Wire Wire Line
	2000 4900 2650 4900
Wire Wire Line
	2000 4600 2650 4600
Text HLabel 2000 4500 0    50   Input ~ 0
MOTOR_R_PH
Text HLabel 2000 4800 0    50   Input ~ 0
MOTOR_L_PH
Wire Wire Line
	2000 4800 2650 4800
Wire Wire Line
	2650 4500 2000 4500
Text HLabel 2000 5100 0    50   Input ~ 0
MOTOR_EN
Text HLabel 2000 5200 0    50   Input ~ 0
MOTOR_STBY
Wire Wire Line
	2000 5100 2350 5100
Wire Wire Line
	2650 5200 2000 5200
$Comp
L power:+3V3 #PWR046
U 1 1 5C3BBE65
P 9600 2100
F 0 "#PWR046" H 9600 1950 50  0001 C CNN
F 1 "+3V3" H 9615 2277 50  0000 C CNN
F 2 "" H 9600 2100 50  0001 C CNN
F 3 "" H 9600 2100 50  0001 C CNN
	1    9600 2100
	1    0    0    -1  
$EndComp
Text Label 2050 5400 0    50   ~ 0
VREF
Wire Wire Line
	2050 5400 2650 5400
$Comp
L Device:R R14
U 1 1 5C3BE958
P 9600 2350
F 0 "R14" H 9530 2303 50  0000 R CNN
F 1 "12k" H 9530 2396 50  0000 R CNN
F 2 "Resistor_SMD:R_0805_2012Metric" V 9530 2350 50  0001 C CNN
F 3 "~" H 9600 2350 50  0001 C CNN
	1    9600 2350
	-1   0    0    1   
$EndComp
$Comp
L Device:R R17
U 1 1 5C3BE9F6
P 9600 2850
F 0 "R17" H 9530 2803 50  0000 R CNN
F 1 "1k8" H 9530 2896 50  0000 R CNN
F 2 "Resistor_SMD:R_0805_2012Metric" V 9530 2850 50  0001 C CNN
F 3 "~" H 9600 2850 50  0001 C CNN
	1    9600 2850
	-1   0    0    1   
$EndComp
$Comp
L power:GND #PWR049
U 1 1 5C3BEA36
P 9600 3100
F 0 "#PWR049" H 9600 2850 50  0001 C CNN
F 1 "GND" H 9605 2923 50  0000 C CNN
F 2 "" H 9600 3100 50  0001 C CNN
F 3 "" H 9600 3100 50  0001 C CNN
	1    9600 3100
	1    0    0    -1  
$EndComp
Wire Wire Line
	9600 3100 9600 3000
Wire Wire Line
	9600 2700 9600 2600
Wire Wire Line
	9600 2200 9600 2100
Text Label 9950 2600 2    50   ~ 0
VREF
Wire Wire Line
	9950 2600 9600 2600
Connection ~ 9600 2600
Wire Wire Line
	9600 2600 9600 2500
$Comp
L Device:R R18
U 1 1 5C3D402E
P 1950 5900
F 0 "R18" H 1880 5853 50  0000 R CNN
F 1 "2k2" H 1880 5946 50  0000 R CNN
F 2 "Resistor_SMD:R_0805_2012Metric" V 1880 5900 50  0001 C CNN
F 3 "~" H 1950 5900 50  0001 C CNN
	1    1950 5900
	-1   0    0    1   
$EndComp
$Comp
L vss-rescue:C C15
U 1 1 5C3D4091
P 1950 6300
F 0 "C15" H 2100 6350 50  0000 L CNN
F 1 "22nF" H 2100 6250 50  0000 L CNN
F 2 "Capacitor_SMD:C_0805_2012Metric" H 1988 6150 50  0001 C CNN
F 3 "" H 1950 6300 50  0000 C CNN
	1    1950 6300
	1    0    0    -1  
$EndComp
$Comp
L Device:R R19
U 1 1 5C3D4169
P 2450 6150
F 0 "R19" H 2380 6103 50  0000 R CNN
F 1 "100k" H 2380 6196 50  0000 R CNN
F 2 "Resistor_SMD:R_0805_2012Metric" V 2380 6150 50  0001 C CNN
F 3 "~" H 2450 6150 50  0001 C CNN
	1    2450 6150
	-1   0    0    1   
$EndComp
Wire Wire Line
	1950 5750 1950 5650
Wire Wire Line
	1950 5650 2200 5650
Wire Wire Line
	2450 5650 2450 6000
Wire Wire Line
	1950 6050 1950 6150
Wire Wire Line
	1950 6450 1950 6550
Wire Wire Line
	1950 6550 2250 6550
Wire Wire Line
	2450 6550 2450 6300
$Comp
L power:GND #PWR054
U 1 1 5C3DAD04
P 2250 6650
F 0 "#PWR054" H 2250 6400 50  0001 C CNN
F 1 "GND" H 2255 6473 50  0000 C CNN
F 2 "" H 2250 6650 50  0001 C CNN
F 3 "" H 2250 6650 50  0001 C CNN
	1    2250 6650
	1    0    0    -1  
$EndComp
Wire Wire Line
	2250 6650 2250 6550
Connection ~ 2250 6550
Wire Wire Line
	2250 6550 2450 6550
Wire Wire Line
	2200 5650 2200 5500
Wire Wire Line
	2200 5500 2650 5500
Connection ~ 2200 5650
Wire Wire Line
	2200 5650 2450 5650
Text Notes 1100 2300 0    60   ~ 0
BYPASS CAPACITORS
$Comp
L Connector_Generic:Conn_01x06 J6
U 1 1 5C3B98B2
P 10000 4400
F 0 "J6" H 10080 4392 50  0000 L CNN
F 1 "MOTOR_R" H 10080 4299 50  0000 L CNN
F 2 "Connector_JST:JST_PH_B6B-PH-K_1x06_P2.00mm_Vertical" H 10000 4400 50  0001 C CNN
F 3 "~" H 10000 4400 50  0001 C CNN
	1    10000 4400
	1    0    0    -1  
$EndComp
Wire Wire Line
	9150 4200 9800 4200
Wire Wire Line
	9800 4300 9150 4300
Wire Wire Line
	9550 4400 9800 4400
Wire Wire Line
	9800 4500 9550 4500
Wire Wire Line
	9550 4600 9800 4600
Wire Wire Line
	9800 4700 9550 4700
Text Label 9150 5400 0    50   ~ 0
MOTOR_L_1
Text Label 9150 5500 0    50   ~ 0
MOTOR_L_2
$Comp
L power:+3V3 #PWR048
U 1 1 5C3C257D
P 9550 5600
F 0 "#PWR048" H 9550 5450 50  0001 C CNN
F 1 "+3V3" V 9550 5850 50  0000 C CNN
F 2 "" H 9550 5600 50  0001 C CNN
F 3 "" H 9550 5600 50  0001 C CNN
	1    9550 5600
	0    -1   -1   0   
$EndComp
Text HLabel 9550 5800 0    50   Output ~ 0
ENC_L_1
Text HLabel 9550 5700 0    50   Output ~ 0
ENC_L_2
$Comp
L power:GND #PWR053
U 1 1 5C3C2585
P 9550 5900
F 0 "#PWR053" H 9550 5650 50  0001 C CNN
F 1 "GND" V 9555 5769 50  0000 R CNN
F 2 "" H 9550 5900 50  0001 C CNN
F 3 "" H 9550 5900 50  0001 C CNN
	1    9550 5900
	0    1    1    0   
$EndComp
$Comp
L Connector_Generic:Conn_01x06 J7
U 1 1 5C3C258B
P 10000 5600
F 0 "J7" H 10080 5592 50  0000 L CNN
F 1 "MOTOR_L" H 10080 5499 50  0000 L CNN
F 2 "Connector_JST:JST_PH_B6B-PH-K_1x06_P2.00mm_Vertical" H 10000 5600 50  0001 C CNN
F 3 "~" H 10000 5600 50  0001 C CNN
	1    10000 5600
	1    0    0    -1  
$EndComp
Wire Wire Line
	9150 5400 9800 5400
Wire Wire Line
	9800 5500 9150 5500
Wire Wire Line
	9550 5600 9800 5600
Wire Wire Line
	9800 5700 9550 5700
Wire Wire Line
	9550 5800 9800 5800
Wire Wire Line
	9800 5900 9550 5900
$Comp
L power:VCC #PWR044
U 1 1 5CB234BD
P 3150 4200
F 0 "#PWR044" H 3150 4050 50  0001 C CNN
F 1 "VCC" H 3167 4377 50  0000 C CNN
F 2 "" H 3150 4200 50  0001 C CNN
F 3 "" H 3150 4200 50  0001 C CNN
	1    3150 4200
	1    0    0    -1  
$EndComp
$Comp
L power:VCC #PWR042
U 1 1 5CB234F4
P 1600 1250
F 0 "#PWR042" H 1600 1100 50  0001 C CNN
F 1 "VCC" H 1617 1427 50  0000 C CNN
F 2 "" H 1600 1250 50  0001 C CNN
F 3 "" H 1600 1250 50  0001 C CNN
	1    1600 1250
	1    0    0    -1  
$EndComp
$Comp
L Amplifier_Operational:LM324 U8
U 1 1 5E0DFBB8
P 6900 1050
F 0 "U8" H 7050 1300 50  0000 C CNN
F 1 "LM324" H 7100 1200 50  0000 C CNN
F 2 "Package_SO:TSSOP-14_4.4x5mm_P0.65mm" H 6850 1150 50  0001 C CNN
F 3 "http://www.ti.com/lit/ds/symlink/lm2902-n.pdf" H 6950 1250 50  0001 C CNN
	1    6900 1050
	1    0    0    -1  
$EndComp
Wire Wire Line
	7200 1050 7300 1050
Wire Wire Line
	6400 1150 6600 1150
Wire Wire Line
	7300 1050 7300 1350
Wire Wire Line
	6400 1150 6400 1350
$Comp
L Device:R R6
U 1 1 5E0EC068
P 5400 950
F 0 "R6" V 5300 850 50  0000 C CNN
F 1 "1k" V 5300 1100 50  0000 C CNN
F 2 "Resistor_SMD:R_0805_2012Metric" V 5330 950 50  0001 C CNN
F 3 "~" H 5400 950 50  0001 C CNN
	1    5400 950 
	0    1    1    0   
$EndComp
$Comp
L vss-rescue:C C21
U 1 1 5E0EC5A6
P 5800 1600
F 0 "C21" H 5950 1650 50  0000 L CNN
F 1 "100nF" H 5950 1550 50  0000 L CNN
F 2 "Capacitor_SMD:C_0805_2012Metric" H 5838 1450 50  0001 C CNN
F 3 "" H 5800 1600 50  0000 C CNN
	1    5800 1600
	1    0    0    -1  
$EndComp
Wire Wire Line
	5800 1450 5800 950 
$Comp
L power:GND #PWR033
U 1 1 5E0EF213
P 5800 1850
F 0 "#PWR033" H 5800 1600 50  0001 C CNN
F 1 "GND" H 5805 1673 50  0000 C CNN
F 2 "" H 5800 1850 50  0001 C CNN
F 3 "" H 5800 1850 50  0001 C CNN
	1    5800 1850
	1    0    0    -1  
$EndComp
Wire Wire Line
	5800 1850 5800 1750
$Comp
L Device:R R10
U 1 1 5E0F9389
P 6400 1600
F 0 "R10" H 6330 1553 50  0000 R CNN
F 1 "1k" H 6330 1646 50  0000 R CNN
F 2 "Resistor_SMD:R_0805_2012Metric" V 6330 1600 50  0001 C CNN
F 3 "~" H 6400 1600 50  0001 C CNN
F 4 "No" H 6400 1600 50  0001 C CNN "Mount"
	1    6400 1600
	-1   0    0    1   
$EndComp
Wire Wire Line
	6200 4700 5000 4700
Connection ~ 5000 4700
Wire Wire Line
	6200 5200 4550 5200
Connection ~ 4550 5200
Text Label 3950 950  0    50   ~ 0
MOTOR_R_SENSOR_CORRENTE
Wire Wire Line
	3950 950  5250 950 
$Comp
L Amplifier_Operational:LM324 U8
U 2 1 5E0EF6D2
P 6900 2550
F 0 "U8" H 7050 2800 50  0000 C CNN
F 1 "LM324" H 7100 2700 50  0000 C CNN
F 2 "Package_SO:TSSOP-14_4.4x5mm_P0.65mm" H 6850 2650 50  0001 C CNN
F 3 "http://www.ti.com/lit/ds/symlink/lm2902-n.pdf" H 6950 2750 50  0001 C CNN
	2    6900 2550
	1    0    0    -1  
$EndComp
Wire Wire Line
	7200 2550 7300 2550
Wire Wire Line
	6400 2650 6600 2650
Wire Wire Line
	7300 2550 7300 2850
Wire Wire Line
	6400 2650 6400 2850
$Comp
L Device:R R7
U 1 1 5E0EF6F6
P 5400 2450
F 0 "R7" V 5300 2350 50  0000 C CNN
F 1 "1k" V 5300 2600 50  0000 C CNN
F 2 "Resistor_SMD:R_0805_2012Metric" V 5330 2450 50  0001 C CNN
F 3 "~" H 5400 2450 50  0001 C CNN
	1    5400 2450
	0    1    1    0   
$EndComp
$Comp
L vss-rescue:C C22
U 1 1 5E0EF700
P 5800 3100
F 0 "C22" H 5950 3150 50  0000 L CNN
F 1 "100nF" H 5950 3050 50  0000 L CNN
F 2 "Capacitor_SMD:C_0805_2012Metric" H 5838 2950 50  0001 C CNN
F 3 "" H 5800 3100 50  0000 C CNN
	1    5800 3100
	1    0    0    -1  
$EndComp
$Comp
L power:GND #PWR037
U 1 1 5E0EF70C
P 6400 3350
F 0 "#PWR037" H 6400 3100 50  0001 C CNN
F 1 "GND" H 6405 3173 50  0000 C CNN
F 2 "" H 6400 3350 50  0001 C CNN
F 3 "" H 6400 3350 50  0001 C CNN
	1    6400 3350
	1    0    0    -1  
$EndComp
$Comp
L Device:R R11
U 1 1 5E0EF725
P 6400 3100
F 0 "R11" H 6330 3053 50  0000 R CNN
F 1 "1k" H 6330 3146 50  0000 R CNN
F 2 "Resistor_SMD:R_0805_2012Metric" V 6330 3100 50  0001 C CNN
F 3 "~" H 6400 3100 50  0001 C CNN
F 4 "No" H 6400 3100 50  0001 C CNN "Mount"
	1    6400 3100
	-1   0    0    1   
$EndComp
Wire Wire Line
	5800 2950 5800 2450
Connection ~ 5800 2450
Wire Wire Line
	5800 2450 5550 2450
$Comp
L power:GND #PWR032
U 1 1 5E0EF732
P 5800 3350
F 0 "#PWR032" H 5800 3100 50  0001 C CNN
F 1 "GND" H 5805 3173 50  0000 C CNN
F 2 "" H 5800 3350 50  0001 C CNN
F 3 "" H 5800 3350 50  0001 C CNN
	1    5800 3350
	1    0    0    -1  
$EndComp
Wire Wire Line
	5800 3350 5800 3250
Wire Wire Line
	3950 2450 5250 2450
Text Notes 5250 3800 0    50   ~ 0
Filtro passa baixas com freq. de corte em 2 kHz
Wire Notes Line
	8350 3850 8350 600 
Wire Notes Line
	8350 600  3850 600 
Wire Notes Line
	3850 600  3850 3850
Wire Notes Line
	3850 3850 8350 3850
Wire Notes Line
	8350 3650 3850 3650
Text HLabel 7400 1050 2    50   Output ~ 0
CORRENTE_MOTOR_R
Text Label 3950 2450 0    50   ~ 0
MOTOR_L_SENSOR_CORRENTE
Text HLabel 7400 2550 2    50   Output ~ 0
CORRENTE_MOTOR_L
Wire Wire Line
	7400 1050 7300 1050
Connection ~ 7300 1050
Wire Wire Line
	7400 2550 7300 2550
Connection ~ 7300 2550
Text Label 6200 4700 2    50   ~ 0
MOTOR_R_SENSOR_CORRENTE
Text Label 6200 5200 2    50   ~ 0
MOTOR_L_SENSOR_CORRENTE
$Comp
L power:+3V3 #PWR?
U 1 1 5EBF92F1
P 2350 3850
F 0 "#PWR?" H 2350 3700 50  0001 C CNN
F 1 "+3V3" H 2365 4027 50  0000 C CNN
F 2 "" H 2350 3850 50  0001 C CNN
F 3 "" H 2350 3850 50  0001 C CNN
	1    2350 3850
	1    0    0    -1  
$EndComp
$Comp
L Device:R R?
U 1 1 5EBF9737
P 2350 4100
F 0 "R?" H 2280 4053 50  0000 R CNN
F 1 "1k" H 2280 4146 50  0000 R CNN
F 2 "Resistor_SMD:R_0805_2012Metric" V 2280 4100 50  0001 C CNN
F 3 "~" H 2350 4100 50  0001 C CNN
	1    2350 4100
	-1   0    0    1   
$EndComp
Wire Wire Line
	2350 3850 2350 3950
Wire Wire Line
	2350 4250 2350 5100
Connection ~ 2350 5100
Wire Wire Line
	2350 5100 2650 5100
Wire Wire Line
	5550 950  5800 950 
Connection ~ 5800 950 
Wire Wire Line
	5800 950  6600 950 
$Comp
L Device:R R?
U 1 1 5ED7338B
P 6900 1350
F 0 "R?" V 7000 1300 50  0000 R CNN
F 1 "9k1" V 7000 1550 50  0000 R CNN
F 2 "Resistor_SMD:R_0805_2012Metric" V 6830 1350 50  0001 C CNN
F 3 "~" H 6900 1350 50  0001 C CNN
F 4 "No" H 6900 1350 50  0001 C CNN "Mount"
	1    6900 1350
	0    1    1    0   
$EndComp
Wire Wire Line
	6400 1350 6750 1350
Wire Wire Line
	7050 1350 7300 1350
$Comp
L power:GND #PWR?
U 1 1 5ED84339
P 6400 1850
F 0 "#PWR?" H 6400 1600 50  0001 C CNN
F 1 "GND" H 6405 1673 50  0000 C CNN
F 2 "" H 6400 1850 50  0001 C CNN
F 3 "" H 6400 1850 50  0001 C CNN
	1    6400 1850
	1    0    0    -1  
$EndComp
Wire Wire Line
	6400 1850 6400 1750
Wire Wire Line
	6400 1350 6400 1450
Connection ~ 6400 1350
$Comp
L Device:R R?
U 1 1 5EDDCD6F
P 6900 2850
F 0 "R?" V 7000 2800 50  0000 R CNN
F 1 "9k1" V 7000 3050 50  0000 R CNN
F 2 "Resistor_SMD:R_0805_2012Metric" V 6830 2850 50  0001 C CNN
F 3 "~" H 6900 2850 50  0001 C CNN
F 4 "No" H 6900 2850 50  0001 C CNN "Mount"
	1    6900 2850
	0    1    1    0   
$EndComp
Wire Wire Line
	7050 2850 7300 2850
Wire Wire Line
	6750 2850 6400 2850
Wire Wire Line
	5800 2450 6600 2450
Wire Wire Line
	6400 2850 6400 2950
Connection ~ 6400 2850
Wire Wire Line
	6400 3350 6400 3250
$EndSCHEMATC
