EESchema Schematic File Version 4
EELAYER 30 0
EELAYER END
$Descr A4 11693 8268
encoding utf-8
Sheet 3 6
Title "VSS"
Date "2020-03-29"
Rev "REV1"
Comp "IFSP - Campus São José dos Campos"
Comment1 "Instituto Federal de Educação, Ciência e Tecnologia do Estado de São Paulo"
Comment2 "Prof. Colombo - colombo.junior@ifsp.edu.br"
Comment3 ""
Comment4 ""
$EndDescr
$Comp
L imu:LSM6DS33 U3
U 1 1 5C371BB5
P 5950 4050
F 0 "U3" H 5500 4650 50  0000 C CNN
F 1 "LSM6DS33" H 6300 4650 50  0000 C CNN
F 2 "Package_LGA:LGA-16_3x3mm_P0.5mm_LayoutBorder3x5y" H 5950 4050 50  0001 C CNN
F 3 "" H 5950 4050 50  0001 C CNN
	1    5950 4050
	1    0    0    -1  
$EndComp
$Comp
L power:GND #PWR013
U 1 1 5C371CA0
P 5950 4950
F 0 "#PWR013" H 5950 4700 50  0001 C CNN
F 1 "GND" H 5955 4773 50  0000 C CNN
F 2 "" H 5950 4950 50  0001 C CNN
F 3 "" H 5950 4950 50  0001 C CNN
	1    5950 4950
	1    0    0    -1  
$EndComp
Wire Wire Line
	5950 4950 5950 4850
Wire Wire Line
	5950 4850 5850 4850
Wire Wire Line
	5650 4850 5650 4750
Connection ~ 5950 4850
Wire Wire Line
	5950 4850 5950 4750
Wire Wire Line
	5950 4850 6050 4850
Wire Wire Line
	6250 4850 6250 4750
Wire Wire Line
	6150 4750 6150 4850
Connection ~ 6150 4850
Wire Wire Line
	6150 4850 6250 4850
Wire Wire Line
	6050 4850 6050 4750
Connection ~ 6050 4850
Wire Wire Line
	6050 4850 6150 4850
Wire Wire Line
	5850 4750 5850 4850
Connection ~ 5850 4850
Wire Wire Line
	5850 4850 5750 4850
Wire Wire Line
	5750 4850 5750 4750
Connection ~ 5750 4850
Wire Wire Line
	5750 4850 5650 4850
$Comp
L power:+3V3 #PWR010
U 1 1 5C3722FC
P 6750 3600
F 0 "#PWR010" H 6750 3450 50  0001 C CNN
F 1 "+3V3" H 6765 3777 50  0000 C CNN
F 2 "" H 6750 3600 50  0001 C CNN
F 3 "" H 6750 3600 50  0001 C CNN
	1    6750 3600
	1    0    0    -1  
$EndComp
Wire Wire Line
	6650 3700 6750 3700
Wire Wire Line
	6750 3700 6750 3600
Wire Wire Line
	6750 3700 6750 3800
Wire Wire Line
	6750 3800 6650 3800
Connection ~ 6750 3700
Text HLabel 3150 3700 0    50   Input ~ 0
I2C_SCL
Text HLabel 3150 3800 0    50   BiDi ~ 0
I2C_SDA
Wire Wire Line
	3150 3800 3800 3800
$Comp
L vss-rescue:R R?
U 1 1 5C3F7F65
P 3400 3400
AR Path="/5884E5A9/5C3F7F65" Ref="R?"  Part="1" 
AR Path="/5C371720/5C3F7F65" Ref="R4"  Part="1" 
F 0 "R4" H 3500 3450 50  0000 L CNN
F 1 "1k" H 3500 3350 50  0000 L CNN
F 2 "Resistor_SMD:R_0805_2012Metric" V 3330 3400 50  0001 C CNN
F 3 "" H 3400 3400 50  0000 C CNN
	1    3400 3400
	1    0    0    -1  
$EndComp
$Comp
L power:+3V3 #PWR09
U 1 1 5C3F8050
P 3600 3000
F 0 "#PWR09" H 3600 2850 50  0001 C CNN
F 1 "+3V3" H 3615 3177 50  0000 C CNN
F 2 "" H 3600 3000 50  0001 C CNN
F 3 "" H 3600 3000 50  0001 C CNN
	1    3600 3000
	1    0    0    -1  
$EndComp
$Comp
L vss-rescue:R R?
U 1 1 5C3F808B
P 3800 3400
AR Path="/5884E5A9/5C3F808B" Ref="R?"  Part="1" 
AR Path="/5C371720/5C3F808B" Ref="R5"  Part="1" 
F 0 "R5" H 3900 3450 50  0000 L CNN
F 1 "1k" H 3900 3350 50  0000 L CNN
F 2 "Resistor_SMD:R_0805_2012Metric" V 3730 3400 50  0001 C CNN
F 3 "" H 3800 3400 50  0000 C CNN
	1    3800 3400
	1    0    0    -1  
$EndComp
Wire Wire Line
	3800 3550 3800 3800
Connection ~ 3800 3800
Wire Wire Line
	3400 3550 3400 3700
Connection ~ 3400 3700
Wire Wire Line
	3400 3700 3150 3700
Wire Wire Line
	3400 3250 3400 3150
Wire Wire Line
	3400 3150 3600 3150
Wire Wire Line
	3800 3150 3800 3250
Wire Wire Line
	5250 3900 5150 3900
Wire Wire Line
	5250 4000 5150 4000
Wire Wire Line
	5150 4000 5150 3900
Connection ~ 5150 3900
$Comp
L vss-rescue:+3.3V #PWR?
U 1 1 5CB48220
P 5950 5550
AR Path="/5C41CF0A/5CB48220" Ref="#PWR?"  Part="1" 
AR Path="/5C371720/5CB48220" Ref="#PWR014"  Part="1" 
F 0 "#PWR014" H 5950 5400 50  0001 C CNN
F 1 "+3.3V" H 5950 5690 50  0000 C CNN
F 2 "" H 5950 5550 50  0000 C CNN
F 3 "" H 5950 5550 50  0000 C CNN
	1    5950 5550
	1    0    0    -1  
$EndComp
$Comp
L vss-rescue:GND #PWR?
U 1 1 5CB48226
P 5950 6150
AR Path="/5C41CF0A/5CB48226" Ref="#PWR?"  Part="1" 
AR Path="/5C371720/5CB48226" Ref="#PWR015"  Part="1" 
F 0 "#PWR015" H 5950 5900 50  0001 C CNN
F 1 "GND" H 5950 6000 50  0000 C CNN
F 2 "" H 5950 6150 50  0000 C CNN
F 3 "" H 5950 6150 50  0000 C CNN
	1    5950 6150
	1    0    0    -1  
$EndComp
$Comp
L vss-rescue:C C?
U 1 1 5CB4822C
P 5950 5850
AR Path="/583B6F17/5CB4822C" Ref="C?"  Part="1" 
AR Path="/5C41CF0A/5CB4822C" Ref="C?"  Part="1" 
AR Path="/5C371720/5CB4822C" Ref="C5"  Part="1" 
F 0 "C5" H 6100 5900 50  0000 L CNN
F 1 "1uF" H 6100 5800 50  0000 L CNN
F 2 "Capacitor_SMD:C_0805_2012Metric" H 5988 5700 50  0001 C CNN
F 3 "" H 5950 5850 50  0001 C CNN
	1    5950 5850
	1    0    0    -1  
$EndComp
$Comp
L vss-rescue:C C?
U 1 1 5CB48233
P 5500 5850
AR Path="/583B6F17/5CB48233" Ref="C?"  Part="1" 
AR Path="/5C41CF0A/5CB48233" Ref="C?"  Part="1" 
AR Path="/5C371720/5CB48233" Ref="C4"  Part="1" 
F 0 "C4" H 5650 5900 50  0000 L CNN
F 1 "1uF" H 5650 5800 50  0000 L CNN
F 2 "Capacitor_SMD:C_0805_2012Metric" H 5538 5700 50  0001 C CNN
F 3 "" H 5500 5850 50  0001 C CNN
	1    5500 5850
	1    0    0    -1  
$EndComp
Wire Wire Line
	6400 5700 6400 5650
Wire Wire Line
	5950 5650 5950 5700
Wire Wire Line
	5950 6000 5950 6050
Wire Wire Line
	6400 6050 6400 6000
$Comp
L vss-rescue:C C?
U 1 1 5CB4823E
P 6400 5850
AR Path="/583B6F17/5CB4823E" Ref="C?"  Part="1" 
AR Path="/5C41CF0A/5CB4823E" Ref="C?"  Part="1" 
AR Path="/5C371720/5CB4823E" Ref="C6"  Part="1" 
F 0 "C6" H 6550 5900 50  0000 L CNN
F 1 "100nF" H 6550 5800 50  0000 L CNN
F 2 "Capacitor_SMD:C_0805_2012Metric" H 6438 5700 50  0001 C CNN
F 3 "" H 6400 5850 50  0001 C CNN
	1    6400 5850
	1    0    0    -1  
$EndComp
Wire Wire Line
	5950 5650 5500 5650
Wire Wire Line
	5500 5650 5500 5700
Connection ~ 5950 5650
Wire Wire Line
	5500 6000 5500 6050
Wire Wire Line
	5500 6050 5950 6050
Connection ~ 5950 6050
Wire Wire Line
	5950 5650 6400 5650
Wire Wire Line
	5950 6050 6400 6050
Wire Wire Line
	5950 6150 5950 6050
Wire Wire Line
	5950 5650 5950 5550
NoConn ~ 6650 3900
NoConn ~ 6650 4000
$Comp
L power:+3V3 #PWR028
U 1 1 5E1C9A81
P 5150 3600
F 0 "#PWR028" H 5150 3450 50  0001 C CNN
F 1 "+3V3" H 5165 3777 50  0000 C CNN
F 2 "" H 5150 3600 50  0001 C CNN
F 3 "" H 5150 3600 50  0001 C CNN
	1    5150 3600
	1    0    0    -1  
$EndComp
Wire Wire Line
	5150 3600 5150 3900
Wire Wire Line
	3600 3000 3600 3150
Connection ~ 3600 3150
Wire Wire Line
	3600 3150 3800 3150
Wire Wire Line
	3800 3800 4750 3800
Wire Wire Line
	3400 3700 4850 3700
$Comp
L power:GND #PWR?
U 1 1 5EDACD3E
P 5950 2650
F 0 "#PWR?" H 5950 2400 50  0001 C CNN
F 1 "GND" H 5955 2473 50  0000 C CNN
F 2 "" H 5950 2650 50  0001 C CNN
F 3 "" H 5950 2650 50  0001 C CNN
	1    5950 2650
	1    0    0    -1  
$EndComp
Wire Wire Line
	5950 2650 5950 2600
Wire Wire Line
	5550 2050 4850 2050
Wire Wire Line
	4850 2050 4850 3700
Connection ~ 4850 3700
Wire Wire Line
	4850 3700 5250 3700
Wire Wire Line
	5550 1950 4750 1950
Wire Wire Line
	4750 1950 4750 3800
Connection ~ 4750 3800
Wire Wire Line
	4750 3800 5250 3800
$Comp
L imu:TMP102 U?
U 1 1 5EDA80E6
P 5950 2150
F 0 "U?" H 6394 2196 50  0000 L CNN
F 1 "TMP102" H 6394 2105 50  0000 L CNN
F 2 "Package_TO_SOT_SMD:SOT-563" H 5950 1800 50  0001 C CNN
F 3 "http://www.ti.com/lit/ds/symlink/tmp102.pdf" H 5900 2150 50  0001 C CNN
	1    5950 2150
	1    0    0    -1  
$EndComp
Wire Wire Line
	5950 2600 5450 2600
Wire Wire Line
	5450 2600 5450 2250
Wire Wire Line
	5450 2250 5550 2250
Connection ~ 5950 2600
Wire Wire Line
	5950 2600 5950 2550
$Comp
L power:+3V3 #PWR?
U 1 1 5EDAA3C2
P 5950 1550
F 0 "#PWR?" H 5950 1400 50  0001 C CNN
F 1 "+3V3" H 5965 1727 50  0000 C CNN
F 2 "" H 5950 1550 50  0001 C CNN
F 3 "" H 5950 1550 50  0001 C CNN
	1    5950 1550
	1    0    0    -1  
$EndComp
Wire Wire Line
	5950 1550 5950 1650
Text HLabel 6700 1950 2    50   Output ~ 0
TEMP_ALERT
Wire Wire Line
	6700 1950 6500 1950
$Comp
L Device:R R?
U 1 1 5EDAD302
P 6250 1650
F 0 "R?" V 6150 1550 50  0000 C CNN
F 1 "4k7" V 6150 1800 50  0000 C CNN
F 2 "" V 6180 1650 50  0001 C CNN
F 3 "~" H 6250 1650 50  0001 C CNN
	1    6250 1650
	0    1    1    0   
$EndComp
Wire Wire Line
	6100 1650 5950 1650
Connection ~ 5950 1650
Wire Wire Line
	5950 1650 5950 1750
Wire Wire Line
	6400 1650 6500 1650
Wire Wire Line
	6500 1650 6500 1950
Connection ~ 6500 1950
Wire Wire Line
	6500 1950 6350 1950
$EndSCHEMATC
