EESchema Schematic File Version 4
LIBS:vss-cache
EELAYER 26 0
EELAYER END
$Descr A4 11693 8268
encoding utf-8
Sheet 4 6
Title ""
Date ""
Rev ""
Comp ""
Comment1 ""
Comment2 ""
Comment3 ""
Comment4 ""
$EndDescr
$Comp
L vss-rescue:R R9
U 1 1 5884E75C
P 9600 1700
F 0 "R9" H 9700 1750 50  0000 L CNN
F 1 "22k" H 9700 1650 50  0000 L CNN
F 2 "Resistors_SMD:R_1206_HandSoldering" V 9530 1700 50  0001 C CNN
F 3 "" H 9600 1700 50  0000 C CNN
	1    9600 1700
	1    0    0    -1  
$EndComp
$Comp
L vss-rescue:GND #PWR34
U 1 1 5884E76A
P 9600 2550
F 0 "#PWR34" H 9600 2300 50  0001 C CNN
F 1 "GND" H 9600 2400 50  0000 C CNN
F 2 "" H 9600 2550 50  0000 C CNN
F 3 "" H 9600 2550 50  0000 C CNN
	1    9600 2550
	1    0    0    -1  
$EndComp
$Comp
L vss-rescue:GND #PWR33
U 1 1 5884E885
P 6500 2350
F 0 "#PWR33" H 6500 2100 50  0001 C CNN
F 1 "GND" H 6500 2200 50  0000 C CNN
F 2 "" H 6500 2350 50  0000 C CNN
F 3 "" H 6500 2350 50  0000 C CNN
	1    6500 2350
	1    0    0    -1  
$EndComp
$Comp
L vss-rescue:C C11
U 1 1 5884E972
P 7000 2000
F 0 "C11" H 7025 2100 50  0000 L CNN
F 1 "100nF" H 7025 1900 50  0000 L CNN
F 2 "Capacitors_SMD:C_1206_HandSoldering" H 7038 1850 50  0001 C CNN
F 3 "" H 7000 2000 50  0000 C CNN
	1    7000 2000
	1    0    0    -1  
$EndComp
$Comp
L vss-rescue:CP C12
U 1 1 5884E9B5
P 7400 2000
F 0 "C12" H 7425 2100 50  0000 L CNN
F 1 "100uF" H 7425 1900 50  0000 L CNN
F 2 "Capacitors_THT:CP_Radial_D6.3mm_P2.50mm" H 7438 1850 50  0001 C CNN
F 3 "" H 7400 2000 50  0000 C CNN
	1    7400 2000
	1    0    0    -1  
$EndComp
Text Notes 9400 1100 0    60   ~ 0
BATTERY SENSOR
$Comp
L vss-rescue:CONN_2X1F J3
U 1 1 5884EFC9
P 1700 1800
F 0 "J3" H 1700 2000 40  0000 C CNN
F 1 "BATTERY" H 1700 1700 40  0000 C CNN
F 2 "Pin_Headers:Pin_Header_Angled_1x02_Pitch2.54mm" H 1700 1800 60  0001 C CNN
F 3 "" H 1700 1800 60  0000 C CNN
	1    1700 1800
	-1   0    0    -1  
$EndComp
Text Notes 1650 1200 0    60   ~ 0
BATTERY, POWER SWTICH AND PROTECTION DIODE
Text Notes 6200 1300 0    60   ~ 0
5V REGULATOR
$Comp
L vss-rescue:C C10
U 1 1 58FA190C
P 6000 2000
F 0 "C10" H 6025 2100 50  0000 L CNN
F 1 "100nF" H 6025 1900 50  0000 L CNN
F 2 "Capacitors_SMD:C_1206_HandSoldering" H 6038 1850 50  0001 C CNN
F 3 "" H 6000 2000 50  0000 C CNN
	1    6000 2000
	1    0    0    -1  
$EndComp
$Comp
L vss-rescue:+BATT #PWR28
U 1 1 5924BCEA
P 3450 1550
F 0 "#PWR28" H 3450 1400 50  0001 C CNN
F 1 "+BATT" H 3450 1690 50  0000 C CNN
F 2 "" H 3450 1550 50  0001 C CNN
F 3 "" H 3450 1550 50  0001 C CNN
	1    3450 1550
	1    0    0    -1  
$EndComp
$Comp
L vss-rescue:+BATT #PWR29
U 1 1 5924BD9F
P 6000 1650
F 0 "#PWR29" H 6000 1500 50  0001 C CNN
F 1 "+BATT" H 6000 1790 50  0000 C CNN
F 2 "" H 6000 1650 50  0001 C CNN
F 3 "" H 6000 1650 50  0001 C CNN
	1    6000 1650
	1    0    0    -1  
$EndComp
$Comp
L vss-rescue:+BATT #PWR27
U 1 1 5924B5F6
P 9600 1450
F 0 "#PWR27" H 9600 1300 50  0001 C CNN
F 1 "+BATT" H 9600 1590 50  0000 C CNN
F 2 "" H 9600 1450 50  0001 C CNN
F 3 "" H 9600 1450 50  0001 C CNN
	1    9600 1450
	1    0    0    -1  
$EndComp
$Comp
L vss-rescue:D_Schottky_ALT D3
U 1 1 5924E5AC
P 2950 1600
F 0 "D3" H 3050 1500 50  0000 C CNN
F 1 "SS34" H 2800 1500 50  0000 C CNN
F 2 "Diodes_SMD:D_SMB_Handsoldering" H 2950 1600 50  0001 C CNN
F 3 "" H 2950 1600 50  0001 C CNN
	1    2950 1600
	-1   0    0    1   
$EndComp
$Comp
L vss-rescue:R R10
U 1 1 5924EFBA
P 9600 2200
F 0 "R10" H 9700 2250 50  0000 L CNN
F 1 "2k2" H 9700 2150 50  0000 L CNN
F 2 "Resistors_SMD:R_1206_HandSoldering" V 9530 2200 50  0001 C CNN
F 3 "" H 9600 2200 50  0000 C CNN
	1    9600 2200
	1    0    0    -1  
$EndComp
$Comp
L vss-rescue:+5V #PWR30
U 1 1 5924FB08
P 7000 1650
F 0 "#PWR30" H 7000 1500 50  0001 C CNN
F 1 "+5V" H 7000 1790 50  0000 C CNN
F 2 "" H 7000 1650 50  0001 C CNN
F 3 "" H 7000 1650 50  0001 C CNN
	1    7000 1650
	1    0    0    -1  
$EndComp
Text HLabel 9800 1950 2    60   Output ~ 0
BAT_SENSE
$Comp
L vss-rescue:GND #PWR31
U 1 1 592AE65F
P 2000 1850
F 0 "#PWR31" H 2000 1600 50  0001 C CNN
F 1 "GND" H 2000 1700 50  0000 C CNN
F 2 "" H 2000 1850 50  0001 C CNN
F 3 "" H 2000 1850 50  0001 C CNN
	1    2000 1850
	1    0    0    -1  
$EndComp
$Comp
L vss-rescue:C C8
U 1 1 592C93BA
P 7250 3900
F 0 "C8" H 7275 4000 50  0000 L CNN
F 1 "1uF" H 7275 3800 50  0000 L CNN
F 2 "Capacitors_SMD:C_0805_HandSoldering" H 7288 3750 50  0001 C CNN
F 3 "" H 7250 3900 50  0000 C CNN
	1    7250 3900
	1    0    0    -1  
$EndComp
$Comp
L vss-rescue:+3.3V #PWR36
U 1 1 592C951F
P 7450 3550
F 0 "#PWR36" H 7450 3400 50  0001 C CNN
F 1 "+3.3V" H 7450 3690 50  0000 C CNN
F 2 "" H 7450 3550 50  0001 C CNN
F 3 "" H 7450 3550 50  0001 C CNN
	1    7450 3550
	1    0    0    -1  
$EndComp
$Comp
L vss-rescue:GND #PWR37
U 1 1 592C95A8
P 6750 4300
F 0 "#PWR37" H 6750 4050 50  0001 C CNN
F 1 "GND" H 6750 4150 50  0000 C CNN
F 2 "" H 6750 4300 50  0000 C CNN
F 3 "" H 6750 4300 50  0000 C CNN
	1    6750 4300
	1    0    0    -1  
$EndComp
$Comp
L switches:SW_SPDT SW1
U 1 1 592F663A
P 2400 1700
F 0 "SW1" H 2300 1850 50  0000 C CNN
F 1 "KCD1-101/3P" H 2400 1500 50  0000 C CNN
F 2 "lib:KCD1-102-3P" H 2400 1700 50  0001 C CNN
F 3 "http://www.jhswitch.com/html_products/JH-SWITCH-KCD1-101-17.html" H 2400 1700 50  0001 C CNN
F 4 "http://www.soldafria.com.br/chave-gangorra-kcd1-102-preta-3-terminais" H 2400 1700 60  0001 C CNN "Supplier link"
	1    2400 1700
	1    0    0    -1  
$EndComp
$Comp
L vss-rescue:CP C7
U 1 1 5932C259
P 7550 3900
F 0 "C7" H 7575 4000 50  0000 L CNN
F 1 "100uF" H 7575 3800 50  0000 L CNN
F 2 "Capacitors_THT:CP_Radial_D6.3mm_P2.50mm" H 7588 3750 50  0001 C CNN
F 3 "" H 7550 3900 50  0000 C CNN
	1    7550 3900
	1    0    0    -1  
$EndComp
Text Notes 6600 3200 0    60   ~ 0
3V3 REGULATOR
$Comp
L Regulators:LM78L05 U4
U 1 1 599738EB
P 6500 1800
F 0 "U4" H 6650 1604 50  0000 C CNN
F 1 "LM78L05" H 6500 2000 50  0000 C CNN
F 2 "TO_SOT_Packages_SMD:SOT-89-3_Handsoldering" H 6500 1800 50  0001 C CNN
F 3 "" H 6500 1800 50  0001 C CNN
	1    6500 1800
	1    0    0    -1  
$EndComp
Wire Wire Line
	9600 2350 9600 2550
Wire Wire Line
	9600 1850 9600 1950
Wire Wire Line
	9600 1550 9600 1450
Wire Wire Line
	5650 1750 6000 1750
Wire Wire Line
	6000 1650 6000 1750
Wire Wire Line
	6500 2050 6500 2250
Wire Wire Line
	6900 1750 7000 1750
Wire Wire Line
	7000 1650 7000 1750
Connection ~ 7000 1750
Wire Wire Line
	7400 1750 7400 1850
Wire Wire Line
	7000 2250 7000 2150
Wire Wire Line
	5650 2250 6000 2250
Connection ~ 6500 2250
Wire Wire Line
	7400 2250 7400 2150
Connection ~ 7000 2250
Wire Notes Line
	9050 2850 10450 2850
Wire Notes Line
	10450 2850 10450 1150
Wire Notes Line
	10450 1150 9050 1150
Wire Notes Line
	9050 1150 9050 2850
Wire Notes Line
	1450 1250 4200 1250
Wire Notes Line
	4200 1250 4200 2200
Wire Notes Line
	4200 2200 1450 2200
Wire Notes Line
	1450 2200 1450 1250
Wire Notes Line
	5450 1350 7750 1350
Wire Notes Line
	7750 1350 7750 2600
Wire Notes Line
	7750 2600 5450 2600
Wire Notes Line
	5450 2600 5450 1350
Connection ~ 6000 1750
Wire Wire Line
	5650 1750 5650 1850
Wire Wire Line
	6000 2150 6000 2250
Wire Wire Line
	5650 2250 5650 2150
Connection ~ 6000 2250
Wire Wire Line
	1850 1800 2000 1800
Wire Wire Line
	1850 1700 2200 1700
Wire Wire Line
	2000 1800 2000 1850
Wire Wire Line
	3450 1600 3450 1550
Wire Wire Line
	2600 1600 2800 1600
Wire Wire Line
	3100 1600 3450 1600
Wire Wire Line
	7050 3650 7250 3650
Wire Wire Line
	7250 3650 7250 3750
Wire Wire Line
	6750 3950 6750 4200
Wire Wire Line
	6750 4200 7250 4200
Wire Wire Line
	7250 4200 7250 4050
Wire Wire Line
	6450 3650 6150 3650
Wire Wire Line
	6150 3650 6150 3550
Connection ~ 6750 4200
Wire Wire Line
	7450 3650 7450 3550
Connection ~ 7250 3650
Wire Wire Line
	7550 3650 7550 3750
Connection ~ 7450 3650
Wire Wire Line
	7550 4200 7550 4050
Connection ~ 7250 4200
Wire Notes Line
	5900 3250 5900 4600
Wire Notes Line
	5900 4600 7900 4600
Wire Notes Line
	7900 4600 7900 3250
Wire Notes Line
	7900 3250 5900 3250
Wire Wire Line
	9800 1950 9600 1950
Connection ~ 9600 1950
$Comp
L vss-rescue:LM1117-3.3 U3
U 1 1 5B356420
P 6750 3650
F 0 "U3" H 6600 3775 50  0000 C CNN
F 1 "LM1117-3.3" H 6750 3775 50  0000 L CNN
F 2 "TO_SOT_Packages_SMD:SOT-223" H 6750 3650 50  0001 C CNN
F 3 "" H 6750 3650 50  0001 C CNN
	1    6750 3650
	1    0    0    -1  
$EndComp
$Comp
L vss-rescue:CP C9
U 1 1 5B356CE6
P 5650 2000
F 0 "C9" H 5675 2100 50  0000 L CNN
F 1 "10uF" H 5675 1900 50  0000 L CNN
F 2 "Capacitors_THT:CP_Radial_D4.0mm_P2.00mm" H 5688 1850 50  0001 C CNN
F 3 "" H 5650 2000 50  0000 C CNN
	1    5650 2000
	1    0    0    -1  
$EndComp
Wire Wire Line
	7000 1750 7400 1750
Wire Wire Line
	7000 1750 7000 1850
Wire Wire Line
	6500 2250 6500 2350
Wire Wire Line
	6500 2250 7000 2250
Wire Wire Line
	7000 2250 7400 2250
Wire Wire Line
	6000 1750 6100 1750
Wire Wire Line
	6000 1750 6000 1850
Wire Wire Line
	6000 2250 6500 2250
Wire Wire Line
	6750 4200 6750 4300
Wire Wire Line
	7250 3650 7450 3650
Wire Wire Line
	7450 3650 7550 3650
Wire Wire Line
	7250 4200 7550 4200
Wire Wire Line
	9600 1950 9600 2050
$Comp
L vss-rescue:+BATT #PWR?
U 1 1 5BA69027
P 6150 3550
F 0 "#PWR?" H 6150 3400 50  0001 C CNN
F 1 "+BATT" H 6150 3690 50  0000 C CNN
F 2 "" H 6150 3550 50  0001 C CNN
F 3 "" H 6150 3550 50  0001 C CNN
	1    6150 3550
	1    0    0    -1  
$EndComp
$EndSCHEMATC
