(export (version D)
  (design
    (source /home/junior/GoogleDrive/GRIF/eletronica/principal/vss.sch)
    (date "qui 28 jun 2018 19:30:29 -03")
    (tool "Eeschema 4.0.7+dfsg1-1~bpo9+1")
    (sheet (number 1) (name /) (tstamps /)
      (title_block
        (title VSS)
        (company)
        (rev "José Roberto")
        (date 2016-11-27)
        (source vss.sch)
        (comment (number 1) (value ""))
        (comment (number 2) (value ""))
        (comment (number 3) (value ""))
        (comment (number 4) (value ""))))
    (sheet (number 2) (name /Microcontroller/) (tstamps /583B6F17/)
      (title_block
        (title)
        (company)
        (rev "José Roberto")
        (date 2016-11-27)
        (source microcontroller.sch)
        (comment (number 1) (value ""))
        (comment (number 2) (value ""))
        (comment (number 3) (value ""))
        (comment (number 4) (value ""))))
    (sheet (number 3) (name /MotorL/) (tstamps /583B7CD9/)
      (title_block
        (title)
        (company)
        (rev "José Roberto")
        (date 2016-11-27)
        (source motorL.sch)
        (comment (number 1) (value ""))
        (comment (number 2) (value ""))
        (comment (number 3) (value ""))
        (comment (number 4) (value ""))))
    (sheet (number 4) (name /Power/) (tstamps /5884E5A9/)
      (title_block
        (title)
        (company)
        (rev)
        (date)
        (source Power.sch)
        (comment (number 1) (value ""))
        (comment (number 2) (value ""))
        (comment (number 3) (value ""))
        (comment (number 4) (value ""))))
    (sheet (number 5) (name /Radio/) (tstamps /5912AF79/)
      (title_block
        (title)
        (company)
        (rev)
        (date)
        (source radio.sch)
        (comment (number 1) (value ""))
        (comment (number 2) (value ""))
        (comment (number 3) (value ""))
        (comment (number 4) (value ""))))
    (sheet (number 6) (name /MotorR/) (tstamps /59138C67/)
      (title_block
        (title)
        (company)
        (rev "José Roberto")
        (date 2016-11-27)
        (source motorR.sch)
        (comment (number 1) (value ""))
        (comment (number 2) (value ""))
        (comment (number 3) (value ""))
        (comment (number 4) (value "")))))
  (components
    (comp (ref D1)
      (value GREEN)
      (footprint LEDs:LED_1206)
      (libsource (lib vss-cache) (part LED-RESCUE-vss))
      (sheetpath (names /Microcontroller/) (tstamps /583B6F17/))
      (tstamp 58441C7E))
    (comp (ref R2)
      (value 680R)
      (footprint Resistors_SMD:R_1206_HandSoldering)
      (libsource (lib device) (part R))
      (sheetpath (names /Microcontroller/) (tstamps /583B6F17/))
      (tstamp 5885415B))
    (comp (ref R1)
      (value 2k2)
      (footprint Resistors_SMD:R_1206_HandSoldering)
      (libsource (lib device) (part R))
      (sheetpath (names /Microcontroller/) (tstamps /583B6F17/))
      (tstamp 588541CC))
    (comp (ref D2)
      (value RED)
      (footprint LEDs:LED_1206)
      (libsource (lib vss-cache) (part LED-RESCUE-vss))
      (sheetpath (names /Microcontroller/) (tstamps /583B6F17/))
      (tstamp 592628B0))
    (comp (ref J6)
      (value "ROBOT ID")
      (footprint Pin_Headers:Pin_Header_Straight_2x02_Pitch2.54mm)
      (libsource (lib vss-cache) (part CONN_02X02))
      (sheetpath (names /Microcontroller/) (tstamps /583B6F17/))
      (tstamp 592F368B))
    (comp (ref U1)
      (value ATMEGA328-AU)
      (footprint Housings_QFP:TQFP-32_7x7mm_Pitch0.8mm)
      (libsource (lib atmel) (part ATMEGA328-AU))
      (sheetpath (names /Microcontroller/) (tstamps /583B6F17/))
      (tstamp 5996E1E2))
    (comp (ref C3)
      (value 1uF)
      (footprint Capacitors_SMD:C_0805_HandSoldering)
      (libsource (lib device) (part C))
      (sheetpath (names /Microcontroller/) (tstamps /583B6F17/))
      (tstamp 5997024A))
    (comp (ref C4)
      (value 22pF)
      (footprint Capacitors_SMD:C_1206_HandSoldering)
      (libsource (lib device) (part C))
      (sheetpath (names /Microcontroller/) (tstamps /583B6F17/))
      (tstamp 59971145))
    (comp (ref C5)
      (value 22pF)
      (footprint Capacitors_SMD:C_1206_HandSoldering)
      (libsource (lib device) (part C))
      (sheetpath (names /Microcontroller/) (tstamps /583B6F17/))
      (tstamp 5997114B))
    (comp (ref J7)
      (value UART)
      (footprint Pin_Headers:Pin_Header_Straight_1x04_Pitch2.54mm)
      (libsource (lib vss-cache) (part CONN_01X04))
      (sheetpath (names /Microcontroller/) (tstamps /583B6F17/))
      (tstamp 59997AC1))
    (comp (ref Y1)
      (value 16MHz)
      (footprint Crystals:Crystal_HC49-4H_Vertical)
      (libsource (lib device) (part Crystal))
      (sheetpath (names /Microcontroller/) (tstamps /583B6F17/))
      (tstamp 5997113F))
    (comp (ref C2)
      (value 1uF)
      (footprint Capacitors_SMD:C_0805_HandSoldering)
      (libsource (lib device) (part C))
      (sheetpath (names /Microcontroller/) (tstamps /583B6F17/))
      (tstamp 5999A234))
    (comp (ref L1)
      (value 100uH)
      (footprint Inductors_SMD:L_0603_HandSoldering)
      (libsource (lib device) (part L))
      (sheetpath (names /Microcontroller/) (tstamps /583B6F17/))
      (tstamp 59A17D24))
    (comp (ref C13)
      (value 1uF)
      (footprint Capacitors_SMD:C_0805_HandSoldering)
      (libsource (lib device) (part C))
      (sheetpath (names /Microcontroller/) (tstamps /583B6F17/))
      (tstamp 59A1842D))
    (comp (ref P1)
      (value MOTOR_L)
      (footprint Pin_Headers:Pin_Header_Angled_1x06_Pitch2.54mm)
      (libsource (lib vss-cache) (part CONN_01X06))
      (sheetpath (names /MotorL/) (tstamps /583B7CD9/))
      (tstamp 58972BB0))
    (comp (ref D4)
      (value SS34)
      (footprint Diodes_SMD:D_SMB_Handsoldering)
      (libsource (lib device) (part D_Schottky_ALT))
      (sheetpath (names /MotorL/) (tstamps /583B7CD9/))
      (tstamp 59613B9A))
    (comp (ref D5)
      (value SS34)
      (footprint Diodes_SMD:D_SMB_Handsoldering)
      (libsource (lib device) (part D_Schottky_ALT))
      (sheetpath (names /MotorL/) (tstamps /583B7CD9/))
      (tstamp 59613BF4))
    (comp (ref D7)
      (value SS34)
      (footprint Diodes_SMD:D_SMB_Handsoldering)
      (libsource (lib device) (part D_Schottky_ALT))
      (sheetpath (names /MotorL/) (tstamps /583B7CD9/))
      (tstamp 59613D07))
    (comp (ref D6)
      (value SS34)
      (footprint Diodes_SMD:D_SMB_Handsoldering)
      (libsource (lib device) (part D_Schottky_ALT))
      (sheetpath (names /MotorL/) (tstamps /583B7CD9/))
      (tstamp 59613D5C))
    (comp (ref U2)
      (value L298)
      (footprint lib:powerso-20)
      (libsource (lib H-Bridge) (part L298))
      (sheetpath (names /MotorL/) (tstamps /583B7CD9/))
      (tstamp 59611B53))
    (comp (ref C6)
      (value 1uF)
      (footprint Capacitors_SMD:C_0805_HandSoldering)
      (libsource (lib device) (part C))
      (sheetpath (names /MotorL/) (tstamps /583B7CD9/))
      (tstamp 5963D0B1))
    (comp (ref C15)
      (value 100uF)
      (footprint Capacitors_THT:CP_Radial_D6.3mm_P2.50mm)
      (libsource (lib device) (part CP))
      (sheetpath (names /MotorL/) (tstamps /583B7CD9/))
      (tstamp 59641919))
    (comp (ref C1)
      (value 1uF)
      (footprint Capacitors_SMD:C_0805_HandSoldering)
      (libsource (lib device) (part C))
      (sheetpath (names /MotorL/) (tstamps /583B7CD9/))
      (tstamp 5999AA64))
    (comp (ref R9)
      (value 22k)
      (footprint Resistors_SMD:R_1206_HandSoldering)
      (libsource (lib device) (part R))
      (sheetpath (names /Power/) (tstamps /5884E5A9/))
      (tstamp 5884E75C))
    (comp (ref C11)
      (value 100nF)
      (footprint Capacitors_SMD:C_1206_HandSoldering)
      (libsource (lib device) (part C))
      (sheetpath (names /Power/) (tstamps /5884E5A9/))
      (tstamp 5884E972))
    (comp (ref C12)
      (value 100uF)
      (footprint Capacitors_THT:CP_Radial_D6.3mm_P2.50mm)
      (libsource (lib device) (part CP))
      (sheetpath (names /Power/) (tstamps /5884E5A9/))
      (tstamp 5884E9B5))
    (comp (ref J3)
      (value BATTERY)
      (footprint Pin_Headers:Pin_Header_Angled_1x02_Pitch2.54mm)
      (libsource (lib vss-cache) (part CONN_2X1F))
      (sheetpath (names /Power/) (tstamps /5884E5A9/))
      (tstamp 5884EFC9))
    (comp (ref J2)
      (value EXT_CHARGE)
      (footprint Pin_Headers:Pin_Header_Straight_1x02_Pitch2.54mm)
      (libsource (lib vss-cache) (part CONN_2X1F))
      (sheetpath (names /Power/) (tstamps /5884E5A9/))
      (tstamp 58855467))
    (comp (ref C10)
      (value 100nF)
      (footprint Capacitors_SMD:C_1206_HandSoldering)
      (libsource (lib device) (part C))
      (sheetpath (names /Power/) (tstamps /5884E5A9/))
      (tstamp 58FA190C))
    (comp (ref D3)
      (value SS34)
      (footprint Diodes_SMD:D_SMB_Handsoldering)
      (libsource (lib device) (part D_Schottky_ALT))
      (sheetpath (names /Power/) (tstamps /5884E5A9/))
      (tstamp 5924E5AC))
    (comp (ref R10)
      (value 2k2)
      (footprint Resistors_SMD:R_1206_HandSoldering)
      (libsource (lib device) (part R))
      (sheetpath (names /Power/) (tstamps /5884E5A9/))
      (tstamp 5924EFBA))
    (comp (ref C8)
      (value 1uF)
      (footprint Capacitors_SMD:C_0805_HandSoldering)
      (libsource (lib device) (part C))
      (sheetpath (names /Power/) (tstamps /5884E5A9/))
      (tstamp 592C93BA))
    (comp (ref SW1)
      (value KCD1-101/3P)
      (footprint lib:KCD1-102-3P)
      (datasheet http://www.jhswitch.com/html_products/JH-SWITCH-KCD1-101-17.html)
      (fields
        (field (name "Supplier link") http://www.soldafria.com.br/chave-gangorra-kcd1-102-preta-3-terminais))
      (libsource (lib switches) (part SW_SPDT))
      (sheetpath (names /Power/) (tstamps /5884E5A9/))
      (tstamp 592F663A))
    (comp (ref C7)
      (value 100uF)
      (footprint Capacitors_THT:CP_Radial_D6.3mm_P2.50mm)
      (libsource (lib device) (part CP))
      (sheetpath (names /Power/) (tstamps /5884E5A9/))
      (tstamp 5932C259))
    (comp (ref U4)
      (value LM78L05)
      (footprint TO_SOT_Packages_SMD:SOT-89-3_Handsoldering)
      (libsource (lib Regulators) (part LM78L05))
      (sheetpath (names /Power/) (tstamps /5884E5A9/))
      (tstamp 599738EB))
    (comp (ref U3)
      (value LM1117-3.3)
      (footprint TO_SOT_Packages_SMD:SOT-223)
      (libsource (lib regul) (part LM1117-3.3))
      (sheetpath (names /Power/) (tstamps /5884E5A9/))
      (tstamp 5B356420))
    (comp (ref C9)
      (value 10uF)
      (footprint Capacitors_THT:CP_Radial_D4.0mm_P2.00mm)
      (libsource (lib device) (part CP))
      (sheetpath (names /Power/) (tstamps /5884E5A9/))
      (tstamp 5B356CE6))
    (comp (ref U5)
      (value nRF24L01+)
      (footprint lib:NRF24L01)
      (datasheet DOCUMENTATION)
      (libsource (lib nRF24L01) (part nRF24L01+))
      (sheetpath (names /Radio/) (tstamps /5912AF79/))
      (tstamp 5912B0B4))
    (comp (ref P2)
      (value MOTOR_R)
      (footprint Pin_Headers:Pin_Header_Angled_1x06_Pitch2.54mm)
      (libsource (lib vss-cache) (part CONN_01X06))
      (sheetpath (names /MotorR/) (tstamps /59138C67/))
      (tstamp 5961529A))
    (comp (ref D8)
      (value SS34)
      (footprint Diodes_SMD:D_SMB_Handsoldering)
      (libsource (lib device) (part D_Schottky_ALT))
      (sheetpath (names /MotorR/) (tstamps /59138C67/))
      (tstamp 596152FE))
    (comp (ref D9)
      (value SS34)
      (footprint Diodes_SMD:D_SMB_Handsoldering)
      (libsource (lib device) (part D_Schottky_ALT))
      (sheetpath (names /MotorR/) (tstamps /59138C67/))
      (tstamp 59615305))
    (comp (ref D11)
      (value SS34)
      (footprint Diodes_SMD:D_SMB_Handsoldering)
      (libsource (lib device) (part D_Schottky_ALT))
      (sheetpath (names /MotorR/) (tstamps /59138C67/))
      (tstamp 59615316))
    (comp (ref D10)
      (value SS34)
      (footprint Diodes_SMD:D_SMB_Handsoldering)
      (libsource (lib device) (part D_Schottky_ALT))
      (sheetpath (names /MotorR/) (tstamps /59138C67/))
      (tstamp 5961531D)))
  (libparts
    (libpart (lib atmel) (part ATMEGA168A-AU)
      (aliases
        (alias ATMEGA48A-AU)
        (alias ATMEGA48PA-AU)
        (alias ATMEGA88A-AU)
        (alias ATMEGA88PA-AU)
        (alias ATMEGA168PA-AU)
        (alias ATMEGA328-AU)
        (alias ATMEGA328P-AU))
      (description "TQFP32, 16k Flash, 1kB SRAM, 512B EEPROM")
      (docs http://www.atmel.com/images/atmel-8271-8-bit-avr-microcontroller-atmega48a-48pa-88a-88pa-168a-168pa-328-328p_datasheet.pdf)
      (footprints
        (fp TQFP*7x7mm*Pitch0.8mm*))
      (fields
        (field (name Reference) U)
        (field (name Value) ATMEGA168A-AU)
        (field (name Footprint) Housings_QFP:TQFP-32_7x7mm_Pitch0.8mm))
      (pins
        (pin (num 1) (name "(PCINT19/OC2B/INT1)PD3") (type BiDi))
        (pin (num 2) (name "(PCINT20/XCK/T0)PD4") (type BiDi))
        (pin (num 3) (name GND) (type power_in))
        (pin (num 4) (name VCC) (type power_in))
        (pin (num 5) (name GND) (type power_in))
        (pin (num 6) (name VCC) (type power_in))
        (pin (num 7) (name "(PCINT6/XTAL1/TOSC1)PB6") (type BiDi))
        (pin (num 8) (name "(PCINT7/XTAL2/TOSC2)PB7") (type BiDi))
        (pin (num 9) (name "(PCINT21/OC0B/T1)PD5") (type BiDi))
        (pin (num 10) (name "(PCINT22/OC0A/AIN0)PD6") (type BiDi))
        (pin (num 11) (name "(PCINT23/AIN1)PD7") (type BiDi))
        (pin (num 12) (name "(PCINT0/CLKO/ICP1)PB0") (type BiDi))
        (pin (num 13) (name "(PCINT1/OC1A)PB1") (type BiDi))
        (pin (num 14) (name "(PCINT2/OC1B/~SS~)PB2") (type BiDi))
        (pin (num 15) (name "(PCINT3/OC2A/MOSI)PB3") (type BiDi))
        (pin (num 16) (name "(PCINT4/MISO)PB4") (type BiDi))
        (pin (num 17) (name "(PCINT5/SCK)PB5") (type BiDi))
        (pin (num 18) (name AVCC) (type power_in))
        (pin (num 19) (name ADC6) (type input))
        (pin (num 20) (name AREF) (type BiDi))
        (pin (num 21) (name GND) (type power_in))
        (pin (num 22) (name ADC7) (type input))
        (pin (num 23) (name "(PCINT8/ADC0)PC0") (type BiDi))
        (pin (num 24) (name "(PCINT9/ADC1)PC1") (type BiDi))
        (pin (num 25) (name "(PCINT10/ADC2)PC2") (type BiDi))
        (pin (num 26) (name "(PCINT11/ADC3)PC3") (type BiDi))
        (pin (num 27) (name "(PCINT12/SDA/ADC4)PC4") (type BiDi))
        (pin (num 28) (name "(PCINT13/SCL/ADC5)PC5") (type BiDi))
        (pin (num 29) (name "(PCINT14/~RESET~)PC6") (type BiDi))
        (pin (num 30) (name "(PCINT16/RXD)PD0") (type BiDi))
        (pin (num 31) (name "(PCINT17/TXD)PD1") (type BiDi))
        (pin (num 32) (name "(PCINT18/INT0)PD2") (type BiDi))))
    (libpart (lib device) (part C)
      (description "Unpolarized capacitor")
      (footprints
        (fp C_*))
      (fields
        (field (name Reference) C)
        (field (name Value) C))
      (pins
        (pin (num 1) (name ~) (type passive))
        (pin (num 2) (name ~) (type passive))))
    (libpart (lib vss-cache) (part CONN_01X04)
      (footprints
        (fp Pin_Header_Straight_1X*)
        (fp Pin_Header_Angled_1X*)
        (fp Socket_Strip_Straight_1X*)
        (fp Socket_Strip_Angled_1X*))
      (fields
        (field (name Reference) J)
        (field (name Value) CONN_01X04))
      (pins
        (pin (num 1) (name P1) (type passive))
        (pin (num 2) (name P2) (type passive))
        (pin (num 3) (name P3) (type passive))
        (pin (num 4) (name P4) (type passive))))
    (libpart (lib vss-cache) (part CONN_01X06)
      (footprints
        (fp Pin_Header_Straight_1X*)
        (fp Pin_Header_Angled_1X*)
        (fp Socket_Strip_Straight_1X*)
        (fp Socket_Strip_Angled_1X*))
      (fields
        (field (name Reference) J)
        (field (name Value) CONN_01X06))
      (pins
        (pin (num 1) (name P1) (type passive))
        (pin (num 2) (name P2) (type passive))
        (pin (num 3) (name P3) (type passive))
        (pin (num 4) (name P4) (type passive))
        (pin (num 5) (name P5) (type passive))
        (pin (num 6) (name P6) (type passive))))
    (libpart (lib vss-cache) (part CONN_02X02)
      (footprints
        (fp Pin_Header_Straight_2X*)
        (fp Pin_Header_Angled_2X*)
        (fp Socket_Strip_Straight_2X*)
        (fp Socket_Strip_Angled_2X*))
      (fields
        (field (name Reference) J)
        (field (name Value) CONN_02X02))
      (pins
        (pin (num 1) (name P1) (type passive))
        (pin (num 2) (name P2) (type passive))
        (pin (num 3) (name P3) (type passive))
        (pin (num 4) (name P4) (type passive))))
    (libpart (lib vss-cache) (part CONN_2X1F)
      (footprints
        (fp CONN_3X2F))
      (fields
        (field (name Reference) J)
        (field (name Value) CONN_2X1F))
      (pins
        (pin (num 1) (name ~) (type passive))
        (pin (num 2) (name ~) (type passive))))
    (libpart (lib device) (part CP)
      (description "Polarised capacitor")
      (footprints
        (fp CP_*))
      (fields
        (field (name Reference) C)
        (field (name Value) CP))
      (pins
        (pin (num 1) (name ~) (type passive))
        (pin (num 2) (name ~) (type passive))))
    (libpart (lib device) (part Crystal)
      (description "Two pin crystal")
      (footprints
        (fp Crystal*))
      (fields
        (field (name Reference) Y)
        (field (name Value) Crystal))
      (pins
        (pin (num 1) (name 1) (type passive))
        (pin (num 2) (name 2) (type passive))))
    (libpart (lib device) (part D_Schottky_ALT)
      (description "Schottky diode, alternativ symbol")
      (footprints
        (fp TO-???*)
        (fp *SingleDiode)
        (fp *_Diode_*)
        (fp *SingleDiode*)
        (fp D_*))
      (fields
        (field (name Reference) D)
        (field (name Value) D_Schottky_ALT))
      (pins
        (pin (num 1) (name K) (type passive))
        (pin (num 2) (name A) (type passive))))
    (libpart (lib device) (part L)
      (description Inductor)
      (footprints
        (fp Choke_*)
        (fp *Coil*)
        (fp Inductor_*)
        (fp L_*))
      (fields
        (field (name Reference) L)
        (field (name Value) L))
      (pins
        (pin (num 1) (name 1) (type passive))
        (pin (num 2) (name 2) (type passive))))
    (libpart (lib H-Bridge) (part L298)
      (description "Dual Full-Bridg Driver")
      (fields
        (field (name Reference) U)
        (field (name Value) L298))
      (pins
        (pin (num 1) (name GND) (type power_in))
        (pin (num 2) (name SENSE) (type output))
        (pin (num 4) (name OUT2) (type output))
        (pin (num 5) (name OUT1) (type output))
        (pin (num 6) (name VS) (type power_in))
        (pin (num 7) (name IN2) (type input))
        (pin (num 8) (name EN) (type input))
        (pin (num 9) (name IN1) (type input))
        (pin (num 10) (name GND) (type power_in))
        (pin (num 11) (name GND) (type power_in))
        (pin (num 12) (name VSS) (type power_in))
        (pin (num 13) (name IN1) (type input))
        (pin (num 14) (name EN) (type input))
        (pin (num 15) (name IN2) (type input))
        (pin (num 16) (name OUT1) (type output))
        (pin (num 17) (name OUT2) (type output))
        (pin (num 19) (name SENSE) (type output))
        (pin (num 20) (name GND) (type power_in))))
    (libpart (lib vss-cache) (part LED-RESCUE-vss)
      (footprints
        (fp LED-3MM)
        (fp LED-5MM)
        (fp LED-10MM)
        (fp LED-0603)
        (fp LED-0805)
        (fp LED-1206)
        (fp LEDV))
      (fields
        (field (name Reference) D)
        (field (name Value) LED-RESCUE-vss))
      (pins
        (pin (num 1) (name K) (type passive))
        (pin (num 2) (name A) (type passive))))
    (libpart (lib regul) (part LM1117-1.8)
      (aliases
        (alias LM1117-2.5)
        (alias LM1117-3.3)
        (alias LM1117-5.0)
        (alias TLV1117-15)
        (alias TLV1117-18)
        (alias TLV1117-25)
        (alias TLV1117-33)
        (alias TLV1117-50))
      (description "800mA Low-Dropout Linear Regulator, 1.8V fixed output, TO-220/TO-252/TO-263/SOT-223")
      (docs http://www.ti.com/lit/ds/symlink/lm1117.pdf)
      (footprints
        (fp SOT?223*)
        (fp TO?263*)
        (fp TO?252*)
        (fp TO?220*))
      (fields
        (field (name Reference) U)
        (field (name Value) LM1117-1.8))
      (pins
        (pin (num 1) (name GND) (type power_in))
        (pin (num 2) (name VO) (type power_out))
        (pin (num 3) (name VI) (type power_in))))
    (libpart (lib Regulators) (part LM78L05)
      (fields
        (field (name Reference) U)
        (field (name Value) LM78L05))
      (pins
        (pin (num 1) (name VO) (type power_out))
        (pin (num 2) (name GND) (type input))
        (pin (num 3) (name VI) (type input))))
    (libpart (lib device) (part R)
      (description Resistor)
      (footprints
        (fp R_*)
        (fp R_*))
      (fields
        (field (name Reference) R)
        (field (name Value) R))
      (pins
        (pin (num 1) (name ~) (type passive))
        (pin (num 2) (name ~) (type passive))))
    (libpart (lib switches) (part SW_SPDT)
      (fields
        (field (name Reference) SW)
        (field (name Value) SW_SPDT))
      (pins
        (pin (num 1) (name A) (type passive))
        (pin (num 2) (name B) (type passive))
        (pin (num 3) (name C) (type passive))))
    (libpart (lib nRF24L01) (part nRF24L01+)
      (fields
        (field (name Reference) U)
        (field (name Value) nRF24L01+)
        (field (name Footprint) MODULE)
        (field (name Datasheet) DOCUMENTATION))
      (pins
        (pin (num 1) (name GND) (type power_in))
        (pin (num 2) (name VCC) (type power_in))
        (pin (num 3) (name CE) (type input))
        (pin (num 4) (name CSN) (type input))
        (pin (num 5) (name SCK) (type input))
        (pin (num 6) (name MOSI) (type input))
        (pin (num 7) (name MISO) (type output))
        (pin (num 8) (name IRQ) (type output)))))
  (libraries
    (library (logical atmel)
      (uri /usr/share/kicad/library/atmel.lib))
    (library (logical nRF24L01)
      (uri lib/nRF24L01.lib))
    (library (logical H-Bridge)
      (uri lib/H-Bridge.lib))
    (library (logical switches)
      (uri lib/switches.lib))
    (library (logical vss-cache)
      (uri /home/junior/GoogleDrive/GRIF/eletronica/principal/vss-cache.lib))
    (library (logical regul)
      (uri /usr/share/kicad/library/regul.lib))
    (library (logical Regulators)
      (uri lib/Regulators.lib))
    (library (logical device)
      (uri /usr/share/kicad/library/device.lib)))
  (nets
    (net (code 1) (name /Radio/MISO)
      (node (ref U5) (pin 7))
      (node (ref U1) (pin 16)))
    (net (code 2) (name /Radio/IRQ)
      (node (ref U5) (pin 8))
      (node (ref U1) (pin 32)))
    (net (code 3) (name /Radio/CE)
      (node (ref U1) (pin 24))
      (node (ref U5) (pin 3)))
    (net (code 4) (name /MotorR/PWM_1)
      (node (ref U2) (pin 13))
      (node (ref U1) (pin 13)))
    (net (code 5) (name /MotorR/ENCODER_1)
      (node (ref U1) (pin 11))
      (node (ref P2) (pin 4)))
    (net (code 6) (name /MotorR/ENCODER_2)
      (node (ref P2) (pin 5))
      (node (ref U1) (pin 12)))
    (net (code 7) (name /Radio/CSN)
      (node (ref U1) (pin 23))
      (node (ref U5) (pin 4)))
    (net (code 8) (name /Radio/SCK)
      (node (ref U1) (pin 17))
      (node (ref U5) (pin 5)))
    (net (code 9) (name /Radio/MOSI)
      (node (ref U5) (pin 6))
      (node (ref U1) (pin 15)))
    (net (code 10) (name /MotorR/PWM_2)
      (node (ref U2) (pin 15))
      (node (ref U1) (pin 14)))
    (net (code 11) (name /MotorL/PWM_1)
      (node (ref U2) (pin 9))
      (node (ref U1) (pin 10)))
    (net (code 12) (name /MotorL/PWM_2)
      (node (ref U2) (pin 7))
      (node (ref U1) (pin 9)))
    (net (code 13) (name /Microcontroller/BATTERY_VOLTAGE)
      (node (ref R9) (pin 2))
      (node (ref U1) (pin 28))
      (node (ref R10) (pin 1)))
    (net (code 14) (name /MotorL/ENCODER_1)
      (node (ref U1) (pin 1))
      (node (ref P1) (pin 3)))
    (net (code 15) (name /MotorL/ENCODER_2)
      (node (ref U1) (pin 27))
      (node (ref P1) (pin 2)))
    (net (code 16) (name "Net-(C3-Pad1)")
      (node (ref C3) (pin 1))
      (node (ref U1) (pin 20)))
    (net (code 17) (name "Net-(C4-Pad2)")
      (node (ref U1) (pin 7))
      (node (ref C4) (pin 2))
      (node (ref Y1) (pin 2)))
    (net (code 18) (name "Net-(D1-Pad1)")
      (node (ref R1) (pin 1))
      (node (ref D1) (pin 1)))
    (net (code 19) (name "Net-(C5-Pad2)")
      (node (ref Y1) (pin 1))
      (node (ref C5) (pin 2))
      (node (ref U1) (pin 8)))
    (net (code 20) (name /Microcontroller/RX)
      (node (ref U1) (pin 30))
      (node (ref J7) (pin 2)))
    (net (code 21) (name "Net-(D2-Pad1)")
      (node (ref R2) (pin 1))
      (node (ref D2) (pin 1)))
    (net (code 22) (name /Microcontroller/LED_LOW_BAT)
      (node (ref U1) (pin 2))
      (node (ref D2) (pin 2)))
    (net (code 23) (name /Microcontroller/ID_0)
      (node (ref J6) (pin 2))
      (node (ref U1) (pin 26)))
    (net (code 24) (name /Microcontroller/ID_1)
      (node (ref J6) (pin 4))
      (node (ref U1) (pin 25)))
    (net (code 25) (name /Microcontroller/TX)
      (node (ref J7) (pin 3))
      (node (ref U1) (pin 31)))
    (net (code 26) (name "Net-(C2-Pad1)")
      (node (ref C2) (pin 1))
      (node (ref U1) (pin 18))
      (node (ref L1) (pin 1)))
    (net (code 27) (name +5V)
      (node (ref C1) (pin 1))
      (node (ref U2) (pin 14))
      (node (ref U2) (pin 8))
      (node (ref P2) (pin 3))
      (node (ref P1) (pin 4))
      (node (ref C12) (pin 1))
      (node (ref U2) (pin 12))
      (node (ref U3) (pin 3))
      (node (ref C11) (pin 1))
      (node (ref U1) (pin 4))
      (node (ref U1) (pin 6))
      (node (ref U4) (pin 1))
      (node (ref D1) (pin 2))
      (node (ref L1) (pin 2))
      (node (ref C13) (pin 1)))
    (net (code 28) (name GND)
      (node (ref C8) (pin 2))
      (node (ref U5) (pin 1))
      (node (ref C7) (pin 2))
      (node (ref C10) (pin 2))
      (node (ref U2) (pin 20))
      (node (ref C11) (pin 2))
      (node (ref U3) (pin 1))
      (node (ref C12) (pin 2))
      (node (ref J2) (pin 2))
      (node (ref J3) (pin 2))
      (node (ref U2) (pin 19))
      (node (ref U4) (pin 2))
      (node (ref D9) (pin 2))
      (node (ref R10) (pin 2))
      (node (ref D11) (pin 2))
      (node (ref C9) (pin 2))
      (node (ref C3) (pin 2))
      (node (ref C4) (pin 1))
      (node (ref C5) (pin 1))
      (node (ref J6) (pin 3))
      (node (ref U1) (pin 3))
      (node (ref C13) (pin 2))
      (node (ref J7) (pin 4))
      (node (ref U1) (pin 5))
      (node (ref U1) (pin 21))
      (node (ref C2) (pin 2))
      (node (ref R2) (pin 2))
      (node (ref R1) (pin 2))
      (node (ref J6) (pin 1))
      (node (ref C15) (pin 2))
      (node (ref P2) (pin 6))
      (node (ref C6) (pin 2))
      (node (ref U2) (pin 2))
      (node (ref P1) (pin 1))
      (node (ref U2) (pin 1))
      (node (ref D7) (pin 2))
      (node (ref D5) (pin 2))
      (node (ref U2) (pin 10))
      (node (ref U2) (pin 11))
      (node (ref C1) (pin 2)))
    (net (code 29) (name /Microcontroller/RESET)
      (node (ref U1) (pin 29))
      (node (ref J7) (pin 1)))
    (net (code 30) (name "Net-(U1-Pad22)")
      (node (ref U1) (pin 22)))
    (net (code 31) (name "Net-(U1-Pad19)")
      (node (ref U1) (pin 19)))
    (net (code 32) (name +BATT)
      (node (ref D8) (pin 1))
      (node (ref D10) (pin 1))
      (node (ref D3) (pin 1))
      (node (ref D4) (pin 1))
      (node (ref C15) (pin 1))
      (node (ref C6) (pin 1))
      (node (ref C9) (pin 1))
      (node (ref D6) (pin 1))
      (node (ref U2) (pin 6))
      (node (ref U4) (pin 3))
      (node (ref R9) (pin 1))
      (node (ref C10) (pin 1)))
    (net (code 33) (name "Net-(D6-Pad2)")
      (node (ref P1) (pin 6))
      (node (ref U2) (pin 4))
      (node (ref D6) (pin 2))
      (node (ref D7) (pin 1)))
    (net (code 34) (name "Net-(D4-Pad2)")
      (node (ref U2) (pin 5))
      (node (ref P1) (pin 5))
      (node (ref D5) (pin 1))
      (node (ref D4) (pin 2)))
    (net (code 35) (name "Net-(J2-Pad1)")
      (node (ref J2) (pin 1))
      (node (ref SW1) (pin 3)))
    (net (code 36) (name "Net-(J3-Pad1)")
      (node (ref J3) (pin 1))
      (node (ref SW1) (pin 2)))
    (net (code 37) (name "Net-(D3-Pad2)")
      (node (ref D3) (pin 2))
      (node (ref SW1) (pin 1)))
    (net (code 38) (name +3V3)
      (node (ref C7) (pin 1))
      (node (ref C8) (pin 1))
      (node (ref U3) (pin 2))
      (node (ref U5) (pin 2)))
    (net (code 39) (name "Net-(D8-Pad2)")
      (node (ref P2) (pin 2))
      (node (ref U2) (pin 16))
      (node (ref D8) (pin 2))
      (node (ref D9) (pin 1)))
    (net (code 40) (name "Net-(D10-Pad2)")
      (node (ref D11) (pin 1))
      (node (ref D10) (pin 2))
      (node (ref U2) (pin 17))
      (node (ref P2) (pin 1)))))